EESchema Schematic File Version 4
LIBS:output-amp-5voies-cache
EELAYER 29 0
EELAYER END
$Descr A2 23386 16535
encoding utf-8
Sheet 1 1
Title ""
Date ""
Rev ""
Comp ""
Comment1 ""
Comment2 ""
Comment3 ""
Comment4 ""
$EndDescr
$Comp
L Device:R R108
U 1 1 5A899B3F
P 9900 4700
F 0 "R108" V 9980 4700 50  0000 C CNN
F 1 "10k" V 9900 4700 50  0000 C CNN
F 2 "electronik:Resistor_Horizontal_RM6mm" V 9830 4700 50  0001 C CNN
F 3 "" H 9900 4700 50  0000 C CNN
	1    9900 4700
	0    1    1    0   
$EndComp
$Comp
L Device:R R107
U 1 1 5A899B9A
P 9250 4700
F 0 "R107" V 9330 4700 50  0000 C CNN
F 1 "4.7k" V 9250 4700 50  0000 C CNN
F 2 "electronik:Resistor_Horizontal_RM6mm" V 9180 4700 50  0001 C CNN
F 3 "" H 9250 4700 50  0000 C CNN
	1    9250 4700
	0    1    1    0   
$EndComp
$Comp
L Device:R R110
U 1 1 5A899BC7
P 10550 5650
F 0 "R110" V 10630 5650 50  0000 C CNN
F 1 "68" V 10550 5650 50  0000 C CNN
F 2 "electronik:Resistor_Horizontal_RM6mm" V 10480 5650 50  0001 C CNN
F 3 "" H 10550 5650 50  0000 C CNN
	1    10550 5650
	0    1    1    0   
$EndComp
Text GLabel 9900 5950 3    60   Input ~ 0
v+
Text GLabel 9900 5350 1    60   Input ~ 0
v-
$Comp
L Device:C C104
U 1 1 5A899DD9
P 9900 4950
F 0 "C104" H 9925 5050 50  0000 L CNN
F 1 "47p" H 9925 4850 50  0000 L CNN
F 2 "Capacitors_ThroughHole:C_Rect_L10.0mm_W2.5mm_P7.50mm_MKS4" H 9938 4800 50  0001 C CNN
F 3 "" H 9900 4950 50  0000 C CNN
	1    9900 4950
	0    1    1    0   
$EndComp
$Comp
L power:GND #PWR?
U 1 1 5A89A0D0
P 9100 4700
F 0 "#PWR?" H 9100 4450 50  0001 C CNN
F 1 "GND" H 9100 4550 50  0000 C CNN
F 2 "" H 9100 4700 50  0000 C CNN
F 3 "" H 9100 4700 50  0000 C CNN
	1    9100 4700
	0    1    1    0   
$EndComp
$Comp
L output-amp-5voies-rescue:JACK_TRS_6PINS J102
U 1 1 5A89A454
P 14150 5700
F 0 "J102" H 14150 6100 50  0000 C CNN
F 1 "JACK_TRS_6PINS" H 14100 5400 50  0000 C CNN
F 2 "Connect:NMJ6HCD2" H 14250 5550 50  0001 C CNN
F 3 "" H 14250 5550 50  0000 C CNN
	1    14150 5700
	-1   0    0    1   
$EndComp
$Comp
L Device:CP C105
U 1 1 5A89AE53
P 12850 5700
F 0 "C105" H 12875 5800 50  0000 L CNN
F 1 "CP" H 12875 5600 50  0000 L CNN
F 2 "Capacitors_ThroughHole:CP_Radial_D5.0mm_P2.50mm" H 12888 5550 50  0001 C CNN
F 3 "" H 12850 5700 50  0000 C CNN
	1    12850 5700
	0    -1   -1   0   
$EndComp
$Comp
L Device:R R111
U 1 1 5A89AE59
P 13100 5950
F 0 "R111" V 13180 5950 50  0000 C CNN
F 1 "22k" V 13100 5950 50  0000 C CNN
F 2 "electronik:Resistor_Horizontal_RM6mm" V 13030 5950 50  0001 C CNN
F 3 "" H 13100 5950 50  0000 C CNN
	1    13100 5950
	-1   0    0    1   
$EndComp
$Comp
L output-amp-5voies-rescue:GNDPWR #PWR?
U 1 1 5A89BA4F
P 13500 6150
F 0 "#PWR?" H 13500 5950 50  0001 C CNN
F 1 "GNDPWR" H 13500 6020 50  0000 C CNN
F 2 "" H 13500 6100 50  0000 C CNN
F 3 "" H 13500 6100 50  0000 C CNN
	1    13500 6150
	1    0    0    -1  
$EndComp
$Comp
L output-amp-5voies-rescue:GNDPWR #PWR?
U 1 1 5A89BB17
P 7150 6500
F 0 "#PWR?" H 7150 6300 50  0001 C CNN
F 1 "GNDPWR" H 7150 6370 50  0000 C CNN
F 2 "" H 7150 6450 50  0000 C CNN
F 3 "" H 7150 6450 50  0000 C CNN
	1    7150 6500
	1    0    0    -1  
$EndComp
$Comp
L power:GND #PWR?
U 1 1 5A89BB4F
P 6850 6500
F 0 "#PWR?" H 6850 6250 50  0001 C CNN
F 1 "GND" H 6850 6350 50  0000 C CNN
F 2 "" H 6850 6500 50  0000 C CNN
F 3 "" H 6850 6500 50  0000 C CNN
	1    6850 6500
	1    0    0    -1  
$EndComp
$Comp
L Device:R R114
U 1 1 5A89BB87
P 7000 6400
F 0 "R114" V 7080 6400 50  0000 C CNN
F 1 "10" V 7000 6400 50  0000 C CNN
F 2 "electronik:Resistor_Horizontal_RM6mm" V 6930 6400 50  0001 C CNN
F 3 "" H 7000 6400 50  0000 C CNN
	1    7000 6400
	0    -1   -1   0   
$EndComp
$Comp
L Device:C C107
U 1 1 5A89BC26
P 7000 6200
F 0 "C107" H 7025 6300 50  0000 L CNN
F 1 "100n" H 7025 6100 50  0000 L CNN
F 2 "Capacitors_ThroughHole:C_Rect_L10.0mm_W2.5mm_P7.50mm_MKS4" H 7038 6050 50  0001 C CNN
F 3 "" H 7000 6200 50  0000 C CNN
	1    7000 6200
	0    1    1    0   
$EndComp
$Comp
L output-amp-5voies-rescue:GNDPWR #PWR?
U 1 1 5A89BF51
P 13100 6100
F 0 "#PWR?" H 13100 5900 50  0001 C CNN
F 1 "GNDPWR" H 13100 5970 50  0000 C CNN
F 2 "" H 13100 6050 50  0000 C CNN
F 3 "" H 13100 6050 50  0000 C CNN
	1    13100 6100
	1    0    0    -1  
$EndComp
$Comp
L Device:C C108
U 1 1 5A89C509
P 2300 6400
F 0 "C108" H 2325 6500 50  0000 L CNN
F 1 "100n" H 2325 6300 50  0000 L CNN
F 2 "Capacitors_ThroughHole:C_Rect_L10.0mm_W2.5mm_P7.50mm_MKS4" H 2338 6250 50  0001 C CNN
F 3 "" H 2300 6400 50  0000 C CNN
	1    2300 6400
	-1   0    0    1   
$EndComp
$Comp
L Device:C C109
U 1 1 5A89C5A3
P 2650 6400
F 0 "C109" H 2675 6500 50  0000 L CNN
F 1 "100n" H 2675 6300 50  0000 L CNN
F 2 "Capacitors_ThroughHole:C_Rect_L10.0mm_W2.5mm_P7.50mm_MKS4" H 2688 6250 50  0001 C CNN
F 3 "" H 2650 6400 50  0000 C CNN
	1    2650 6400
	-1   0    0    1   
$EndComp
$Comp
L Device:C C110
U 1 1 5A89C5F6
P 3050 6400
F 0 "C110" H 3075 6500 50  0000 L CNN
F 1 "100n" H 3075 6300 50  0000 L CNN
F 2 "Capacitors_ThroughHole:C_Rect_L10.0mm_W2.5mm_P7.50mm_MKS4" H 3088 6250 50  0001 C CNN
F 3 "" H 3050 6400 50  0000 C CNN
	1    3050 6400
	-1   0    0    1   
$EndComp
$Comp
L Device:C C111
U 1 1 5A89C64C
P 3400 6400
F 0 "C111" H 3425 6500 50  0000 L CNN
F 1 "100n" H 3425 6300 50  0000 L CNN
F 2 "Capacitors_ThroughHole:C_Rect_L10.0mm_W2.5mm_P7.50mm_MKS4" H 3438 6250 50  0001 C CNN
F 3 "" H 3400 6400 50  0000 C CNN
	1    3400 6400
	-1   0    0    1   
$EndComp
$Comp
L Device:C C112
U 1 1 5A89C6AC
P 3750 6400
F 0 "C112" H 3775 6500 50  0000 L CNN
F 1 "100n" H 3775 6300 50  0000 L CNN
F 2 "Capacitors_ThroughHole:C_Rect_L10.0mm_W2.5mm_P7.50mm_MKS4" H 3788 6250 50  0001 C CNN
F 3 "" H 3750 6400 50  0000 C CNN
	1    3750 6400
	-1   0    0    1   
$EndComp
$Comp
L Device:C C114
U 1 1 5A89C90B
P 2300 7150
F 0 "C114" H 2325 7250 50  0000 L CNN
F 1 "100n" H 2325 7050 50  0000 L CNN
F 2 "Capacitors_ThroughHole:C_Rect_L10.0mm_W2.5mm_P7.50mm_MKS4" H 2338 7000 50  0001 C CNN
F 3 "" H 2300 7150 50  0000 C CNN
	1    2300 7150
	-1   0    0    1   
$EndComp
$Comp
L Device:C C115
U 1 1 5A89C911
P 2650 7150
F 0 "C115" H 2675 7250 50  0000 L CNN
F 1 "100n" H 2675 7050 50  0000 L CNN
F 2 "Capacitors_ThroughHole:C_Rect_L10.0mm_W2.5mm_P7.50mm_MKS4" H 2688 7000 50  0001 C CNN
F 3 "" H 2650 7150 50  0000 C CNN
	1    2650 7150
	-1   0    0    1   
$EndComp
$Comp
L Device:C C116
U 1 1 5A89C917
P 3050 7150
F 0 "C116" H 3075 7250 50  0000 L CNN
F 1 "100n" H 3075 7050 50  0000 L CNN
F 2 "Capacitors_ThroughHole:C_Rect_L10.0mm_W2.5mm_P7.50mm_MKS4" H 3088 7000 50  0001 C CNN
F 3 "" H 3050 7150 50  0000 C CNN
	1    3050 7150
	-1   0    0    1   
$EndComp
$Comp
L Device:C C117
U 1 1 5A89C91D
P 3400 7150
F 0 "C117" H 3425 7250 50  0000 L CNN
F 1 "100n" H 3425 7050 50  0000 L CNN
F 2 "Capacitors_ThroughHole:C_Rect_L10.0mm_W2.5mm_P7.50mm_MKS4" H 3438 7000 50  0001 C CNN
F 3 "" H 3400 7150 50  0000 C CNN
	1    3400 7150
	-1   0    0    1   
$EndComp
$Comp
L Device:C C118
U 1 1 5A89C923
P 3750 7150
F 0 "C118" H 3775 7250 50  0000 L CNN
F 1 "100n" H 3775 7050 50  0000 L CNN
F 2 "Capacitors_ThroughHole:C_Rect_L10.0mm_W2.5mm_P7.50mm_MKS4" H 3788 7000 50  0001 C CNN
F 3 "" H 3750 7150 50  0000 C CNN
	1    3750 7150
	-1   0    0    1   
$EndComp
$Comp
L output-amp-5voies-rescue:CONN_01X03 P104
U 1 1 5A89D229
P 850 6750
F 0 "P104" H 850 6950 50  0000 C CNN
F 1 "CONN_01X03" V 950 6750 50  0000 C CNN
F 2 "Connectors:PINHEAD1-3" H 850 6750 50  0001 C CNN
F 3 "" H 850 6750 50  0000 C CNN
	1    850  6750
	-1   0    0    1   
$EndComp
$Comp
L power:GND #PWR?
U 1 1 5A89D6F6
P 2300 6550
F 0 "#PWR?" H 2300 6300 50  0001 C CNN
F 1 "GND" H 2300 6400 50  0000 C CNN
F 2 "" H 2300 6550 50  0000 C CNN
F 3 "" H 2300 6550 50  0000 C CNN
	1    2300 6550
	1    0    0    -1  
$EndComp
$Comp
L power:GND #PWR?
U 1 1 5A89D7B5
P 2300 7300
F 0 "#PWR?" H 2300 7050 50  0001 C CNN
F 1 "GND" H 2300 7150 50  0000 C CNN
F 2 "" H 2300 7300 50  0000 C CNN
F 3 "" H 2300 7300 50  0000 C CNN
	1    2300 7300
	1    0    0    -1  
$EndComp
$Comp
L power:GND #PWR?
U 1 1 5A89D81A
P 2650 7300
F 0 "#PWR?" H 2650 7050 50  0001 C CNN
F 1 "GND" H 2650 7150 50  0000 C CNN
F 2 "" H 2650 7300 50  0000 C CNN
F 3 "" H 2650 7300 50  0000 C CNN
	1    2650 7300
	1    0    0    -1  
$EndComp
$Comp
L power:GND #PWR?
U 1 1 5A89D87F
P 3050 7300
F 0 "#PWR?" H 3050 7050 50  0001 C CNN
F 1 "GND" H 3050 7150 50  0000 C CNN
F 2 "" H 3050 7300 50  0000 C CNN
F 3 "" H 3050 7300 50  0000 C CNN
	1    3050 7300
	1    0    0    -1  
$EndComp
$Comp
L power:GND #PWR?
U 1 1 5A89D8E4
P 3400 7300
F 0 "#PWR?" H 3400 7050 50  0001 C CNN
F 1 "GND" H 3400 7150 50  0000 C CNN
F 2 "" H 3400 7300 50  0000 C CNN
F 3 "" H 3400 7300 50  0000 C CNN
	1    3400 7300
	1    0    0    -1  
$EndComp
$Comp
L power:GND #PWR?
U 1 1 5A89D949
P 3400 6550
F 0 "#PWR?" H 3400 6300 50  0001 C CNN
F 1 "GND" H 3400 6400 50  0000 C CNN
F 2 "" H 3400 6550 50  0000 C CNN
F 3 "" H 3400 6550 50  0000 C CNN
	1    3400 6550
	1    0    0    -1  
$EndComp
$Comp
L power:GND #PWR?
U 1 1 5A89D9AE
P 3050 6550
F 0 "#PWR?" H 3050 6300 50  0001 C CNN
F 1 "GND" H 3050 6400 50  0000 C CNN
F 2 "" H 3050 6550 50  0000 C CNN
F 3 "" H 3050 6550 50  0000 C CNN
	1    3050 6550
	1    0    0    -1  
$EndComp
$Comp
L power:GND #PWR?
U 1 1 5A89DA13
P 2650 6550
F 0 "#PWR?" H 2650 6300 50  0001 C CNN
F 1 "GND" H 2650 6400 50  0000 C CNN
F 2 "" H 2650 6550 50  0000 C CNN
F 3 "" H 2650 6550 50  0000 C CNN
	1    2650 6550
	1    0    0    -1  
$EndComp
$Comp
L power:GND #PWR?
U 1 1 5A89DBE2
P 3750 6550
F 0 "#PWR?" H 3750 6300 50  0001 C CNN
F 1 "GND" H 3750 6400 50  0000 C CNN
F 2 "" H 3750 6550 50  0000 C CNN
F 3 "" H 3750 6550 50  0000 C CNN
	1    3750 6550
	1    0    0    -1  
$EndComp
$Comp
L power:GND #PWR?
U 1 1 5A89DC47
P 3750 7300
F 0 "#PWR?" H 3750 7050 50  0001 C CNN
F 1 "GND" H 3750 7150 50  0000 C CNN
F 2 "" H 3750 7300 50  0000 C CNN
F 3 "" H 3750 7300 50  0000 C CNN
	1    3750 7300
	1    0    0    -1  
$EndComp
Text GLabel 2100 6250 1    60   Input ~ 0
v+
Text GLabel 2100 7000 1    60   Input ~ 0
v-
$Comp
L Device:R R113
U 1 1 5A89E278
P 1350 6250
F 0 "R113" V 1430 6250 50  0000 C CNN
F 1 "10" V 1350 6250 50  0000 C CNN
F 2 "electronik:Resistor_Horizontal_RM6mm" V 1280 6250 50  0001 C CNN
F 3 "" H 1350 6250 50  0000 C CNN
	1    1350 6250
	0    -1   -1   0   
$EndComp
$Comp
L Device:R R117
U 1 1 5A89E346
P 1350 7000
F 0 "R117" V 1430 7000 50  0000 C CNN
F 1 "10" V 1350 7000 50  0000 C CNN
F 2 "electronik:Resistor_Horizontal_RM6mm" V 1280 7000 50  0001 C CNN
F 3 "" H 1350 7000 50  0000 C CNN
	1    1350 7000
	0    -1   -1   0   
$EndComp
$Comp
L power:PWR_FLAG #FLG?
U 1 1 5A89E629
P 2650 6250
F 0 "#FLG?" H 2650 6345 50  0001 C CNN
F 1 "PWR_FLAG" H 2650 6430 50  0000 C CNN
F 2 "" H 2650 6250 50  0000 C CNN
F 3 "" H 2650 6250 50  0000 C CNN
	1    2650 6250
	1    0    0    -1  
$EndComp
$Comp
L power:PWR_FLAG #FLG?
U 1 1 5A89E71B
P 2650 7000
F 0 "#FLG?" H 2650 7095 50  0001 C CNN
F 1 "PWR_FLAG" H 2650 7180 50  0000 C CNN
F 2 "" H 2650 7000 50  0000 C CNN
F 3 "" H 2650 7000 50  0000 C CNN
	1    2650 7000
	1    0    0    -1  
$EndComp
$Comp
L power:GND #PWR?
U 1 1 5A89B36D
P 8750 6150
F 0 "#PWR?" H 8750 5900 50  0001 C CNN
F 1 "GND" H 8750 6000 50  0000 C CNN
F 2 "" H 8750 6150 50  0000 C CNN
F 3 "" H 8750 6150 50  0000 C CNN
	1    8750 6150
	1    0    0    -1  
$EndComp
$Comp
L Device:R R112
U 1 1 5A89B366
P 8750 6000
F 0 "R112" V 8830 6000 50  0000 C CNN
F 1 "22k" V 8750 6000 50  0000 C CNN
F 2 "electronik:Resistor_Horizontal_RM6mm" V 8680 6000 50  0001 C CNN
F 3 "" H 8750 6000 50  0000 C CNN
	1    8750 6000
	-1   0    0    1   
$EndComp
$Comp
L output-amp-5voies-rescue:CONN_01X01 P103
U 1 1 5A8A6C60
P 4950 5750
F 0 "P103" H 4950 5850 50  0000 C CNN
F 1 "CONN_01X01" V 5050 5750 50  0000 C CNN
F 2 "Connectors:PINTST" H 4950 5750 50  0001 C CNN
F 3 "" H 4950 5750 50  0000 C CNN
	1    4950 5750
	-1   0    0    1   
$EndComp
$Comp
L output-amp-5voies-rescue:CONN_01X01 P102
U 1 1 5A8A6CF4
P 6400 5300
F 0 "P102" H 6400 5400 50  0000 C CNN
F 1 "CONN_01X01" V 6500 5300 50  0000 C CNN
F 2 "Connectors:PINTST" H 6400 5300 50  0001 C CNN
F 3 "" H 6400 5300 50  0000 C CNN
	1    6400 5300
	-1   0    0    1   
$EndComp
$Comp
L power:GND #PWR?
U 1 1 5A8A6D8C
P 6900 5300
F 0 "#PWR?" H 6900 5050 50  0001 C CNN
F 1 "GND" H 6900 5150 50  0000 C CNN
F 2 "" H 6900 5300 50  0000 C CNN
F 3 "" H 6900 5300 50  0000 C CNN
	1    6900 5300
	0    -1   -1   0   
$EndComp
$Comp
L Device:C C106
U 1 1 5A8A8188
P 13350 5950
F 0 "C106" H 13375 6050 50  0000 L CNN
F 1 "680p" H 13375 5850 50  0000 L CNN
F 2 "Capacitors_ThroughHole:C_Rect_L10.0mm_W2.5mm_P7.50mm_MKS4" H 13388 5800 50  0001 C CNN
F 3 "" H 13350 5950 50  0000 C CNN
	1    13350 5950
	-1   0    0    1   
$EndComp
$Comp
L output-amp-5voies-rescue:GNDPWR #PWR?
U 1 1 5A8A8399
P 13350 6100
F 0 "#PWR?" H 13350 5900 50  0001 C CNN
F 1 "GNDPWR" H 13350 5970 50  0000 C CNN
F 2 "" H 13350 6050 50  0000 C CNN
F 3 "" H 13350 6050 50  0000 C CNN
	1    13350 6100
	1    0    0    -1  
$EndComp
$Comp
L Device:R R116
U 1 1 5A8A8987
P 9900 6800
F 0 "R116" V 9980 6800 50  0000 C CNN
F 1 "10k" V 9900 6800 50  0000 C CNN
F 2 "electronik:Resistor_Horizontal_RM6mm" V 9830 6800 50  0001 C CNN
F 3 "" H 9900 6800 50  0000 C CNN
	1    9900 6800
	0    1    1    0   
$EndComp
$Comp
L Device:R R115
U 1 1 5A8A898D
P 9250 6800
F 0 "R115" V 9330 6800 50  0000 C CNN
F 1 "4.7k" V 9250 6800 50  0000 C CNN
F 2 "electronik:Resistor_Horizontal_RM6mm" V 9180 6800 50  0001 C CNN
F 3 "" H 9250 6800 50  0000 C CNN
	1    9250 6800
	0    1    1    0   
$EndComp
$Comp
L Device:R R119
U 1 1 5A8A8993
P 10550 7750
F 0 "R119" V 10630 7750 50  0000 C CNN
F 1 "68" V 10550 7750 50  0000 C CNN
F 2 "electronik:Resistor_Horizontal_RM6mm" V 10480 7750 50  0001 C CNN
F 3 "" H 10550 7750 50  0000 C CNN
	1    10550 7750
	0    1    1    0   
$EndComp
Text GLabel 9900 8050 3    60   Input ~ 0
v+
Text GLabel 9900 7450 1    60   Input ~ 0
v-
$Comp
L Device:C C113
U 1 1 5A8A899B
P 9900 7050
F 0 "C113" H 9925 7150 50  0000 L CNN
F 1 "47p" H 9925 6950 50  0000 L CNN
F 2 "Capacitors_ThroughHole:C_Rect_L10.0mm_W2.5mm_P7.50mm_MKS4" H 9938 6900 50  0001 C CNN
F 3 "" H 9900 7050 50  0000 C CNN
	1    9900 7050
	0    1    1    0   
$EndComp
$Comp
L power:GND #PWR?
U 1 1 5A8A89A1
P 9100 6800
F 0 "#PWR?" H 9100 6550 50  0001 C CNN
F 1 "GND" H 9100 6650 50  0000 C CNN
F 2 "" H 9100 6800 50  0000 C CNN
F 3 "" H 9100 6800 50  0000 C CNN
	1    9100 6800
	0    1    1    0   
$EndComp
$Comp
L output-amp-5voies-rescue:JACK_TRS_6PINS J103
U 1 1 5A8A89A7
P 14150 7800
F 0 "J103" H 14150 8200 50  0000 C CNN
F 1 "JACK_TRS_6PINS" H 14100 7500 50  0000 C CNN
F 2 "Connect:NMJ6HCD2" H 14250 7650 50  0001 C CNN
F 3 "" H 14250 7650 50  0000 C CNN
	1    14150 7800
	-1   0    0    1   
$EndComp
$Comp
L Device:CP C119
U 1 1 5A8A89AD
P 12850 7800
F 0 "C119" H 12875 7900 50  0000 L CNN
F 1 "CP" H 12875 7700 50  0000 L CNN
F 2 "Capacitors_ThroughHole:CP_Radial_D5.0mm_P2.50mm" H 12888 7650 50  0001 C CNN
F 3 "" H 12850 7800 50  0000 C CNN
	1    12850 7800
	0    -1   -1   0   
$EndComp
$Comp
L Device:R R120
U 1 1 5A8A89B3
P 13100 8050
F 0 "R120" V 13180 8050 50  0000 C CNN
F 1 "22k" V 13100 8050 50  0000 C CNN
F 2 "electronik:Resistor_Horizontal_RM6mm" V 13030 8050 50  0001 C CNN
F 3 "" H 13100 8050 50  0000 C CNN
	1    13100 8050
	-1   0    0    1   
$EndComp
$Comp
L output-amp-5voies-rescue:GNDPWR #PWR?
U 1 1 5A8A89B9
P 13500 8250
F 0 "#PWR?" H 13500 8050 50  0001 C CNN
F 1 "GNDPWR" H 13500 8120 50  0000 C CNN
F 2 "" H 13500 8200 50  0000 C CNN
F 3 "" H 13500 8200 50  0000 C CNN
	1    13500 8250
	1    0    0    -1  
$EndComp
$Comp
L output-amp-5voies-rescue:GNDPWR #PWR?
U 1 1 5A8A89BF
P 13100 8200
F 0 "#PWR?" H 13100 8000 50  0001 C CNN
F 1 "GNDPWR" H 13100 8070 50  0000 C CNN
F 2 "" H 13100 8150 50  0000 C CNN
F 3 "" H 13100 8150 50  0000 C CNN
	1    13100 8200
	1    0    0    -1  
$EndComp
$Comp
L power:GND #PWR?
U 1 1 5A8A89C5
P 8750 8250
F 0 "#PWR?" H 8750 8000 50  0001 C CNN
F 1 "GND" H 8750 8100 50  0000 C CNN
F 2 "" H 8750 8250 50  0000 C CNN
F 3 "" H 8750 8250 50  0000 C CNN
	1    8750 8250
	1    0    0    -1  
$EndComp
$Comp
L Device:R R121
U 1 1 5A8A89CB
P 8750 8100
F 0 "R121" V 8830 8100 50  0000 C CNN
F 1 "22k" V 8750 8100 50  0000 C CNN
F 2 "electronik:Resistor_Horizontal_RM6mm" V 8680 8100 50  0001 C CNN
F 3 "" H 8750 8100 50  0000 C CNN
	1    8750 8100
	-1   0    0    1   
$EndComp
$Comp
L output-amp-5voies-rescue:CONN_01X01 P105
U 1 1 5A8A89F0
P 4950 7850
F 0 "P105" H 4950 7950 50  0000 C CNN
F 1 "CONN_01X01" V 5050 7850 50  0000 C CNN
F 2 "Connectors:PINTST" H 4950 7850 50  0001 C CNN
F 3 "" H 4950 7850 50  0000 C CNN
	1    4950 7850
	-1   0    0    1   
$EndComp
$Comp
L Device:C C120
U 1 1 5A8A8A02
P 13350 8050
F 0 "C120" H 13375 8150 50  0000 L CNN
F 1 "100n" H 13375 7950 50  0000 L CNN
F 2 "Capacitors_ThroughHole:C_Rect_L10.0mm_W2.5mm_P7.50mm_MKS4" H 13388 7900 50  0001 C CNN
F 3 "" H 13350 8050 50  0000 C CNN
	1    13350 8050
	-1   0    0    1   
$EndComp
$Comp
L output-amp-5voies-rescue:GNDPWR #PWR?
U 1 1 5A8A8A0A
P 13350 8200
F 0 "#PWR?" H 13350 8000 50  0001 C CNN
F 1 "GNDPWR" H 13350 8070 50  0000 C CNN
F 2 "" H 13350 8150 50  0000 C CNN
F 3 "" H 13350 8150 50  0000 C CNN
	1    13350 8200
	1    0    0    -1  
$EndComp
$Comp
L Device:R R123
U 1 1 5A8A8E63
P 9600 9150
F 0 "R123" V 9680 9150 50  0000 C CNN
F 1 "10k" V 9600 9150 50  0000 C CNN
F 2 "electronik:Resistor_Horizontal_RM6mm" V 9530 9150 50  0001 C CNN
F 3 "" H 9600 9150 50  0000 C CNN
	1    9600 9150
	0    1    1    0   
$EndComp
$Comp
L Device:R R122
U 1 1 5A8A8E69
P 8750 9150
F 0 "R122" V 8830 9150 50  0000 C CNN
F 1 "4.7k" V 8750 9150 50  0000 C CNN
F 2 "electronik:Resistor_Horizontal_RM6mm" V 8680 9150 50  0001 C CNN
F 3 "" H 8750 9150 50  0000 C CNN
	1    8750 9150
	0    1    1    0   
$EndComp
$Comp
L Device:R R125
U 1 1 5A8A8E6F
P 10250 10100
F 0 "R125" V 10330 10100 50  0000 C CNN
F 1 "68" V 10250 10100 50  0000 C CNN
F 2 "electronik:Resistor_Horizontal_RM6mm" V 10180 10100 50  0001 C CNN
F 3 "" H 10250 10100 50  0000 C CNN
	1    10250 10100
	0    1    1    0   
$EndComp
Text GLabel 9600 10400 3    60   Input ~ 0
v+
Text GLabel 9600 9800 1    60   Input ~ 0
v-
$Comp
L Device:C C121
U 1 1 5A8A8E77
P 9600 9400
F 0 "C121" H 9625 9500 50  0000 L CNN
F 1 "47p" H 9625 9300 50  0000 L CNN
F 2 "Capacitors_ThroughHole:C_Rect_L10.0mm_W2.5mm_P7.50mm_MKS4" H 9638 9250 50  0001 C CNN
F 3 "" H 9600 9400 50  0000 C CNN
	1    9600 9400
	0    1    1    0   
$EndComp
$Comp
L power:GND #PWR?
U 1 1 5A8A8E7D
P 8600 9150
F 0 "#PWR?" H 8600 8900 50  0001 C CNN
F 1 "GND" H 8600 9000 50  0000 C CNN
F 2 "" H 8600 9150 50  0000 C CNN
F 3 "" H 8600 9150 50  0000 C CNN
	1    8600 9150
	0    1    1    0   
$EndComp
$Comp
L output-amp-5voies-rescue:JACK_TRS_6PINS J104
U 1 1 5A8A8E83
P 14200 10000
F 0 "J104" H 14200 10400 50  0000 C CNN
F 1 "JACK_TRS_6PINS" H 14150 9700 50  0000 C CNN
F 2 "Connect:NMJ6HCD2" H 14300 9850 50  0001 C CNN
F 3 "" H 14300 9850 50  0000 C CNN
	1    14200 10000
	-1   0    0    1   
$EndComp
$Comp
L Device:CP C122
U 1 1 5A8A8E89
P 12900 10000
F 0 "C122" H 12925 10100 50  0000 L CNN
F 1 "CP" H 12925 9900 50  0000 L CNN
F 2 "Capacitors_ThroughHole:CP_Radial_D5.0mm_P2.50mm" H 12938 9850 50  0001 C CNN
F 3 "" H 12900 10000 50  0000 C CNN
	1    12900 10000
	0    -1   -1   0   
$EndComp
$Comp
L Device:R R126
U 1 1 5A8A8E8F
P 13150 10250
F 0 "R126" V 13230 10250 50  0000 C CNN
F 1 "22k" V 13150 10250 50  0000 C CNN
F 2 "electronik:Resistor_Horizontal_RM6mm" V 13080 10250 50  0001 C CNN
F 3 "" H 13150 10250 50  0000 C CNN
	1    13150 10250
	-1   0    0    1   
$EndComp
$Comp
L output-amp-5voies-rescue:GNDPWR #PWR?
U 1 1 5A8A8E95
P 13550 10450
F 0 "#PWR?" H 13550 10250 50  0001 C CNN
F 1 "GNDPWR" H 13550 10320 50  0000 C CNN
F 2 "" H 13550 10400 50  0000 C CNN
F 3 "" H 13550 10400 50  0000 C CNN
	1    13550 10450
	1    0    0    -1  
$EndComp
$Comp
L output-amp-5voies-rescue:GNDPWR #PWR?
U 1 1 5A8A8E9B
P 13150 10400
F 0 "#PWR?" H 13150 10200 50  0001 C CNN
F 1 "GNDPWR" H 13150 10270 50  0000 C CNN
F 2 "" H 13150 10350 50  0000 C CNN
F 3 "" H 13150 10350 50  0000 C CNN
	1    13150 10400
	1    0    0    -1  
$EndComp
$Comp
L power:GND #PWR?
U 1 1 5A8A8EA1
P 8450 10600
F 0 "#PWR?" H 8450 10350 50  0001 C CNN
F 1 "GND" H 8450 10450 50  0000 C CNN
F 2 "" H 8450 10600 50  0000 C CNN
F 3 "" H 8450 10600 50  0000 C CNN
	1    8450 10600
	1    0    0    -1  
$EndComp
$Comp
L Device:R R127
U 1 1 5A8A8EA7
P 8450 10450
F 0 "R127" V 8530 10450 50  0000 C CNN
F 1 "22k" V 8450 10450 50  0000 C CNN
F 2 "electronik:Resistor_Horizontal_RM6mm" V 8380 10450 50  0001 C CNN
F 3 "" H 8450 10450 50  0000 C CNN
	1    8450 10450
	-1   0    0    1   
$EndComp
$Comp
L output-amp-5voies-rescue:CONN_01X01 P106
U 1 1 5A8A8ECC
P 5000 10200
F 0 "P106" H 5000 10300 50  0000 C CNN
F 1 "CONN_01X01" V 5100 10200 50  0000 C CNN
F 2 "Connectors:PINTST" H 5000 10200 50  0001 C CNN
F 3 "" H 5000 10200 50  0000 C CNN
	1    5000 10200
	-1   0    0    1   
$EndComp
$Comp
L Device:C C123
U 1 1 5A8A8EDE
P 13400 10250
F 0 "C123" H 13425 10350 50  0000 L CNN
F 1 "680p" H 13425 10150 50  0000 L CNN
F 2 "Capacitors_ThroughHole:C_Rect_L10.0mm_W2.5mm_P7.50mm_MKS4" H 13438 10100 50  0001 C CNN
F 3 "" H 13400 10250 50  0000 C CNN
	1    13400 10250
	-1   0    0    1   
$EndComp
$Comp
L output-amp-5voies-rescue:GNDPWR #PWR?
U 1 1 5A8A8EE6
P 13400 10400
F 0 "#PWR?" H 13400 10200 50  0001 C CNN
F 1 "GNDPWR" H 13400 10270 50  0000 C CNN
F 2 "" H 13400 10350 50  0000 C CNN
F 3 "" H 13400 10350 50  0000 C CNN
	1    13400 10400
	1    0    0    -1  
$EndComp
$Comp
L Device:R R129
U 1 1 5A8A91CB
P 10000 11850
F 0 "R129" V 10080 11850 50  0000 C CNN
F 1 "10k" V 10000 11850 50  0000 C CNN
F 2 "electronik:Resistor_Horizontal_RM6mm" V 9930 11850 50  0001 C CNN
F 3 "" H 10000 11850 50  0000 C CNN
	1    10000 11850
	0    1    1    0   
$EndComp
$Comp
L Device:R R128
U 1 1 5A8A91D1
P 9350 11850
F 0 "R128" V 9430 11850 50  0000 C CNN
F 1 "4.7k" V 9350 11850 50  0000 C CNN
F 2 "electronik:Resistor_Horizontal_RM6mm" V 9280 11850 50  0001 C CNN
F 3 "" H 9350 11850 50  0000 C CNN
	1    9350 11850
	0    1    1    0   
$EndComp
$Comp
L Device:R R131
U 1 1 5A8A91D7
P 10650 12800
F 0 "R131" V 10730 12800 50  0000 C CNN
F 1 "68" V 10650 12800 50  0000 C CNN
F 2 "electronik:Resistor_Horizontal_RM6mm" V 10580 12800 50  0001 C CNN
F 3 "" H 10650 12800 50  0000 C CNN
	1    10650 12800
	0    1    1    0   
$EndComp
Text GLabel 10000 13100 3    60   Input ~ 0
v+
Text GLabel 10000 12500 1    60   Input ~ 0
v-
$Comp
L Device:C C124
U 1 1 5A8A91DF
P 10000 12100
F 0 "C124" H 10025 12200 50  0000 L CNN
F 1 "47p" H 10025 12000 50  0000 L CNN
F 2 "Capacitors_ThroughHole:C_Rect_L10.0mm_W2.5mm_P7.50mm_MKS4" H 10038 11950 50  0001 C CNN
F 3 "" H 10000 12100 50  0000 C CNN
	1    10000 12100
	0    1    1    0   
$EndComp
$Comp
L power:GND #PWR?
U 1 1 5A8A91E5
P 9200 11850
F 0 "#PWR?" H 9200 11600 50  0001 C CNN
F 1 "GND" H 9200 11700 50  0000 C CNN
F 2 "" H 9200 11850 50  0000 C CNN
F 3 "" H 9200 11850 50  0000 C CNN
	1    9200 11850
	0    1    1    0   
$EndComp
$Comp
L power:GND #PWR?
U 1 1 5A8A9209
P 8850 13300
F 0 "#PWR?" H 8850 13050 50  0001 C CNN
F 1 "GND" H 8850 13150 50  0000 C CNN
F 2 "" H 8850 13300 50  0000 C CNN
F 3 "" H 8850 13300 50  0000 C CNN
	1    8850 13300
	1    0    0    -1  
$EndComp
$Comp
L Device:R R133
U 1 1 5A8A920F
P 8850 13150
F 0 "R133" V 8930 13150 50  0000 C CNN
F 1 "22k" V 8850 13150 50  0000 C CNN
F 2 "electronik:Resistor_Horizontal_RM6mm" V 8780 13150 50  0001 C CNN
F 3 "" H 8850 13150 50  0000 C CNN
	1    8850 13150
	-1   0    0    1   
$EndComp
$Comp
L output-amp-5voies-rescue:CONN_01X01 P107
U 1 1 5A8A9234
P 5050 12900
F 0 "P107" H 5050 13000 50  0000 C CNN
F 1 "CONN_01X01" V 5150 12900 50  0000 C CNN
F 2 "Connectors:PINTST" H 5050 12900 50  0001 C CNN
F 3 "" H 5050 12900 50  0000 C CNN
	1    5050 12900
	-1   0    0    1   
$EndComp
$Comp
L Device:R R136
U 1 1 5A8A9D4D
P 7100 14850
F 0 "R136" V 7180 14850 50  0000 C CNN
F 1 "10k" V 7100 14850 50  0000 C CNN
F 2 "electronik:Resistor_Horizontal_RM6mm" V 7030 14850 50  0001 C CNN
F 3 "" H 7100 14850 50  0000 C CNN
	1    7100 14850
	-1   0    0    1   
$EndComp
$Comp
L output-amp-5voies-rescue:JACK_TRS_6PINS J101
U 1 1 5A8AD933
P 14050 3300
F 0 "J101" H 14050 3700 50  0000 C CNN
F 1 "JACK_TRS_6PINS" H 14000 3000 50  0000 C CNN
F 2 "Connect:NMJ6HCD2" H 14150 3150 50  0001 C CNN
F 3 "" H 14150 3150 50  0000 C CNN
	1    14050 3300
	-1   0    0    1   
$EndComp
$Comp
L Device:R R105
U 1 1 5A8AD93F
P 13400 2950
F 0 "R105" V 13480 2950 50  0000 C CNN
F 1 "75" V 13400 2950 50  0000 C CNN
F 2 "electronik:Resistor_Horizontal_RM6mm" V 13330 2950 50  0001 C CNN
F 3 "" H 13400 2950 50  0000 C CNN
	1    13400 2950
	1    0    0    -1  
$EndComp
$Comp
L output-amp-5voies-rescue:GNDPWR #PWR?
U 1 1 5A8AD945
P 13400 3750
F 0 "#PWR?" H 13400 3550 50  0001 C CNN
F 1 "GNDPWR" H 13400 3620 50  0000 C CNN
F 2 "" H 13400 3700 50  0000 C CNN
F 3 "" H 13400 3700 50  0000 C CNN
	1    13400 3750
	1    0    0    -1  
$EndComp
$Comp
L output-amp-5voies-rescue:GNDPWR #PWR?
U 1 1 5A8AD94B
P 13400 2800
F 0 "#PWR?" H 13400 2600 50  0001 C CNN
F 1 "GNDPWR" H 13400 2670 50  0000 C CNN
F 2 "" H 13400 2750 50  0000 C CNN
F 3 "" H 13400 2750 50  0000 C CNN
	1    13400 2800
	-1   0    0    1   
$EndComp
$Comp
L output-amp-5voies-rescue:CONN_01X01 P101
U 1 1 5A8AD97C
P 5000 3350
F 0 "P101" H 5000 3450 50  0000 C CNN
F 1 "CONN_01X01" V 5100 3350 50  0000 C CNN
F 2 "Connectors:PINTST" H 5000 3350 50  0001 C CNN
F 3 "" H 5000 3350 50  0000 C CNN
	1    5000 3350
	-1   0    0    1   
$EndComp
$Comp
L Device:C C103
U 1 1 5A8AD98E
P 13250 3550
F 0 "C103" H 13275 3650 50  0000 L CNN
F 1 "680p" H 13275 3450 50  0000 L CNN
F 2 "Capacitors_ThroughHole:C_Rect_L10.0mm_W2.5mm_P7.50mm_MKS4" H 13288 3400 50  0001 C CNN
F 3 "" H 13250 3550 50  0000 C CNN
	1    13250 3550
	-1   0    0    1   
$EndComp
$Comp
L output-amp-5voies-rescue:GNDPWR #PWR?
U 1 1 5A8AD996
P 13250 3700
F 0 "#PWR?" H 13250 3500 50  0001 C CNN
F 1 "GNDPWR" H 13250 3570 50  0000 C CNN
F 2 "" H 13250 3650 50  0000 C CNN
F 3 "" H 13250 3650 50  0000 C CNN
	1    13250 3700
	1    0    0    -1  
$EndComp
$Comp
L Device:R R137
U 1 1 5A8B208E
P 7300 14850
F 0 "R137" V 7380 14850 50  0000 C CNN
F 1 "10k" V 7300 14850 50  0000 C CNN
F 2 "electronik:Resistor_Horizontal_RM6mm" V 7230 14850 50  0001 C CNN
F 3 "" H 7300 14850 50  0000 C CNN
	1    7300 14850
	-1   0    0    1   
$EndComp
$Comp
L Device:R R138
U 1 1 5A8B21B1
P 7500 14850
F 0 "R138" V 7580 14850 50  0000 C CNN
F 1 "10k" V 7500 14850 50  0000 C CNN
F 2 "electronik:Resistor_Horizontal_RM6mm" V 7430 14850 50  0001 C CNN
F 3 "" H 7500 14850 50  0000 C CNN
	1    7500 14850
	-1   0    0    1   
$EndComp
$Comp
L Device:R R139
U 1 1 5A8B22D8
P 7700 14850
F 0 "R139" V 7780 14850 50  0000 C CNN
F 1 "10k" V 7700 14850 50  0000 C CNN
F 2 "electronik:Resistor_Horizontal_RM6mm" V 7630 14850 50  0001 C CNN
F 3 "" H 7700 14850 50  0000 C CNN
	1    7700 14850
	-1   0    0    1   
$EndComp
$Comp
L Device:R R140
U 1 1 5A8B23FF
P 7900 14850
F 0 "R140" V 7980 14850 50  0000 C CNN
F 1 "10k" V 7900 14850 50  0000 C CNN
F 2 "electronik:Resistor_Horizontal_RM6mm" V 7830 14850 50  0001 C CNN
F 3 "" H 7900 14850 50  0000 C CNN
	1    7900 14850
	-1   0    0    1   
$EndComp
$Comp
L Device:R R102
U 1 1 5A8B6DA4
P 9800 2300
F 0 "R102" V 9880 2300 50  0000 C CNN
F 1 "15k" V 9800 2300 50  0000 C CNN
F 2 "electronik:Resistor_Horizontal_RM6mm" V 9730 2300 50  0001 C CNN
F 3 "" H 9800 2300 50  0000 C CNN
	1    9800 2300
	0    1    1    0   
$EndComp
$Comp
L Device:R R104
U 1 1 5A8B6DB0
P 10450 3250
F 0 "R104" V 10530 3250 50  0000 C CNN
F 1 "68" V 10450 3250 50  0000 C CNN
F 2 "electronik:Resistor_Horizontal_RM6mm" V 10380 3250 50  0001 C CNN
F 3 "" H 10450 3250 50  0000 C CNN
	1    10450 3250
	0    1    1    0   
$EndComp
Text GLabel 9800 3550 3    60   Input ~ 0
v+
Text GLabel 9800 2950 1    60   Input ~ 0
v-
$Comp
L Device:C C101
U 1 1 5A8B6DB8
P 9800 2550
F 0 "C101" H 9825 2650 50  0000 L CNN
F 1 "47p" H 9825 2450 50  0000 L CNN
F 2 "Capacitors_ThroughHole:C_Rect_L7.2mm_W2.5mm_P5.00mm_FKS2_FKP2_MKS2_MKP2" H 9838 2400 50  0001 C CNN
F 3 "" H 9800 2550 50  0000 C CNN
	1    9800 2550
	0    1    1    0   
$EndComp
$Comp
L Device:CP C102
U 1 1 5A8B6DC4
P 12750 3300
F 0 "C102" H 12775 3400 50  0000 L CNN
F 1 "CP" H 12775 3200 50  0000 L CNN
F 2 "Capacitors_ThroughHole:CP_Radial_D5.0mm_P2.50mm" H 12788 3150 50  0001 C CNN
F 3 "" H 12750 3300 50  0000 C CNN
	1    12750 3300
	0    -1   1    0   
$EndComp
$Comp
L power:PWR_FLAG #FLG?
U 1 1 5A8DE0C9
P 6850 6400
F 0 "#FLG?" H 6850 6495 50  0001 C CNN
F 1 "PWR_FLAG" H 6850 6580 50  0000 C CNN
F 2 "" H 6850 6400 50  0000 C CNN
F 3 "" H 6850 6400 50  0000 C CNN
	1    6850 6400
	0    -1   -1   0   
$EndComp
$Comp
L power:PWR_FLAG #FLG?
U 1 1 5A8DE5F8
P 7150 6400
F 0 "#FLG?" H 7150 6495 50  0001 C CNN
F 1 "PWR_FLAG" H 7150 6580 50  0000 C CNN
F 2 "" H 7150 6400 50  0000 C CNN
F 3 "" H 7150 6400 50  0000 C CNN
	1    7150 6400
	0    1    1    0   
$EndComp
$Comp
L output-amp-5voies-rescue:CONN_01X02 P108
U 1 1 5A8E76D8
P 8500 15350
F 0 "P108" H 8500 15500 50  0000 C CNN
F 1 "tapeout" V 8600 15350 50  0000 C CNN
F 2 "Connectors_Molex:Molex_KK-6410-02_02x2.54mm_Straight" H 8500 15350 50  0001 C CNN
F 3 "" H 8500 15350 50  0000 C CNN
	1    8500 15350
	1    0    0    -1  
$EndComp
$Comp
L power:GND #PWR?
U 1 1 5A8E7C92
P 8300 15400
F 0 "#PWR?" H 8300 15150 50  0001 C CNN
F 1 "GND" H 8300 15250 50  0000 C CNN
F 2 "" H 8300 15400 50  0000 C CNN
F 3 "" H 8300 15400 50  0000 C CNN
	1    8300 15400
	0    1    1    0   
$EndComp
$Comp
L power:GND #PWR?
U 1 1 5A8F3711
P 1050 6650
F 0 "#PWR?" H 1050 6400 50  0001 C CNN
F 1 "GND" H 1050 6500 50  0000 C CNN
F 2 "" H 1050 6650 50  0000 C CNN
F 3 "" H 1050 6650 50  0000 C CNN
	1    1050 6650
	-1   0    0    1   
$EndComp
$Comp
L Device:R R134
U 1 1 5A8BEF0B
P 6750 5300
F 0 "R134" V 6830 5300 50  0000 C CNN
F 1 "10" V 6750 5300 50  0000 C CNN
F 2 "electronik:Resistor_Horizontal_RM6mm" V 6680 5300 50  0001 C CNN
F 3 "" H 6750 5300 50  0000 C CNN
	1    6750 5300
	0    -1   -1   0   
$EndComp
$Comp
L Device:R R135
U 1 1 5A90AD55
P 12300 5700
F 0 "R135" V 12380 5700 50  0000 C CNN
F 1 "68" V 12300 5700 50  0000 C CNN
F 2 "electronik:Resistor_Horizontal_RM6mm" V 12230 5700 50  0001 C CNN
F 3 "" H 12300 5700 50  0000 C CNN
	1    12300 5700
	0    1    1    0   
$EndComp
$Comp
L Device:C C128
U 1 1 5A90AD5D
P 11650 5000
F 0 "C128" H 11675 5100 50  0000 L CNN
F 1 "47p" H 11675 4900 50  0000 L CNN
F 2 "Capacitors_ThroughHole:C_Rect_L10.0mm_W2.5mm_P7.50mm_MKS4" H 11688 4850 50  0001 C CNN
F 3 "" H 11650 5000 50  0000 C CNN
	1    11650 5000
	0    1    1    0   
$EndComp
$Comp
L power:GND #PWR?
U 1 1 5A90AD63
P 10850 4750
F 0 "#PWR?" H 10850 4500 50  0001 C CNN
F 1 "GND" H 10850 4600 50  0000 C CNN
F 2 "" H 10850 4750 50  0000 C CNN
F 3 "" H 10850 4750 50  0000 C CNN
	1    10850 4750
	0    1    1    0   
$EndComp
$Comp
L Device:R R143
U 1 1 5A90AD75
P 12300 7800
F 0 "R143" V 12380 7800 50  0000 C CNN
F 1 "68" V 12300 7800 50  0000 C CNN
F 2 "electronik:Resistor_Horizontal_RM6mm" V 12230 7800 50  0001 C CNN
F 3 "" H 12300 7800 50  0000 C CNN
	1    12300 7800
	0    1    1    0   
$EndComp
$Comp
L Device:C C129
U 1 1 5A90AD7D
P 11650 7100
F 0 "C129" H 11675 7200 50  0000 L CNN
F 1 "47p" H 11675 7000 50  0000 L CNN
F 2 "Capacitors_ThroughHole:C_Rect_L10.0mm_W2.5mm_P7.50mm_MKS4" H 11688 6950 50  0001 C CNN
F 3 "" H 11650 7100 50  0000 C CNN
	1    11650 7100
	0    1    1    0   
$EndComp
$Comp
L power:GND #PWR?
U 1 1 5A90AD83
P 10850 6850
F 0 "#PWR?" H 10850 6600 50  0001 C CNN
F 1 "GND" H 10850 6700 50  0000 C CNN
F 2 "" H 10850 6850 50  0000 C CNN
F 3 "" H 10850 6850 50  0000 C CNN
	1    10850 6850
	0    1    1    0   
$EndComp
$Comp
L Device:R R145
U 1 1 5A90AD89
P 11700 9050
F 0 "R145" V 11780 9050 50  0000 C CNN
F 1 "1k5" V 11700 9050 50  0000 C CNN
F 2 "electronik:Resistor_Horizontal_RM6mm" V 11630 9050 50  0001 C CNN
F 3 "" H 11700 9050 50  0000 C CNN
	1    11700 9050
	0    1    1    0   
$EndComp
$Comp
L Device:R R144
U 1 1 5A90AD8F
P 11150 9050
F 0 "R144" V 11230 9050 50  0000 C CNN
F 1 "680" V 11150 9050 50  0000 C CNN
F 2 "electronik:Resistor_Horizontal_RM6mm" V 11080 9050 50  0001 C CNN
F 3 "" H 11150 9050 50  0000 C CNN
	1    11150 9050
	0    1    1    0   
$EndComp
$Comp
L Device:R R146
U 1 1 5A90AD95
P 12350 10000
F 0 "R146" V 12430 10000 50  0000 C CNN
F 1 "68" V 12350 10000 50  0000 C CNN
F 2 "electronik:Resistor_Horizontal_RM6mm" V 12280 10000 50  0001 C CNN
F 3 "" H 12350 10000 50  0000 C CNN
	1    12350 10000
	0    1    1    0   
$EndComp
$Comp
L Device:C C130
U 1 1 5A90AD9D
P 11700 9300
F 0 "C130" H 11725 9400 50  0000 L CNN
F 1 "47p" H 11725 9200 50  0000 L CNN
F 2 "Capacitors_ThroughHole:C_Rect_L10.0mm_W2.5mm_P7.50mm_MKS4" H 11738 9150 50  0001 C CNN
F 3 "" H 11700 9300 50  0000 C CNN
	1    11700 9300
	0    1    1    0   
$EndComp
$Comp
L power:GND #PWR?
U 1 1 5A90ADBD
P 10950 11900
F 0 "#PWR?" H 10950 11650 50  0001 C CNN
F 1 "GND" H 10950 11750 50  0000 C CNN
F 2 "" H 10950 11900 50  0000 C CNN
F 3 "" H 10950 11900 50  0000 C CNN
	1    10950 11900
	0    1    1    0   
$EndComp
$Comp
L Device:R R118
U 1 1 5A90ADCF
P 12200 3300
F 0 "R118" V 12280 3300 50  0000 C CNN
F 1 "68" V 12200 3300 50  0000 C CNN
F 2 "electronik:Resistor_Horizontal_RM6mm" V 12130 3300 50  0001 C CNN
F 3 "" H 12200 3300 50  0000 C CNN
	1    12200 3300
	0    1    1    0   
$EndComp
Wire Wire Line
	8750 5750 8750 5850
Wire Wire Line
	1050 7000 1200 7000
Wire Wire Line
	1150 6250 1200 6250
Connection ~ 2300 7000
Wire Wire Line
	1050 7000 1050 6850
Connection ~ 2300 6250
Wire Wire Line
	1150 6250 1150 6750
Connection ~ 3400 7000
Connection ~ 3050 7000
Connection ~ 2650 7000
Wire Wire Line
	1500 7000 2300 7000
Connection ~ 2650 6250
Connection ~ 3050 6250
Connection ~ 3400 6250
Wire Wire Line
	1500 6250 2300 6250
Connection ~ 6850 6400
Wire Wire Line
	6850 6200 6850 6400
Connection ~ 7150 6400
Wire Wire Line
	7150 6200 7150 6400
Connection ~ 13500 6000
Connection ~ 13500 5800
Wire Wire Line
	13750 5800 13500 5800
Connection ~ 13500 5900
Wire Wire Line
	13500 5900 13750 5900
Wire Wire Line
	13500 6000 13750 6000
Wire Wire Line
	13500 5600 13500 5800
Wire Wire Line
	13000 5700 13100 5700
Wire Wire Line
	5150 5750 7800 5750
Connection ~ 8750 5750
Connection ~ 13100 5700
Wire Wire Line
	13100 5700 13100 5800
Connection ~ 9500 4700
Connection ~ 10350 5650
Wire Wire Line
	10350 4700 10350 4950
Wire Wire Line
	10050 4950 10350 4950
Connection ~ 9500 4950
Wire Wire Line
	9750 4950 9500 4950
Wire Wire Line
	10300 5650 10350 5650
Wire Wire Line
	10050 4700 10350 4700
Wire Wire Line
	9500 5550 9700 5550
Wire Wire Line
	9500 4700 9500 4950
Wire Wire Line
	9400 4700 9500 4700
Wire Wire Line
	13350 5800 13350 5700
Connection ~ 13350 5700
Wire Wire Line
	13750 5600 13500 5600
Wire Wire Line
	8750 7850 8750 7950
Connection ~ 13500 8100
Connection ~ 13500 7900
Wire Wire Line
	13750 7900 13500 7900
Connection ~ 13500 8000
Wire Wire Line
	13500 8000 13750 8000
Wire Wire Line
	13500 8100 13750 8100
Wire Wire Line
	13500 7700 13500 7900
Wire Wire Line
	13750 7600 13550 7600
Wire Wire Line
	13000 7800 13100 7800
Wire Wire Line
	5150 7850 7550 7850
Connection ~ 8750 7850
Connection ~ 13100 7800
Wire Wire Line
	13100 7800 13100 7900
Connection ~ 9500 6800
Connection ~ 10350 7750
Wire Wire Line
	10350 6800 10350 7050
Wire Wire Line
	10050 7050 10350 7050
Connection ~ 9500 7050
Wire Wire Line
	9750 7050 9500 7050
Wire Wire Line
	10300 7750 10350 7750
Wire Wire Line
	9500 7650 9700 7650
Wire Wire Line
	9500 6800 9500 7050
Wire Wire Line
	9400 6800 9500 6800
Wire Wire Line
	13350 7900 13350 7800
Connection ~ 13350 7800
Wire Wire Line
	13750 7700 13500 7700
Wire Wire Line
	8450 10200 8450 10300
Connection ~ 13550 10300
Connection ~ 13550 10100
Wire Wire Line
	13800 10100 13550 10100
Connection ~ 13550 10200
Wire Wire Line
	13550 10200 13800 10200
Wire Wire Line
	13550 10300 13800 10300
Wire Wire Line
	13550 9900 13550 10100
Wire Wire Line
	13350 9800 13800 9800
Wire Wire Line
	13050 10000 13150 10000
Wire Wire Line
	5200 10200 7300 10200
Connection ~ 8450 10200
Connection ~ 13150 10000
Wire Wire Line
	13150 10000 13150 10100
Connection ~ 9200 9150
Connection ~ 10050 10100
Wire Wire Line
	10050 9150 10050 9400
Wire Wire Line
	9750 9400 10050 9400
Connection ~ 9200 9400
Wire Wire Line
	9450 9400 9200 9400
Wire Wire Line
	10000 10100 10050 10100
Wire Wire Line
	9750 9150 10050 9150
Wire Wire Line
	9200 10000 9400 10000
Wire Wire Line
	9200 9150 9200 9400
Wire Wire Line
	8900 9150 9200 9150
Wire Wire Line
	13400 10100 13400 10000
Connection ~ 13400 10000
Wire Wire Line
	13800 9900 13550 9900
Wire Wire Line
	8850 12900 8850 13000
Wire Wire Line
	5250 12900 7100 12900
Connection ~ 8850 12900
Connection ~ 9600 11850
Connection ~ 10450 12800
Wire Wire Line
	10450 11850 10450 12100
Wire Wire Line
	10150 12100 10450 12100
Connection ~ 9600 12100
Wire Wire Line
	9850 12100 9600 12100
Wire Wire Line
	10400 12800 10450 12800
Wire Wire Line
	10150 11850 10450 11850
Wire Wire Line
	9600 12700 9800 12700
Wire Wire Line
	9600 11850 9600 12100
Wire Wire Line
	9500 11850 9600 11850
Wire Wire Line
	7100 12900 7100 14700
Connection ~ 7100 12900
Wire Wire Line
	7300 10200 7300 14700
Connection ~ 7300 10200
Wire Wire Line
	7550 7850 7500 14600
Wire Wire Line
	7500 14600 7500 14700
Connection ~ 7550 7850
Wire Wire Line
	7800 5750 7700 14700
Connection ~ 7800 5750
Connection ~ 13400 3600
Connection ~ 13400 3400
Wire Wire Line
	13650 3400 13400 3400
Connection ~ 13400 3500
Wire Wire Line
	13400 3500 13650 3500
Wire Wire Line
	13400 3600 13650 3600
Wire Wire Line
	13400 3200 13400 3400
Wire Wire Line
	13650 3100 13400 3100
Wire Wire Line
	12900 3300 13000 3300
Connection ~ 13000 3300
Wire Wire Line
	13000 3300 13000 3400
Wire Wire Line
	13250 3400 13250 3300
Connection ~ 13250 3300
Wire Wire Line
	13650 3200 13400 3200
Wire Wire Line
	8050 3350 7900 14700
Connection ~ 8050 3350
Wire Wire Line
	7100 15300 7100 15000
Wire Wire Line
	7300 15000 7300 15300
Connection ~ 7300 15300
Wire Wire Line
	7500 15300 7500 15000
Connection ~ 7500 15300
Wire Wire Line
	7700 15300 7700 15000
Connection ~ 7700 15300
Wire Wire Line
	7900 15300 7900 15000
Connection ~ 7900 15300
Wire Wire Line
	6750 3350 6750 3450
Connection ~ 9400 2300
Connection ~ 10250 3250
Wire Wire Line
	10250 2300 10250 2550
Wire Wire Line
	9950 2550 10250 2550
Connection ~ 9400 2550
Wire Wire Line
	9650 2550 9400 2550
Wire Wire Line
	10200 3250 10250 3250
Wire Wire Line
	9400 3150 9600 3150
Wire Wire Line
	9400 2300 9400 2550
Wire Wire Line
	9300 2300 9400 2300
Wire Wire Line
	6650 5100 6550 5100
Wire Wire Line
	7100 15300 7300 15300
Wire Wire Line
	1150 6750 1050 6750
Connection ~ 12650 5700
Connection ~ 11250 4750
Connection ~ 12100 5700
Wire Wire Line
	12100 5000 12100 5700
Wire Wire Line
	11800 5000 12100 5000
Connection ~ 11250 5000
Wire Wire Line
	11500 5000 11250 5000
Wire Wire Line
	12050 5700 12100 5700
Wire Wire Line
	12450 5700 12650 5700
Wire Wire Line
	12650 4750 12650 5700
Wire Wire Line
	11800 4750 12650 4750
Wire Wire Line
	11250 5600 11450 5600
Wire Wire Line
	11250 4750 11250 5000
Wire Wire Line
	11150 4750 11250 4750
Connection ~ 12650 7800
Connection ~ 11250 6850
Connection ~ 12100 7800
Wire Wire Line
	12100 7100 12100 7800
Wire Wire Line
	11800 7100 12100 7100
Connection ~ 11250 7100
Wire Wire Line
	11500 7100 11250 7100
Wire Wire Line
	12050 7800 12100 7800
Wire Wire Line
	12450 7800 12650 7800
Wire Wire Line
	12650 6850 12650 7800
Wire Wire Line
	11800 6850 12650 6850
Wire Wire Line
	11250 7700 11450 7700
Wire Wire Line
	11250 6850 11250 7100
Wire Wire Line
	11150 6850 11250 6850
Connection ~ 12700 10000
Connection ~ 11300 9050
Connection ~ 12150 10000
Wire Wire Line
	12150 9300 12150 10000
Wire Wire Line
	11850 9300 12150 9300
Connection ~ 11300 9300
Wire Wire Line
	11550 9300 11300 9300
Wire Wire Line
	12100 10000 12150 10000
Wire Wire Line
	12500 10000 12700 10000
Wire Wire Line
	12700 9050 12700 10000
Wire Wire Line
	11850 9050 12700 9050
Wire Wire Line
	11300 9050 11300 9300
Wire Wire Line
	11300 9050 11550 9050
Wire Wire Line
	10850 3400 11350 3400
Wire Wire Line
	11150 3200 11350 3200
Wire Wire Line
	9950 2300 10250 2300
Connection ~ 10250 2550
Connection ~ 10350 4950
Wire Wire Line
	10950 5650 10950 5800
Wire Wire Line
	10950 5800 11450 5800
Wire Wire Line
	10850 3250 10850 3400
Wire Wire Line
	10050 6800 10350 6800
Connection ~ 10350 7050
Wire Wire Line
	10950 7750 10950 7950
Wire Wire Line
	10950 7950 11450 7950
Wire Wire Line
	11450 7950 11450 7900
Connection ~ 10050 9400
Connection ~ 10450 12100
$Comp
L output-amp-5voies-rescue:TL072 U101
U 1 1 5A9DA304
P 9900 3250
F 0 "U101" H 9850 3450 50  0000 L CNN
F 1 "TL072" H 9850 3000 50  0000 L CNN
F 2 "Housings_DIP:DIP-8_W7.62mm" H 9900 3250 50  0001 C CNN
F 3 "" H 9900 3250 50  0000 C CNN
	1    9900 3250
	1    0    0    1   
$EndComp
$Comp
L power:GND #PWR?
U 1 1 5A9DB55D
P 11000 9050
F 0 "#PWR?" H 11000 8800 50  0001 C CNN
F 1 "GND" H 11000 8900 50  0000 C CNN
F 2 "" H 11000 9050 50  0000 C CNN
F 3 "" H 11000 9050 50  0000 C CNN
	1    11000 9050
	0    1    1    0   
$EndComp
$Comp
L output-amp-5voies-rescue:TL072 U101
U 2 1 5A9DCCDE
P 11650 3300
F 0 "U101" H 11600 3500 50  0000 L CNN
F 1 "TL072" H 11600 3050 50  0000 L CNN
F 2 "Housings_DIP:DIP-8_W7.62mm" H 11650 3300 50  0001 C CNN
F 3 "" H 11650 3300 50  0000 C CNN
	2    11650 3300
	1    0    0    1   
$EndComp
Text GLabel 11550 3600 3    60   Input ~ 0
v+
Text GLabel 11550 3000 1    60   Input ~ 0
v-
$Comp
L output-amp-5voies-rescue:TL072 U102
U 1 1 5A9DD2ED
P 10000 5650
F 0 "U102" H 9950 5850 50  0000 L CNN
F 1 "TL072" H 9950 5400 50  0000 L CNN
F 2 "Housings_DIP:DIP-8_W7.62mm" H 10000 5650 50  0001 C CNN
F 3 "" H 10000 5650 50  0000 C CNN
	1    10000 5650
	1    0    0    1   
$EndComp
$Comp
L output-amp-5voies-rescue:TL072 U102
U 2 1 5A9DD43E
P 11750 5700
F 0 "U102" H 11700 5900 50  0000 L CNN
F 1 "TL072" H 11700 5450 50  0000 L CNN
F 2 "Housings_DIP:DIP-8_W7.62mm" H 11750 5700 50  0001 C CNN
F 3 "" H 11750 5700 50  0000 C CNN
	2    11750 5700
	1    0    0    1   
$EndComp
$Comp
L output-amp-5voies-rescue:TL072 U103
U 2 1 5A9DD590
P 11750 7800
F 0 "U103" H 11700 8000 50  0000 L CNN
F 1 "TL072" H 11700 7550 50  0000 L CNN
F 2 "Housings_DIP:DIP-8_W7.62mm" H 11750 7800 50  0001 C CNN
F 3 "" H 11750 7800 50  0000 C CNN
	2    11750 7800
	1    0    0    1   
$EndComp
$Comp
L output-amp-5voies-rescue:TL072 U103
U 1 1 5A9DD6DE
P 10000 7750
F 0 "U103" H 9950 7950 50  0000 L CNN
F 1 "TL072" H 9950 7500 50  0000 L CNN
F 2 "Housings_DIP:DIP-8_W7.62mm" H 10000 7750 50  0001 C CNN
F 3 "" H 10000 7750 50  0000 C CNN
	1    10000 7750
	1    0    0    1   
$EndComp
$Comp
L output-amp-5voies-rescue:TL072 U104
U 1 1 5A9DDA84
P 9700 10100
F 0 "U104" H 9650 10300 50  0000 L CNN
F 1 "TL072" H 9650 9850 50  0000 L CNN
F 2 "Housings_DIP:DIP-8_W7.62mm" H 9700 10100 50  0001 C CNN
F 3 "" H 9700 10100 50  0000 C CNN
	1    9700 10100
	1    0    0    1   
$EndComp
$Comp
L output-amp-5voies-rescue:TL072 U104
U 2 1 5A9DDBE4
P 11800 10000
F 0 "U104" H 11750 10200 50  0000 L CNN
F 1 "TL072" H 11750 9750 50  0000 L CNN
F 2 "Housings_DIP:DIP-8_W7.62mm" H 11800 10000 50  0001 C CNN
F 3 "" H 11800 10000 50  0000 C CNN
	2    11800 10000
	1    0    0    1   
$EndComp
Wire Wire Line
	11300 9900 11500 9900
$Comp
L output-amp-5voies-rescue:TL072 U105
U 1 1 5A9DE7B7
P 10100 12800
F 0 "U105" H 10050 13000 50  0000 L CNN
F 1 "TL072" H 10050 12550 50  0000 L CNN
F 2 "Housings_DIP:DIP-8_W7.62mm" H 10100 12800 50  0001 C CNN
F 3 "" H 10100 12800 50  0000 C CNN
	1    10100 12800
	1    0    0    1   
$EndComp
$Comp
L Device:R R141
U 1 1 5A9D75DB
P 11000 6850
F 0 "R141" V 11080 6850 50  0000 C CNN
F 1 "680" V 11000 6850 50  0000 C CNN
F 2 "electronik:Resistor_Horizontal_RM6mm" V 10930 6850 50  0001 C CNN
F 3 "" H 11000 6850 50  0000 C CNN
	1    11000 6850
	0    1    1    0   
$EndComp
$Comp
L Device:R R124
U 1 1 5A9D79B6
P 11000 4750
F 0 "R124" V 11080 4750 50  0000 C CNN
F 1 "680" V 11000 4750 50  0000 C CNN
F 2 "electronik:Resistor_Horizontal_RM6mm" V 10930 4750 50  0001 C CNN
F 3 "" H 11000 4750 50  0000 C CNN
	1    11000 4750
	0    1    1    0   
$EndComp
$Comp
L Device:R R142
U 1 1 5A9D8164
P 11650 6850
F 0 "R142" V 11730 6850 50  0000 C CNN
F 1 "1k5" V 11650 6850 50  0000 C CNN
F 2 "electronik:Resistor_Horizontal_RM6mm" V 11580 6850 50  0001 C CNN
F 3 "" H 11650 6850 50  0000 C CNN
	1    11650 6850
	0    1    1    0   
$EndComp
$Comp
L Device:R R130
U 1 1 5A9D8436
P 11650 4750
F 0 "R130" V 11730 4750 50  0000 C CNN
F 1 "1k5" V 11650 4750 50  0000 C CNN
F 2 "electronik:Resistor_Horizontal_RM6mm" V 11580 4750 50  0001 C CNN
F 3 "" H 11650 4750 50  0000 C CNN
	1    11650 4750
	0    1    1    0   
$EndComp
Wire Wire Line
	11150 12950 11550 12950
Wire Wire Line
	11350 12750 11550 12750
$Comp
L output-amp-5voies-rescue:TL072 U105
U 2 1 5A9DE32F
P 11850 12850
F 0 "U105" H 11800 13050 50  0000 L CNN
F 1 "TL072" H 11800 12600 50  0000 L CNN
F 2 "Housings_DIP:DIP-8_W7.62mm" H 11850 12850 50  0001 C CNN
F 3 "" H 11850 12850 50  0000 C CNN
	2    11850 12850
	1    0    0    1   
$EndComp
Wire Wire Line
	11150 12850 11150 12950
Wire Wire Line
	10800 12800 11150 12850
Wire Wire Line
	11250 11900 11350 11900
Wire Wire Line
	11350 11900 11350 12150
Wire Wire Line
	11900 11900 12750 11900
Wire Wire Line
	12750 11900 12750 12850
Wire Wire Line
	12550 12850 12750 12850
Wire Wire Line
	12150 12850 12200 12850
Wire Wire Line
	11600 12150 11350 12150
Connection ~ 11350 12150
Wire Wire Line
	11900 12150 12200 12150
Wire Wire Line
	12200 12150 12200 12850
Connection ~ 12200 12850
Connection ~ 11350 11900
Connection ~ 12750 12850
Wire Wire Line
	13200 13250 13200 13300
Wire Wire Line
	13850 12750 13600 12750
Connection ~ 13450 12850
Wire Wire Line
	13450 12850 13450 12950
Wire Wire Line
	13200 12850 13200 12950
Connection ~ 13200 12850
Wire Wire Line
	13100 12850 13200 12850
Wire Wire Line
	13850 12650 13600 12650
Wire Wire Line
	13600 12750 13600 12950
Wire Wire Line
	13600 13150 13850 13150
Wire Wire Line
	13600 13050 13850 13050
Connection ~ 13600 13050
Wire Wire Line
	13850 12950 13600 12950
Connection ~ 13600 12950
Connection ~ 13600 13150
$Comp
L Device:C C131
U 1 1 5A90ADB7
P 11750 12150
F 0 "C131" H 11775 12250 50  0000 L CNN
F 1 "47p" H 11775 12050 50  0000 L CNN
F 2 "Capacitors_ThroughHole:C_Rect_L10.0mm_W2.5mm_P7.50mm_MKS4" H 11788 12000 50  0001 C CNN
F 3 "" H 11750 12150 50  0000 C CNN
	1    11750 12150
	0    1    1    0   
$EndComp
$Comp
L Device:R R149
U 1 1 5A90ADAF
P 12400 12850
F 0 "R149" V 12480 12850 50  0000 C CNN
F 1 "68" V 12400 12850 50  0000 C CNN
F 2 "electronik:Resistor_Horizontal_RM6mm" V 12330 12850 50  0001 C CNN
F 3 "" H 12400 12850 50  0000 C CNN
	1    12400 12850
	0    1    1    0   
$EndComp
$Comp
L Device:R R147
U 1 1 5A90ADA9
P 11100 11900
F 0 "R147" V 11180 11900 50  0000 C CNN
F 1 "680" V 11100 11900 50  0000 C CNN
F 2 "electronik:Resistor_Horizontal_RM6mm" V 11030 11900 50  0001 C CNN
F 3 "" H 11100 11900 50  0000 C CNN
	1    11100 11900
	0    1    1    0   
$EndComp
$Comp
L Device:R R148
U 1 1 5A90ADA3
P 11750 11900
F 0 "R148" V 11830 11900 50  0000 C CNN
F 1 "1k5" V 11750 11900 50  0000 C CNN
F 2 "electronik:Resistor_Horizontal_RM6mm" V 11680 11900 50  0001 C CNN
F 3 "" H 11750 11900 50  0000 C CNN
	1    11750 11900
	0    1    1    0   
$EndComp
$Comp
L output-amp-5voies-rescue:GNDPWR #PWR?
U 1 1 5A8A924E
P 13450 13250
F 0 "#PWR?" H 13450 13050 50  0001 C CNN
F 1 "GNDPWR" H 13450 13120 50  0000 C CNN
F 2 "" H 13450 13200 50  0000 C CNN
F 3 "" H 13450 13200 50  0000 C CNN
	1    13450 13250
	1    0    0    -1  
$EndComp
$Comp
L Device:C C126
U 1 1 5A8A9246
P 13450 13100
F 0 "C126" H 13475 13200 50  0000 L CNN
F 1 "680p" H 13475 13000 50  0000 L CNN
F 2 "Capacitors_ThroughHole:C_Rect_L10.0mm_W2.5mm_P7.50mm_MKS4" H 13488 12950 50  0001 C CNN
F 3 "" H 13450 13100 50  0000 C CNN
	1    13450 13100
	-1   0    0    1   
$EndComp
$Comp
L output-amp-5voies-rescue:GNDPWR #PWR?
U 1 1 5A8A9203
P 13200 13300
F 0 "#PWR?" H 13200 13100 50  0001 C CNN
F 1 "GNDPWR" H 13200 13170 50  0000 C CNN
F 2 "" H 13200 13250 50  0000 C CNN
F 3 "" H 13200 13250 50  0000 C CNN
	1    13200 13300
	1    0    0    -1  
$EndComp
$Comp
L output-amp-5voies-rescue:GNDPWR #PWR?
U 1 1 5A8A91FD
P 13600 13300
F 0 "#PWR?" H 13600 13100 50  0001 C CNN
F 1 "GNDPWR" H 13600 13170 50  0000 C CNN
F 2 "" H 13600 13250 50  0000 C CNN
F 3 "" H 13600 13250 50  0000 C CNN
	1    13600 13300
	1    0    0    -1  
$EndComp
$Comp
L Device:R R132
U 1 1 5A8A91F7
P 13200 13100
F 0 "R132" V 13280 13100 50  0000 C CNN
F 1 "22k" V 13200 13100 50  0000 C CNN
F 2 "electronik:Resistor_Horizontal_RM6mm" V 13130 13100 50  0001 C CNN
F 3 "" H 13200 13100 50  0000 C CNN
	1    13200 13100
	-1   0    0    1   
$EndComp
$Comp
L Device:CP C125
U 1 1 5A8A91F1
P 12950 12850
F 0 "C125" H 12975 12950 50  0000 L CNN
F 1 "CP" H 12975 12750 50  0000 L CNN
F 2 "Capacitors_ThroughHole:CP_Radial_D5.0mm_P2.50mm" H 12988 12700 50  0001 C CNN
F 3 "" H 12950 12850 50  0000 C CNN
	1    12950 12850
	0    -1   -1   0   
$EndComp
$Comp
L output-amp-5voies-rescue:JACK_TRS_6PINS J105
U 1 1 5A8A91EB
P 14250 12850
F 0 "J105" H 14250 13250 50  0000 C CNN
F 1 "JACK_TRS_6PINS" H 14200 12550 50  0000 C CNN
F 2 "Connect:NMJ6HCD2" H 14350 12700 50  0001 C CNN
F 3 "" H 14350 12700 50  0000 C CNN
	1    14250 12850
	-1   0    0    1   
$EndComp
$Comp
L Device:R R150
U 1 1 5A9E675E
P 13400 5350
F 0 "R150" V 13480 5350 50  0000 C CNN
F 1 "75" V 13400 5350 50  0000 C CNN
F 2 "electronik:Resistor_Horizontal_RM6mm" V 13330 5350 50  0001 C CNN
F 3 "" H 13400 5350 50  0000 C CNN
	1    13400 5350
	1    0    0    -1  
$EndComp
$Comp
L output-amp-5voies-rescue:GNDPWR #PWR?
U 1 1 5A9E6764
P 13400 5200
F 0 "#PWR?" H 13400 5000 50  0001 C CNN
F 1 "GNDPWR" H 13400 5070 50  0000 C CNN
F 2 "" H 13400 5150 50  0000 C CNN
F 3 "" H 13400 5150 50  0000 C CNN
	1    13400 5200
	-1   0    0    1   
$EndComp
Wire Wire Line
	13400 5500 13750 5500
$Comp
L Device:R R151
U 1 1 5A9E70BC
P 13550 7400
F 0 "R151" V 13630 7400 50  0000 C CNN
F 1 "75" V 13550 7400 50  0000 C CNN
F 2 "electronik:Resistor_Horizontal_RM6mm" V 13480 7400 50  0001 C CNN
F 3 "" H 13550 7400 50  0000 C CNN
	1    13550 7400
	1    0    0    -1  
$EndComp
$Comp
L output-amp-5voies-rescue:GNDPWR #PWR?
U 1 1 5A9E70C2
P 13550 7250
F 0 "#PWR?" H 13550 7050 50  0001 C CNN
F 1 "GNDPWR" H 13550 7120 50  0000 C CNN
F 2 "" H 13550 7200 50  0000 C CNN
F 3 "" H 13550 7200 50  0000 C CNN
	1    13550 7250
	-1   0    0    1   
$EndComp
Wire Wire Line
	13550 7600 13550 7550
$Comp
L Device:R R152
U 1 1 5A9E78A4
P 13350 9600
F 0 "R152" V 13430 9600 50  0000 C CNN
F 1 "75" V 13350 9600 50  0000 C CNN
F 2 "electronik:Resistor_Horizontal_RM6mm" V 13280 9600 50  0001 C CNN
F 3 "" H 13350 9600 50  0000 C CNN
	1    13350 9600
	1    0    0    -1  
$EndComp
$Comp
L output-amp-5voies-rescue:GNDPWR #PWR?
U 1 1 5A9E78AA
P 13350 9450
F 0 "#PWR?" H 13350 9250 50  0001 C CNN
F 1 "GNDPWR" H 13350 9320 50  0000 C CNN
F 2 "" H 13350 9400 50  0000 C CNN
F 3 "" H 13350 9400 50  0000 C CNN
	1    13350 9450
	-1   0    0    1   
$EndComp
Wire Wire Line
	13350 9750 13350 9800
$Comp
L Device:R R153
U 1 1 5A9E8391
P 13600 12500
F 0 "R153" V 13680 12500 50  0000 C CNN
F 1 "75" V 13600 12500 50  0000 C CNN
F 2 "electronik:Resistor_Horizontal_RM6mm" V 13530 12500 50  0001 C CNN
F 3 "" H 13600 12500 50  0000 C CNN
	1    13600 12500
	1    0    0    -1  
$EndComp
$Comp
L output-amp-5voies-rescue:GNDPWR #PWR?
U 1 1 5A9E8397
P 13600 12350
F 0 "#PWR?" H 13600 12150 50  0001 C CNN
F 1 "GNDPWR" H 13600 12220 50  0000 C CNN
F 2 "" H 13600 12300 50  0000 C CNN
F 3 "" H 13600 12300 50  0000 C CNN
	1    13600 12350
	-1   0    0    1   
$EndComp
$Comp
L Device:R R?
U 1 1 5AA4F3BE
P 13000 3550
F 0 "R?" V 13080 3550 50  0000 C CNN
F 1 "22k" V 13000 3550 50  0000 C CNN
F 2 "electronik:Resistor_Horizontal_RM6mm" V 12930 3550 50  0001 C CNN
F 3 "" H 13000 3550 50  0000 C CNN
	1    13000 3550
	-1   0    0    1   
$EndComp
$Comp
L output-amp-5voies-rescue:GNDPWR #PWR?
U 1 1 5AA4F3C4
P 13000 3700
F 0 "#PWR?" H 13000 3500 50  0001 C CNN
F 1 "GNDPWR" H 13000 3570 50  0000 C CNN
F 2 "" H 13000 3650 50  0000 C CNN
F 3 "" H 13000 3650 50  0000 C CNN
	1    13000 3700
	1    0    0    -1  
$EndComp
Wire Wire Line
	2300 7000 2650 7000
Wire Wire Line
	2300 6250 2650 6250
Wire Wire Line
	3400 7000 3750 7000
Wire Wire Line
	3050 7000 3400 7000
Wire Wire Line
	2650 7000 3050 7000
Wire Wire Line
	2650 6250 3050 6250
Wire Wire Line
	3050 6250 3400 6250
Wire Wire Line
	3400 6250 3750 6250
Wire Wire Line
	6850 6400 6850 6500
Wire Wire Line
	7150 6400 7150 6500
Wire Wire Line
	13500 6000 13500 6150
Wire Wire Line
	13500 5800 13500 5900
Wire Wire Line
	13500 5900 13500 6000
Wire Wire Line
	13100 5700 13350 5700
Wire Wire Line
	9500 4700 9750 4700
Wire Wire Line
	10350 5650 10400 5650
Wire Wire Line
	13350 5700 13750 5700
Wire Wire Line
	13500 8100 13500 8250
Wire Wire Line
	13500 7900 13500 8000
Wire Wire Line
	13500 8000 13500 8100
Wire Wire Line
	13100 7800 13350 7800
Wire Wire Line
	9500 6800 9750 6800
Wire Wire Line
	10350 7750 10400 7750
Wire Wire Line
	13350 7800 13750 7800
Wire Wire Line
	13550 10300 13550 10450
Wire Wire Line
	13550 10100 13550 10200
Wire Wire Line
	13550 10200 13550 10300
Wire Wire Line
	13150 10000 13400 10000
Wire Wire Line
	9200 9150 9450 9150
Wire Wire Line
	10050 10100 10100 10100
Wire Wire Line
	13400 10000 13800 10000
Wire Wire Line
	9600 11850 9850 11850
Wire Wire Line
	10450 12800 10500 12800
Wire Wire Line
	7100 12900 8850 12900
Wire Wire Line
	7300 10200 8450 10200
Wire Wire Line
	7550 7850 8750 7850
Wire Wire Line
	7800 5750 8750 5750
Wire Wire Line
	13400 3600 13400 3750
Wire Wire Line
	13400 3400 13400 3500
Wire Wire Line
	13400 3500 13400 3600
Wire Wire Line
	13000 3300 13250 3300
Wire Wire Line
	13250 3300 13650 3300
Wire Wire Line
	8050 3350 8650 3350
Wire Wire Line
	7300 15300 7500 15300
Wire Wire Line
	7500 15300 7700 15300
Wire Wire Line
	7700 15300 7900 15300
Wire Wire Line
	7900 15300 8300 15300
Wire Wire Line
	9400 2300 9650 2300
Wire Wire Line
	10250 3250 10300 3250
Wire Wire Line
	12650 5700 12700 5700
Wire Wire Line
	11250 4750 11500 4750
Wire Wire Line
	12100 5700 12150 5700
Wire Wire Line
	12650 7800 12700 7800
Wire Wire Line
	11250 6850 11500 6850
Wire Wire Line
	12100 7800 12150 7800
Wire Wire Line
	12700 10000 12750 10000
Wire Wire Line
	12150 10000 12200 10000
Wire Wire Line
	10350 4950 10350 5650
Wire Wire Line
	10350 7050 10350 7750
Wire Wire Line
	10050 9400 10050 10100
Wire Wire Line
	10450 12100 10450 12800
Wire Wire Line
	12200 12850 12250 12850
Wire Wire Line
	11350 11900 11600 11900
Wire Wire Line
	12750 12850 12800 12850
Wire Wire Line
	13450 12850 13850 12850
Wire Wire Line
	13200 12850 13450 12850
Wire Wire Line
	13600 13050 13600 13150
Wire Wire Line
	13600 12950 13600 13050
Wire Wire Line
	13600 13150 13600 13300
Wire Wire Line
	10700 5650 10950 5650
Wire Wire Line
	10700 7750 10950 7750
Wire Wire Line
	5200 3350 6750 3350
Wire Wire Line
	8750 5750 9700 5750
Wire Wire Line
	9500 4950 9500 5550
Wire Wire Line
	8750 7850 9700 7850
Wire Wire Line
	9500 7050 9500 7650
Wire Wire Line
	8450 10200 9400 10200
Wire Wire Line
	9200 9400 9200 10000
Wire Wire Line
	8850 12900 9800 12900
Wire Wire Line
	9600 12100 9600 12700
Wire Wire Line
	9400 2550 9400 3150
Wire Wire Line
	11250 5000 11250 5600
Wire Wire Line
	11250 7100 11250 7700
Wire Wire Line
	11300 9300 11300 9900
Wire Wire Line
	10400 10100 11500 10100
Wire Wire Line
	11350 12150 11350 12750
Wire Wire Line
	9400 3150 8650 3150
Wire Wire Line
	8650 3150 8650 3350
Connection ~ 9400 3150
Connection ~ 6750 3350
Wire Wire Line
	6750 3350 8050 3350
Wire Wire Line
	11950 3300 12000 3300
Wire Wire Line
	12350 3300 12600 3300
Wire Wire Line
	12000 3300 12000 2550
Wire Wire Line
	12000 2550 11150 2550
Wire Wire Line
	11150 2550 11150 3200
Connection ~ 12000 3300
Wire Wire Line
	12000 3300 12050 3300
Wire Wire Line
	10250 2550 10250 3250
Wire Wire Line
	10600 3250 10850 3250
$EndSCHEMATC
