G04 #@! TF.GenerationSoftware,KiCad,Pcbnew,5.0.2+dfsg1-1~bpo9+1*
G04 #@! TF.CreationDate,2019-07-23T10:23:16+02:00*
G04 #@! TF.ProjectId,10band-constantQ,31306261-6e64-42d6-936f-6e7374616e74,rev?*
G04 #@! TF.SameCoordinates,Original*
G04 #@! TF.FileFunction,Copper,L2,Bot*
G04 #@! TF.FilePolarity,Positive*
%FSLAX46Y46*%
G04 Gerber Fmt 4.6, Leading zero omitted, Abs format (unit mm)*
G04 Created by KiCad (PCBNEW 5.0.2+dfsg1-1~bpo9+1) date mar. 23 juil. 2019 10:23:16 CEST*
%MOMM*%
%LPD*%
G01*
G04 APERTURE LIST*
G04 #@! TA.AperFunction,ComponentPad*
%ADD10R,2.000000X2.000000*%
G04 #@! TD*
G04 #@! TA.AperFunction,ComponentPad*
%ADD11R,2.340000X2.340000*%
G04 #@! TD*
G04 #@! TA.AperFunction,ComponentPad*
%ADD12C,2.000000*%
G04 #@! TD*
G04 #@! TA.AperFunction,ComponentPad*
%ADD13C,3.000000*%
G04 #@! TD*
G04 #@! TA.AperFunction,ViaPad*
%ADD14C,0.800000*%
G04 #@! TD*
G04 #@! TA.AperFunction,Conductor*
%ADD15C,1.500000*%
G04 #@! TD*
G04 #@! TA.AperFunction,Conductor*
%ADD16C,0.254000*%
G04 #@! TD*
G04 APERTURE END LIST*
D10*
G04 #@! TO.P,R121,2*
G04 #@! TO.N,SIG*
X65430000Y-120840000D03*
G04 #@! TO.P,R121,1*
X65430000Y-113220000D03*
G04 #@! TD*
G04 #@! TO.P,R131,2*
G04 #@! TO.N,GND*
X68440000Y-108180000D03*
G04 #@! TO.P,R131,1*
G04 #@! TO.N,Net-(C126-Pad2)*
X68440000Y-99100000D03*
G04 #@! TD*
G04 #@! TO.P,R122,1*
G04 #@! TO.N,SIG*
X110590000Y-113200000D03*
G04 #@! TO.P,R122,2*
X110590000Y-120820000D03*
G04 #@! TD*
G04 #@! TO.P,R122,1*
G04 #@! TO.N,Net-(C128-Pad2)*
X110590000Y-103940000D03*
G04 #@! TO.P,R122,2*
G04 #@! TO.N,SIG*
X110590000Y-111560000D03*
G04 #@! TD*
G04 #@! TO.P,R121,1*
G04 #@! TO.N,Net-(C126-Pad2)*
X65430000Y-104390000D03*
G04 #@! TO.P,R121,2*
G04 #@! TO.N,SIG*
X65430000Y-112010000D03*
G04 #@! TD*
G04 #@! TO.P,R131,1*
G04 #@! TO.N,Net-(C128-Pad2)*
X107500000Y-99370000D03*
G04 #@! TO.P,R131,2*
G04 #@! TO.N,GND*
X107500000Y-108450000D03*
G04 #@! TD*
G04 #@! TO.P,C128,1*
G04 #@! TO.N,Net-(C128-Pad1)*
X97510000Y-99450000D03*
G04 #@! TO.P,C128,2*
G04 #@! TO.N,Net-(C128-Pad2)*
X105010000Y-99450000D03*
G04 #@! TD*
G04 #@! TO.P,C127,2*
G04 #@! TO.N,Net-(C126-Pad2)*
X71740000Y-105630000D03*
G04 #@! TO.P,C127,1*
G04 #@! TO.N,Net-(C127-Pad1)*
X79240000Y-105630000D03*
G04 #@! TD*
G04 #@! TO.P,R141,1*
G04 #@! TO.N,Net-(C126-Pad1)*
X79610000Y-114130000D03*
G04 #@! TO.P,R141,2*
X71990000Y-114130000D03*
G04 #@! TD*
D11*
G04 #@! TO.P,RV109,3*
G04 #@! TO.N,BST*
X81000000Y-133300000D03*
G04 #@! TO.P,RV109,2*
G04 #@! TO.N,Net-(R151-Pad2)*
X76000000Y-133300000D03*
G04 #@! TO.P,RV109,1*
G04 #@! TO.N,CUT*
X71000000Y-133300000D03*
G04 #@! TD*
D10*
G04 #@! TO.P,U107,8*
G04 #@! TO.N,v+*
X92770000Y-102750000D03*
G04 #@! TO.P,U107,7*
G04 #@! TO.N,Net-(C128-Pad1)*
X92770000Y-105290000D03*
G04 #@! TO.P,U107,6*
G04 #@! TO.N,Net-(C129-Pad1)*
X92770000Y-107830000D03*
G04 #@! TO.P,U107,5*
G04 #@! TO.N,GND*
X92770000Y-110370000D03*
G04 #@! TO.P,U107,4*
G04 #@! TO.N,v-*
X85150000Y-110370000D03*
G04 #@! TO.P,U107,3*
G04 #@! TO.N,GND*
X85150000Y-107830000D03*
G04 #@! TO.P,U107,2*
G04 #@! TO.N,Net-(C127-Pad1)*
X85150000Y-105290000D03*
G04 #@! TO.P,U107,1*
G04 #@! TO.N,Net-(C126-Pad1)*
X85150000Y-102750000D03*
G04 #@! TD*
G04 #@! TO.P,C102,2*
G04 #@! TO.N,v-*
X85150000Y-99050000D03*
G04 #@! TO.P,C102,1*
G04 #@! TO.N,v+*
X92650000Y-99050000D03*
G04 #@! TD*
G04 #@! TO.P,R131,1*
G04 #@! TO.N,GND*
X68440000Y-109040000D03*
G04 #@! TO.P,R131,2*
X68440000Y-118120000D03*
G04 #@! TD*
G04 #@! TO.P,C127,1*
G04 #@! TO.N,Net-(C127-Pad1)*
X79240000Y-108100000D03*
G04 #@! TO.P,C127,2*
G04 #@! TO.N,Net-(C126-Pad2)*
X71740000Y-108100000D03*
G04 #@! TD*
G04 #@! TO.P,C126,1*
G04 #@! TO.N,Net-(C126-Pad1)*
X79250000Y-102750000D03*
G04 #@! TO.P,C126,2*
G04 #@! TO.N,Net-(C126-Pad2)*
X71750000Y-102750000D03*
G04 #@! TD*
G04 #@! TO.P,C129,1*
G04 #@! TO.N,Net-(C129-Pad1)*
X96950000Y-106920000D03*
G04 #@! TO.P,C129,2*
G04 #@! TO.N,Net-(C128-Pad2)*
X104450000Y-106920000D03*
G04 #@! TD*
G04 #@! TO.P,R142,2*
G04 #@! TO.N,Net-(C128-Pad1)*
X104410000Y-112350000D03*
G04 #@! TO.P,R142,1*
G04 #@! TO.N,Net-(C129-Pad1)*
X96790000Y-112350000D03*
G04 #@! TD*
D12*
G04 #@! TO.P,C138,1*
G04 #@! TO.N,Net-(C138-Pad1)*
X85165361Y-126591506D03*
D13*
G04 #@! TO.P,C138,2*
G04 #@! TO.N,Net-(C126-Pad1)*
X75369277Y-114916989D03*
G04 #@! TD*
D10*
G04 #@! TO.P,C128,2*
G04 #@! TO.N,Net-(C128-Pad2)*
X105020000Y-101840000D03*
G04 #@! TO.P,C128,1*
G04 #@! TO.N,Net-(C128-Pad1)*
X97520000Y-101840000D03*
G04 #@! TD*
D12*
G04 #@! TO.P,C139,1*
G04 #@! TO.N,Net-(C139-Pad1)*
X110365361Y-127291506D03*
D13*
G04 #@! TO.P,C139,2*
G04 #@! TO.N,Net-(C128-Pad1)*
X100569277Y-115616989D03*
G04 #@! TD*
D10*
G04 #@! TO.P,R142,1*
G04 #@! TO.N,Net-(C128-Pad1)*
X96810000Y-115150000D03*
G04 #@! TO.P,R142,2*
X104430000Y-115150000D03*
G04 #@! TD*
G04 #@! TO.P,R152,1*
G04 #@! TO.N,Net-(C139-Pad1)*
X111650000Y-126050000D03*
G04 #@! TO.P,R152,2*
G04 #@! TO.N,Net-(R152-Pad2)*
X111650000Y-133670000D03*
G04 #@! TD*
G04 #@! TO.P,R151,1*
G04 #@! TO.N,Net-(C138-Pad1)*
X86800000Y-126100000D03*
G04 #@! TO.P,R151,2*
G04 #@! TO.N,Net-(R151-Pad2)*
X86800000Y-133720000D03*
G04 #@! TD*
D11*
G04 #@! TO.P,RV110,1*
G04 #@! TO.N,CUT*
X96000000Y-133300000D03*
G04 #@! TO.P,RV110,2*
G04 #@! TO.N,Net-(R152-Pad2)*
X101000000Y-133300000D03*
G04 #@! TO.P,RV110,3*
G04 #@! TO.N,BST*
X106000000Y-133300000D03*
G04 #@! TD*
D10*
G04 #@! TO.P,R131,2*
G04 #@! TO.N,GND*
X107500000Y-118320000D03*
G04 #@! TO.P,R131,1*
X107500000Y-109240000D03*
G04 #@! TD*
G04 #@! TO.P,C126,2*
G04 #@! TO.N,Net-(C126-Pad2)*
X71750000Y-99600000D03*
G04 #@! TO.P,C126,1*
G04 #@! TO.N,Net-(C126-Pad1)*
X79250000Y-99600000D03*
G04 #@! TD*
G04 #@! TO.P,R141,2*
G04 #@! TO.N,Net-(C126-Pad1)*
X71990000Y-111360000D03*
G04 #@! TO.P,R141,1*
G04 #@! TO.N,Net-(C127-Pad1)*
X79610000Y-111360000D03*
G04 #@! TD*
G04 #@! TO.P,C129,2*
G04 #@! TO.N,Net-(C128-Pad2)*
X104450000Y-109030000D03*
G04 #@! TO.P,C129,1*
G04 #@! TO.N,Net-(C129-Pad1)*
X96950000Y-109030000D03*
G04 #@! TD*
G04 #@! TO.P,R142,2*
G04 #@! TO.N,Net-(C128-Pad1)*
X54430000Y-115150000D03*
G04 #@! TO.P,R142,1*
X46810000Y-115150000D03*
G04 #@! TD*
G04 #@! TO.P,R141,2*
G04 #@! TO.N,Net-(C126-Pad1)*
X21990000Y-114130000D03*
G04 #@! TO.P,R141,1*
X29610000Y-114130000D03*
G04 #@! TD*
G04 #@! TO.P,R142,1*
G04 #@! TO.N,Net-(C129-Pad1)*
X46790000Y-112350000D03*
G04 #@! TO.P,R142,2*
G04 #@! TO.N,Net-(C128-Pad1)*
X54410000Y-112350000D03*
G04 #@! TD*
G04 #@! TO.P,R122,2*
G04 #@! TO.N,SIG*
X60590000Y-111560000D03*
G04 #@! TO.P,R122,1*
G04 #@! TO.N,Net-(C128-Pad2)*
X60590000Y-103940000D03*
G04 #@! TD*
G04 #@! TO.P,R131,2*
G04 #@! TO.N,GND*
X57500000Y-108450000D03*
G04 #@! TO.P,R131,1*
G04 #@! TO.N,Net-(C128-Pad2)*
X57500000Y-99370000D03*
G04 #@! TD*
G04 #@! TO.P,R122,2*
G04 #@! TO.N,SIG*
X60590000Y-120820000D03*
G04 #@! TO.P,R122,1*
X60590000Y-113200000D03*
G04 #@! TD*
G04 #@! TO.P,R121,2*
G04 #@! TO.N,SIG*
X15430000Y-112010000D03*
G04 #@! TO.P,R121,1*
G04 #@! TO.N,Net-(C126-Pad2)*
X15430000Y-104390000D03*
G04 #@! TD*
G04 #@! TO.P,R131,1*
G04 #@! TO.N,Net-(C126-Pad2)*
X18440000Y-99100000D03*
G04 #@! TO.P,R131,2*
G04 #@! TO.N,GND*
X18440000Y-108180000D03*
G04 #@! TD*
G04 #@! TO.P,R121,1*
G04 #@! TO.N,SIG*
X15430000Y-113220000D03*
G04 #@! TO.P,R121,2*
X15430000Y-120840000D03*
G04 #@! TD*
G04 #@! TO.P,R131,1*
G04 #@! TO.N,GND*
X57500000Y-109240000D03*
G04 #@! TO.P,R131,2*
X57500000Y-118320000D03*
G04 #@! TD*
D13*
G04 #@! TO.P,C139,2*
G04 #@! TO.N,Net-(C128-Pad1)*
X50569277Y-115616989D03*
D12*
G04 #@! TO.P,C139,1*
G04 #@! TO.N,Net-(C139-Pad1)*
X60365361Y-127291506D03*
G04 #@! TD*
D13*
G04 #@! TO.P,C138,2*
G04 #@! TO.N,Net-(C126-Pad1)*
X25369277Y-114916989D03*
D12*
G04 #@! TO.P,C138,1*
G04 #@! TO.N,Net-(C138-Pad1)*
X35165361Y-126591506D03*
G04 #@! TD*
D11*
G04 #@! TO.P,RV110,3*
G04 #@! TO.N,BST*
X56000000Y-133300000D03*
G04 #@! TO.P,RV110,2*
G04 #@! TO.N,Net-(R152-Pad2)*
X51000000Y-133300000D03*
G04 #@! TO.P,RV110,1*
G04 #@! TO.N,CUT*
X46000000Y-133300000D03*
G04 #@! TD*
D10*
G04 #@! TO.P,R141,1*
G04 #@! TO.N,Net-(C127-Pad1)*
X29610000Y-111360000D03*
G04 #@! TO.P,R141,2*
G04 #@! TO.N,Net-(C126-Pad1)*
X21990000Y-111360000D03*
G04 #@! TD*
G04 #@! TO.P,R151,2*
G04 #@! TO.N,Net-(R151-Pad2)*
X36800000Y-133720000D03*
G04 #@! TO.P,R151,1*
G04 #@! TO.N,Net-(C138-Pad1)*
X36800000Y-126100000D03*
G04 #@! TD*
G04 #@! TO.P,R152,2*
G04 #@! TO.N,Net-(R152-Pad2)*
X61650000Y-133670000D03*
G04 #@! TO.P,R152,1*
G04 #@! TO.N,Net-(C139-Pad1)*
X61650000Y-126050000D03*
G04 #@! TD*
G04 #@! TO.P,C126,1*
G04 #@! TO.N,Net-(C126-Pad1)*
X29250000Y-99600000D03*
G04 #@! TO.P,C126,2*
G04 #@! TO.N,Net-(C126-Pad2)*
X21750000Y-99600000D03*
G04 #@! TD*
G04 #@! TO.P,C128,1*
G04 #@! TO.N,Net-(C128-Pad1)*
X47520000Y-101840000D03*
G04 #@! TO.P,C128,2*
G04 #@! TO.N,Net-(C128-Pad2)*
X55020000Y-101840000D03*
G04 #@! TD*
G04 #@! TO.P,C129,1*
G04 #@! TO.N,Net-(C129-Pad1)*
X46950000Y-109030000D03*
G04 #@! TO.P,C129,2*
G04 #@! TO.N,Net-(C128-Pad2)*
X54450000Y-109030000D03*
G04 #@! TD*
G04 #@! TO.P,C127,1*
G04 #@! TO.N,Net-(C127-Pad1)*
X29240000Y-105630000D03*
G04 #@! TO.P,C127,2*
G04 #@! TO.N,Net-(C126-Pad2)*
X21740000Y-105630000D03*
G04 #@! TD*
G04 #@! TO.P,C126,2*
G04 #@! TO.N,Net-(C126-Pad2)*
X21750000Y-102750000D03*
G04 #@! TO.P,C126,1*
G04 #@! TO.N,Net-(C126-Pad1)*
X29250000Y-102750000D03*
G04 #@! TD*
G04 #@! TO.P,C102,1*
G04 #@! TO.N,v+*
X42650000Y-99050000D03*
G04 #@! TO.P,C102,2*
G04 #@! TO.N,v-*
X35150000Y-99050000D03*
G04 #@! TD*
G04 #@! TO.P,C127,2*
G04 #@! TO.N,Net-(C126-Pad2)*
X21740000Y-108100000D03*
G04 #@! TO.P,C127,1*
G04 #@! TO.N,Net-(C127-Pad1)*
X29240000Y-108100000D03*
G04 #@! TD*
G04 #@! TO.P,C128,2*
G04 #@! TO.N,Net-(C128-Pad2)*
X55010000Y-99450000D03*
G04 #@! TO.P,C128,1*
G04 #@! TO.N,Net-(C128-Pad1)*
X47510000Y-99450000D03*
G04 #@! TD*
G04 #@! TO.P,C129,2*
G04 #@! TO.N,Net-(C128-Pad2)*
X54450000Y-106920000D03*
G04 #@! TO.P,C129,1*
G04 #@! TO.N,Net-(C129-Pad1)*
X46950000Y-106920000D03*
G04 #@! TD*
G04 #@! TO.P,R131,2*
G04 #@! TO.N,GND*
X18440000Y-118120000D03*
G04 #@! TO.P,R131,1*
X18440000Y-109040000D03*
G04 #@! TD*
D11*
G04 #@! TO.P,RV109,1*
G04 #@! TO.N,CUT*
X21000000Y-133300000D03*
G04 #@! TO.P,RV109,2*
G04 #@! TO.N,Net-(R151-Pad2)*
X26000000Y-133300000D03*
G04 #@! TO.P,RV109,3*
G04 #@! TO.N,BST*
X31000000Y-133300000D03*
G04 #@! TD*
D10*
G04 #@! TO.P,U107,1*
G04 #@! TO.N,Net-(C126-Pad1)*
X35150000Y-102750000D03*
G04 #@! TO.P,U107,2*
G04 #@! TO.N,Net-(C127-Pad1)*
X35150000Y-105290000D03*
G04 #@! TO.P,U107,3*
G04 #@! TO.N,GND*
X35150000Y-107830000D03*
G04 #@! TO.P,U107,4*
G04 #@! TO.N,v-*
X35150000Y-110370000D03*
G04 #@! TO.P,U107,5*
G04 #@! TO.N,GND*
X42770000Y-110370000D03*
G04 #@! TO.P,U107,6*
G04 #@! TO.N,Net-(C129-Pad1)*
X42770000Y-107830000D03*
G04 #@! TO.P,U107,7*
G04 #@! TO.N,Net-(C128-Pad1)*
X42770000Y-105290000D03*
G04 #@! TO.P,U107,8*
G04 #@! TO.N,v+*
X42770000Y-102750000D03*
G04 #@! TD*
D14*
G04 #@! TO.N,v+*
X31190000Y-95830000D03*
X41910000Y-95830000D03*
X15210000Y-95950000D03*
X111655000Y-95895000D03*
X81190000Y-95830000D03*
X91910000Y-95830000D03*
G04 #@! TO.N,v-*
X15210000Y-93640000D03*
X111695000Y-93745000D03*
G04 #@! TO.N,GND*
X15170000Y-117930000D03*
X112690000Y-118345000D03*
G04 #@! TO.N,CUT*
X15170000Y-123760000D03*
X112610000Y-123255000D03*
G04 #@! TO.N,SIG*
X14800000Y-120900000D03*
X112670000Y-120615000D03*
G04 #@! TO.N,BST*
X14950000Y-136130000D03*
X112640000Y-135945000D03*
G04 #@! TD*
D15*
G04 #@! TO.N,v+*
X42650000Y-99050000D02*
X40800000Y-99050000D01*
X40800000Y-101400000D02*
X40800000Y-97850000D01*
X42770000Y-102750000D02*
X42150000Y-102750000D01*
X43490000Y-95830002D02*
X42730000Y-95830001D01*
X43290000Y-95830002D02*
X43490000Y-95830002D01*
X41489998Y-95830002D02*
X43290000Y-95830002D01*
X43040000Y-98660000D02*
X42650000Y-99050000D01*
X42530000Y-95910000D02*
X43300000Y-96680000D01*
X42730000Y-95830001D02*
X41910000Y-95830000D01*
X45900000Y-95830000D02*
X45650000Y-95830000D01*
X54000000Y-95830000D02*
X54300000Y-95830000D01*
X54300000Y-95830000D02*
X54700000Y-95830000D01*
X54700000Y-95830000D02*
X51030000Y-95830000D01*
X26500000Y-95830000D02*
X15000000Y-95830000D01*
X31190000Y-95830000D02*
X26500000Y-95830000D01*
X44900000Y-95830000D02*
X44900000Y-96000000D01*
X45900000Y-95830000D02*
X44900000Y-95830000D01*
X44900000Y-95830000D02*
X41910000Y-95830000D01*
X44900000Y-96000000D02*
X43400000Y-97500000D01*
X55390000Y-95830000D02*
X54000000Y-95830000D01*
X53370000Y-95830000D02*
X54130000Y-95830000D01*
X45900000Y-95830000D02*
X76500000Y-95830000D01*
X76500000Y-95830000D02*
X65000000Y-95830000D01*
X81190000Y-95830000D02*
X76500000Y-95830000D01*
X94900000Y-95830000D02*
X94900000Y-96000000D01*
X95900000Y-95830000D02*
X94900000Y-95830000D01*
X92650000Y-99050000D02*
X90800000Y-99050000D01*
X93490000Y-95830002D02*
X92730000Y-95830001D01*
X93290000Y-95830002D02*
X93490000Y-95830002D01*
X91489998Y-95830002D02*
X93290000Y-95830002D01*
X93040000Y-98660000D02*
X92650000Y-99050000D01*
X92530000Y-95910000D02*
X93300000Y-96680000D01*
X92730000Y-95830001D02*
X91910000Y-95830000D01*
X95900000Y-95830000D02*
X95650000Y-95830000D01*
X94900000Y-95830000D02*
X91910000Y-95830000D01*
X94900000Y-96000000D02*
X93400000Y-97500000D01*
X92794999Y-95895000D02*
X92730000Y-95830001D01*
X111655000Y-95895000D02*
X92794999Y-95895000D01*
X92650000Y-102630000D02*
X92770000Y-102750000D01*
X92650000Y-99050000D02*
X92650000Y-102630000D01*
X92770000Y-102670000D02*
X90800000Y-100700000D01*
X92770000Y-102750000D02*
X92770000Y-102670000D01*
X90800000Y-100700000D02*
X90800000Y-97850000D01*
X42650000Y-99050000D02*
X42650000Y-99550000D01*
X42650000Y-102630000D02*
X42770000Y-102750000D01*
X42650000Y-99050000D02*
X42650000Y-102630000D01*
X42650000Y-99550000D02*
X40800000Y-101400000D01*
X42650000Y-101550000D02*
X42450000Y-101750000D01*
X42650000Y-99050000D02*
X42650000Y-101550000D01*
X42450000Y-101750000D02*
X41150000Y-101750000D01*
X42150000Y-102750000D02*
X41150000Y-101750000D01*
X41150000Y-101750000D02*
X40800000Y-101400000D01*
G04 #@! TO.N,v-*
X35150000Y-110370000D02*
X36980000Y-110370000D01*
X36980000Y-110370000D02*
X38000000Y-109350000D01*
X37950000Y-99050000D02*
X38000000Y-99100000D01*
X36250000Y-99050000D02*
X37950000Y-99050000D01*
X35150000Y-99050000D02*
X36250000Y-99050000D01*
X38000000Y-109350000D02*
X38000000Y-101000000D01*
X38000000Y-101000000D02*
X38000000Y-97900000D01*
X38000000Y-101000000D02*
X38000000Y-100700000D01*
X38000000Y-100700000D02*
X35150000Y-97850000D01*
X35150000Y-96550000D02*
X35450000Y-96250000D01*
X35150000Y-99050000D02*
X35150000Y-96550000D01*
X35450000Y-96250000D02*
X35450000Y-94600000D01*
X35450000Y-94600000D02*
X34650000Y-93800000D01*
X34650000Y-93800000D02*
X14800000Y-93800000D01*
X84650000Y-93800000D02*
X63300000Y-93800000D01*
X48900000Y-93800000D02*
X48700000Y-93800000D01*
X60700000Y-93800000D02*
X112210000Y-93800000D01*
X34650000Y-93800000D02*
X60700000Y-93800000D01*
X86980000Y-110370000D02*
X88000000Y-109350000D01*
X87950000Y-99050000D02*
X88000000Y-99100000D01*
X86250000Y-99050000D02*
X87950000Y-99050000D01*
X85150000Y-99050000D02*
X86250000Y-99050000D01*
X88000000Y-109350000D02*
X88000000Y-101000000D01*
X88000000Y-101000000D02*
X88000000Y-97900000D01*
X88000000Y-101000000D02*
X88000000Y-100700000D01*
X88000000Y-100700000D02*
X85150000Y-97850000D01*
X85150000Y-96550000D02*
X85450000Y-96250000D01*
X85150000Y-99050000D02*
X85150000Y-96550000D01*
X85450000Y-96250000D02*
X85450000Y-94600000D01*
X85450000Y-94600000D02*
X84650000Y-93800000D01*
X84650000Y-93800000D02*
X64800000Y-93800000D01*
X84650000Y-93800000D02*
X110700000Y-93800000D01*
X98900000Y-93800000D02*
X98700000Y-93800000D01*
X85150000Y-110370000D02*
X86980000Y-110370000D01*
G04 #@! TO.N,Net-(C126-Pad1)*
X29350000Y-102650000D02*
X29250000Y-102750000D01*
X29250000Y-99600000D02*
X29250000Y-102750000D01*
X25369277Y-104130723D02*
X26750000Y-102750000D01*
X26750000Y-102750000D02*
X27870000Y-102750000D01*
X27870000Y-102750000D02*
X29250000Y-102750000D01*
X27870000Y-102640000D02*
X29250000Y-101260000D01*
X27870000Y-102750000D02*
X27870000Y-102640000D01*
X29250000Y-99600000D02*
X29250000Y-101260000D01*
X29250000Y-101260000D02*
X29410000Y-101260000D01*
X30900000Y-102750000D02*
X29250000Y-102750000D01*
X29410000Y-101260000D02*
X30900000Y-102750000D01*
X35150000Y-102750000D02*
X30900000Y-102750000D01*
X25369277Y-114916989D02*
X25369277Y-112720000D01*
X21990000Y-111360000D02*
X21990000Y-114130000D01*
X26156266Y-114130000D02*
X25369277Y-114916989D01*
X25369277Y-112659277D02*
X26840000Y-114130000D01*
X25369277Y-111220000D02*
X25369277Y-112659277D01*
X25369277Y-111220000D02*
X25369277Y-104130723D01*
X29610000Y-114130000D02*
X26840000Y-114130000D01*
X25369277Y-112720000D02*
X25369277Y-111220000D01*
X26840000Y-114130000D02*
X26156266Y-114130000D01*
X75369277Y-111220000D02*
X75369277Y-104130723D01*
X79350000Y-102650000D02*
X79250000Y-102750000D01*
X79250000Y-99600000D02*
X79250000Y-102750000D01*
X75369277Y-104130723D02*
X76750000Y-102750000D01*
X76750000Y-102750000D02*
X77870000Y-102750000D01*
X80900000Y-102750000D02*
X79250000Y-102750000D01*
X79410000Y-101260000D02*
X80900000Y-102750000D01*
X85150000Y-102750000D02*
X80900000Y-102750000D01*
X75369277Y-114916989D02*
X75369277Y-112720000D01*
X77870000Y-102750000D02*
X79250000Y-102750000D01*
X77870000Y-102640000D02*
X79250000Y-101260000D01*
X77870000Y-102750000D02*
X77870000Y-102640000D01*
X76840000Y-114130000D02*
X76156266Y-114130000D01*
X76156266Y-114130000D02*
X75369277Y-114916989D01*
X79250000Y-99600000D02*
X79250000Y-101260000D01*
X79250000Y-101260000D02*
X79410000Y-101260000D01*
X75369277Y-111220000D02*
X75369277Y-112659277D01*
X79610000Y-114130000D02*
X76840000Y-114130000D01*
X75369277Y-112720000D02*
X75369277Y-111220000D01*
X75369277Y-112659277D02*
X76840000Y-114130000D01*
X71990000Y-111360000D02*
X71990000Y-114130000D01*
G04 #@! TO.N,Net-(C127-Pad1)*
X29250000Y-107550000D02*
X29300000Y-107300000D01*
X29320000Y-110680000D02*
X29300000Y-110700000D01*
X29300000Y-107300000D02*
X29300000Y-110700000D01*
X29300000Y-107300000D02*
X31310000Y-105290000D01*
X35150000Y-105290000D02*
X31310000Y-105290000D01*
X29580000Y-105290000D02*
X29240000Y-105630000D01*
X35150000Y-105290000D02*
X29580000Y-105290000D01*
X79300000Y-107300000D02*
X79300000Y-110700000D01*
X79300000Y-107300000D02*
X81310000Y-105290000D01*
X85150000Y-105290000D02*
X81310000Y-105290000D01*
X85150000Y-105290000D02*
X79580000Y-105290000D01*
X79250000Y-107550000D02*
X79300000Y-107300000D01*
X79320000Y-110680000D02*
X79300000Y-110700000D01*
X79580000Y-105290000D02*
X79240000Y-105630000D01*
G04 #@! TO.N,Net-(C128-Pad1)*
X54320000Y-114800000D02*
X54320000Y-114800000D01*
X50200000Y-112400000D02*
X50200000Y-108800000D01*
X50200000Y-115247712D02*
X50569277Y-115616989D01*
X50200000Y-108800000D02*
X50200000Y-105919998D01*
X50200000Y-105919998D02*
X47580002Y-103300000D01*
X44660000Y-105290000D02*
X42770000Y-105290000D01*
X47580002Y-103300000D02*
X46650000Y-103300000D01*
X47510000Y-99450000D02*
X47510000Y-103229998D01*
X45730002Y-104219998D02*
X45410000Y-104540000D01*
X48500000Y-104219998D02*
X45730002Y-104219998D01*
X48500000Y-104219998D02*
X50200000Y-105919998D01*
X47510000Y-103229998D02*
X48500000Y-104219998D01*
X46650000Y-103300000D02*
X45410000Y-104540000D01*
X45410000Y-104540000D02*
X44660000Y-105290000D01*
X49450000Y-115170000D02*
X50200000Y-114420000D01*
X46950000Y-115170000D02*
X49450000Y-115170000D01*
X50200000Y-108800000D02*
X50200000Y-113800000D01*
X50200000Y-114420000D02*
X50200000Y-113800000D01*
X50200000Y-113800000D02*
X50200000Y-115247712D01*
X50122288Y-115170000D02*
X50569277Y-115616989D01*
X46950000Y-115170000D02*
X50122288Y-115170000D01*
X54410000Y-115010000D02*
X54570000Y-115170000D01*
X54410000Y-112350000D02*
X54410000Y-115010000D01*
X100200000Y-113800000D02*
X100200000Y-115247712D01*
X104410000Y-112350000D02*
X104410000Y-115010000D01*
X100200000Y-115247712D02*
X100569277Y-115616989D01*
X104320000Y-114800000D02*
X104320000Y-114800000D01*
X100200000Y-112400000D02*
X100200000Y-108800000D01*
X100200000Y-108800000D02*
X100200000Y-113800000D01*
X96950000Y-115170000D02*
X99450000Y-115170000D01*
X99450000Y-115170000D02*
X100200000Y-114420000D01*
X104410000Y-115010000D02*
X104570000Y-115170000D01*
X97510000Y-103229998D02*
X98500000Y-104219998D01*
X96650000Y-103300000D02*
X95410000Y-104540000D01*
X95410000Y-104540000D02*
X94660000Y-105290000D01*
X100122288Y-115170000D02*
X100569277Y-115616989D01*
X100200000Y-114420000D02*
X100200000Y-113800000D01*
X95730002Y-104219998D02*
X95410000Y-104540000D01*
X98500000Y-104219998D02*
X95730002Y-104219998D01*
X98500000Y-104219998D02*
X100200000Y-105919998D01*
X100200000Y-108800000D02*
X100200000Y-105919998D01*
X100200000Y-105919998D02*
X97580002Y-103300000D01*
X96950000Y-115170000D02*
X100122288Y-115170000D01*
X94660000Y-105290000D02*
X92770000Y-105290000D01*
X97580002Y-103300000D02*
X96650000Y-103300000D01*
X97510000Y-99450000D02*
X97510000Y-103229998D01*
G04 #@! TO.N,Net-(C129-Pad1)*
X46700000Y-109100000D02*
X46700000Y-111300000D01*
X45530000Y-107930000D02*
X46700000Y-109100000D01*
X46700000Y-107900000D02*
X45560000Y-107900000D01*
X45560000Y-107900000D02*
X45530000Y-107930000D01*
X46700000Y-107900000D02*
X46700000Y-109100000D01*
X42770000Y-107830000D02*
X46630000Y-107830000D01*
X46630000Y-107830000D02*
X46700000Y-107900000D01*
X96700000Y-109100000D02*
X96700000Y-111300000D01*
X95530000Y-107930000D02*
X96700000Y-109100000D01*
X96700000Y-107900000D02*
X95560000Y-107900000D01*
X95560000Y-107900000D02*
X95530000Y-107930000D01*
X96700000Y-107900000D02*
X96700000Y-109100000D01*
X92770000Y-107830000D02*
X96630000Y-107830000D01*
X96630000Y-107830000D02*
X96700000Y-107900000D01*
G04 #@! TO.N,GND*
X41600000Y-118400000D02*
X40700000Y-118400000D01*
X40700000Y-118400000D02*
X33500000Y-118400000D01*
X33500000Y-118400000D02*
X32450000Y-118400000D01*
X32450000Y-118400000D02*
X31300000Y-118400000D01*
X31300000Y-118400000D02*
X30650000Y-118400000D01*
X30650000Y-118400000D02*
X18100000Y-118400000D01*
X35150000Y-107830000D02*
X32970000Y-107830000D01*
X32970000Y-107830000D02*
X32300000Y-108500000D01*
X32300000Y-108500000D02*
X32300000Y-117200000D01*
X32300000Y-117200000D02*
X33500000Y-118400000D01*
X31300000Y-118400000D02*
X31300000Y-118200000D01*
X31300000Y-118200000D02*
X32300000Y-117200000D01*
X44370000Y-118400000D02*
X42770000Y-116800000D01*
X44700000Y-118400000D02*
X44370000Y-118400000D01*
X42770000Y-110370000D02*
X42770000Y-116800000D01*
X42770000Y-117230000D02*
X41600000Y-118400000D01*
X42770000Y-116800000D02*
X42770000Y-117230000D01*
X19200000Y-118400000D02*
X14600000Y-118400000D01*
X40700000Y-118400000D02*
X43180000Y-118400000D01*
X43180000Y-118400000D02*
X69200000Y-118400000D01*
X43180000Y-118400000D02*
X44700000Y-118400000D01*
X69200000Y-118400000D02*
X64600000Y-118400000D01*
X83500000Y-118400000D02*
X82450000Y-118400000D01*
X82450000Y-118400000D02*
X81300000Y-118400000D01*
X81300000Y-118400000D02*
X80650000Y-118400000D01*
X80650000Y-118400000D02*
X68100000Y-118400000D01*
X85150000Y-107830000D02*
X82970000Y-107830000D01*
X82970000Y-107830000D02*
X82300000Y-108500000D01*
X82300000Y-108500000D02*
X82300000Y-117200000D01*
X82300000Y-117200000D02*
X83500000Y-118400000D01*
X81300000Y-118400000D02*
X81300000Y-118200000D01*
X81300000Y-118200000D02*
X82300000Y-117200000D01*
X94370000Y-118400000D02*
X92770000Y-116800000D01*
X94700000Y-118400000D02*
X94370000Y-118400000D01*
X90700000Y-118400000D02*
X93180000Y-118400000D01*
X93180000Y-118400000D02*
X94700000Y-118400000D01*
X91600000Y-118400000D02*
X90700000Y-118400000D01*
X90700000Y-118400000D02*
X83500000Y-118400000D01*
X92770000Y-110370000D02*
X92770000Y-116800000D01*
X92770000Y-117230000D02*
X91600000Y-118400000D01*
X92770000Y-116800000D02*
X92770000Y-117230000D01*
X100708010Y-118366990D02*
X111902325Y-118366990D01*
X100675000Y-118400000D02*
X100708010Y-118366990D01*
X94700000Y-118400000D02*
X100675000Y-118400000D01*
G04 #@! TO.N,CUT*
X46000000Y-133300000D02*
X45700000Y-133300000D01*
X22550000Y-123250000D02*
X22600000Y-123250000D01*
X22550000Y-123250000D02*
X26200000Y-123250000D01*
X21000000Y-133300000D02*
X21000000Y-125800000D01*
X21000000Y-125800000D02*
X21000000Y-124800000D01*
X21000000Y-124800000D02*
X22550000Y-123250000D01*
X19999998Y-123250000D02*
X18900000Y-123250000D01*
X18900000Y-123250000D02*
X15850000Y-123250000D01*
X21000000Y-124800000D02*
X21000000Y-124250002D01*
X21000000Y-124250002D02*
X19999998Y-123250000D01*
X18900000Y-123250000D02*
X19450000Y-123250000D01*
X19450000Y-123250000D02*
X21000000Y-124800000D01*
X26200000Y-123250000D02*
X24000000Y-123250000D01*
X24000000Y-123250000D02*
X19999998Y-123250000D01*
X46000000Y-124500000D02*
X47250000Y-123250000D01*
X46000000Y-133300000D02*
X46000000Y-124500000D01*
X46000000Y-124500000D02*
X44750000Y-123250000D01*
X44750000Y-123250000D02*
X47250000Y-123250000D01*
X24000000Y-123250000D02*
X44750000Y-123250000D01*
X15500000Y-123250000D02*
X14850000Y-123900000D01*
X15850000Y-123250000D02*
X15500000Y-123250000D01*
X47250000Y-123250000D02*
X98180000Y-123250000D01*
X111854998Y-123255000D02*
X112610000Y-123255000D01*
X111549999Y-122950001D02*
X111854998Y-123255000D01*
X96000000Y-124500000D02*
X94750000Y-123250000D01*
X94750000Y-123250000D02*
X97250000Y-123250000D01*
X74000000Y-123250000D02*
X94750000Y-123250000D01*
X96000000Y-133300000D02*
X95700000Y-133300000D01*
X72550000Y-123250000D02*
X72600000Y-123250000D01*
X72550000Y-123250000D02*
X76200000Y-123250000D01*
X71000000Y-133300000D02*
X71000000Y-125800000D01*
X71000000Y-125800000D02*
X71000000Y-124800000D01*
X71000000Y-124800000D02*
X72550000Y-123250000D01*
X69999998Y-123250000D02*
X68900000Y-123250000D01*
X68900000Y-123250000D02*
X65850000Y-123250000D01*
X71000000Y-124800000D02*
X71000000Y-124250002D01*
X71000000Y-124250002D02*
X69999998Y-123250000D01*
X68900000Y-123250000D02*
X69450000Y-123250000D01*
X69450000Y-123250000D02*
X71000000Y-124800000D01*
X76200000Y-123250000D02*
X74000000Y-123250000D01*
X74000000Y-123250000D02*
X69999998Y-123250000D01*
X96000000Y-124500000D02*
X97250000Y-123250000D01*
X96000000Y-133300000D02*
X96000000Y-124500000D01*
X98185000Y-123255000D02*
X112610000Y-123255000D01*
X98180000Y-123250000D02*
X98185000Y-123255000D01*
G04 #@! TO.N,SIG*
X16315000Y-120815000D02*
X16300000Y-120800000D01*
X112150000Y-120815000D02*
X16315000Y-120815000D01*
X66315000Y-120815000D02*
X66300000Y-120800000D01*
G04 #@! TO.N,BST*
X31000000Y-136200000D02*
X31000000Y-135800000D01*
X56000000Y-135500000D02*
X56000000Y-133300000D01*
X55300000Y-136200000D02*
X56000000Y-135500000D01*
X31000000Y-135800000D02*
X31400000Y-136200000D01*
X31400000Y-136200000D02*
X52900000Y-136200000D01*
X29500000Y-136000000D02*
X31000000Y-134500000D01*
X29500000Y-136200000D02*
X29500000Y-136000000D01*
X29500000Y-136200000D02*
X14550000Y-136200000D01*
X31000000Y-136200000D02*
X29500000Y-136200000D01*
X31000000Y-133300000D02*
X31000000Y-134500000D01*
X31000000Y-134500000D02*
X31000000Y-136200000D01*
X65680000Y-136200000D02*
X54320000Y-136200000D01*
X52900000Y-136200000D02*
X54320000Y-136200000D01*
X54320000Y-136200000D02*
X55300000Y-136200000D01*
X79500000Y-136200000D02*
X79500000Y-136000000D01*
X79500000Y-136200000D02*
X64550000Y-136200000D01*
X81000000Y-136200000D02*
X79500000Y-136200000D01*
X81000000Y-133300000D02*
X81000000Y-134500000D01*
X81000000Y-134500000D02*
X81000000Y-136200000D01*
X115680000Y-136200000D02*
X104320000Y-136200000D01*
X102900000Y-136200000D02*
X104320000Y-136200000D01*
X104320000Y-136200000D02*
X105300000Y-136200000D01*
X81000000Y-136200000D02*
X81000000Y-135800000D01*
X106000000Y-135500000D02*
X106000000Y-133300000D01*
X105300000Y-136200000D02*
X106000000Y-135500000D01*
X81000000Y-135800000D02*
X81400000Y-136200000D01*
X81400000Y-136200000D02*
X102900000Y-136200000D01*
X79500000Y-136000000D02*
X81000000Y-134500000D01*
G04 #@! TO.N,Net-(R151-Pad2)*
X36600000Y-132920000D02*
X36600000Y-131700000D01*
X28100000Y-129500000D02*
X26000000Y-131600000D01*
X34400000Y-129500000D02*
X28100000Y-129500000D01*
X36600000Y-131700000D02*
X34400000Y-129500000D01*
X26000000Y-131600000D02*
X26000000Y-133300000D01*
X36800000Y-133720000D02*
X36800000Y-133120000D01*
X36800000Y-133120000D02*
X36600000Y-132920000D01*
X86600000Y-132920000D02*
X86600000Y-131700000D01*
X78100000Y-129500000D02*
X76000000Y-131600000D01*
X84400000Y-129500000D02*
X78100000Y-129500000D01*
X86600000Y-131700000D02*
X84400000Y-129500000D01*
X76000000Y-131600000D02*
X76000000Y-133300000D01*
X86800000Y-133720000D02*
X86800000Y-133120000D01*
X86800000Y-133120000D02*
X86600000Y-132920000D01*
G04 #@! TO.N,Net-(R152-Pad2)*
X54000000Y-130300000D02*
X51000000Y-133300000D01*
X57700000Y-130300000D02*
X57400000Y-130300000D01*
X57400000Y-130300000D02*
X54000000Y-130300000D01*
X57400000Y-130300000D02*
X60000000Y-130300000D01*
X61600000Y-131900000D02*
X61600000Y-133220000D01*
X60000000Y-130300000D02*
X61600000Y-131900000D01*
X104000000Y-130300000D02*
X101000000Y-133300000D01*
X107700000Y-130300000D02*
X107400000Y-130300000D01*
X107400000Y-130300000D02*
X104000000Y-130300000D01*
X107400000Y-130300000D02*
X110000000Y-130300000D01*
X111600000Y-131900000D02*
X111600000Y-133220000D01*
X110000000Y-130300000D02*
X111600000Y-131900000D01*
G04 #@! TD*
D16*
G04 #@! TO.N,Net-(C127-Pad1)*
G36*
X30853638Y-112353000D02*
X28307640Y-112353000D01*
X28346362Y-104657000D01*
X30892360Y-104657000D01*
X30853638Y-112353000D01*
X30853638Y-112353000D01*
G37*
X30853638Y-112353000D02*
X28307640Y-112353000D01*
X28346362Y-104657000D01*
X30892360Y-104657000D01*
X30853638Y-112353000D01*
G04 #@! TO.N,v-*
G36*
X38659335Y-95010178D02*
X38643531Y-95029415D01*
X38631784Y-95051365D01*
X38624544Y-95075186D01*
X38622091Y-95099859D01*
X38614879Y-100543000D01*
X34368851Y-100543000D01*
X34374905Y-95050193D01*
X34372492Y-95025414D01*
X34365291Y-95001582D01*
X34353579Y-94979612D01*
X34341938Y-94964690D01*
X33036814Y-93526999D01*
X40144078Y-93526975D01*
X38659335Y-95010178D01*
X38659335Y-95010178D01*
G37*
X38659335Y-95010178D02*
X38643531Y-95029415D01*
X38631784Y-95051365D01*
X38624544Y-95075186D01*
X38622091Y-95099859D01*
X38614879Y-100543000D01*
X34368851Y-100543000D01*
X34374905Y-95050193D01*
X34372492Y-95025414D01*
X34365291Y-95001582D01*
X34353579Y-94979612D01*
X34341938Y-94964690D01*
X33036814Y-93526999D01*
X40144078Y-93526975D01*
X38659335Y-95010178D01*
G04 #@! TO.N,v+*
G36*
X43913000Y-99797394D02*
X43127729Y-100582665D01*
X40167587Y-100563807D01*
X40167006Y-95772600D01*
X40732606Y-95207000D01*
X43913000Y-95207000D01*
X43913000Y-99797394D01*
X43913000Y-99797394D01*
G37*
X43913000Y-99797394D02*
X43127729Y-100582665D01*
X40167587Y-100563807D01*
X40167006Y-95772600D01*
X40732606Y-95207000D01*
X43913000Y-95207000D01*
X43913000Y-99797394D01*
G04 #@! TO.N,Net-(C138-Pad1)*
G36*
X38273000Y-127973000D02*
X34027000Y-127973000D01*
X34027000Y-124727000D01*
X38273000Y-124727000D01*
X38273000Y-127973000D01*
X38273000Y-127973000D01*
G37*
X38273000Y-127973000D02*
X34027000Y-127973000D01*
X34027000Y-124727000D01*
X38273000Y-124727000D01*
X38273000Y-127973000D01*
G04 #@! TO.N,Net-(C139-Pad1)*
G36*
X62629090Y-128723000D02*
X58383090Y-128723000D01*
X58383090Y-124927000D01*
X62629090Y-124927000D01*
X62629090Y-128723000D01*
X62629090Y-128723000D01*
G37*
X62629090Y-128723000D02*
X58383090Y-128723000D01*
X58383090Y-124927000D01*
X62629090Y-124927000D01*
X62629090Y-128723000D01*
G04 #@! TO.N,BST*
G36*
X32873000Y-134500000D02*
X32875440Y-134524776D01*
X32882667Y-134548601D01*
X32894403Y-134570557D01*
X32910197Y-134589803D01*
X34180512Y-135860118D01*
X28544912Y-135634694D01*
X29589803Y-134589803D01*
X29605597Y-134570557D01*
X29617333Y-134548601D01*
X29624560Y-134524776D01*
X29627000Y-134500000D01*
X29627000Y-132127000D01*
X32873000Y-132127000D01*
X32873000Y-134500000D01*
X32873000Y-134500000D01*
G37*
X32873000Y-134500000D02*
X32875440Y-134524776D01*
X32882667Y-134548601D01*
X32894403Y-134570557D01*
X32910197Y-134589803D01*
X34180512Y-135860118D01*
X28544912Y-135634694D01*
X29589803Y-134589803D01*
X29605597Y-134570557D01*
X29617333Y-134548601D01*
X29624560Y-134524776D01*
X29627000Y-134500000D01*
X29627000Y-132127000D01*
X32873000Y-132127000D01*
X32873000Y-134500000D01*
G36*
X58115201Y-134500000D02*
X58117641Y-134524776D01*
X58124868Y-134548601D01*
X58136604Y-134570557D01*
X58152398Y-134589803D01*
X59422713Y-135860118D01*
X53787113Y-135634694D01*
X54832004Y-134589803D01*
X54847798Y-134570557D01*
X54859534Y-134548601D01*
X54866761Y-134524776D01*
X54869201Y-134500000D01*
X54869201Y-132127000D01*
X58115201Y-132127000D01*
X58115201Y-134500000D01*
X58115201Y-134500000D01*
G37*
X58115201Y-134500000D02*
X58117641Y-134524776D01*
X58124868Y-134548601D01*
X58136604Y-134570557D01*
X58152398Y-134589803D01*
X59422713Y-135860118D01*
X53787113Y-135634694D01*
X54832004Y-134589803D01*
X54847798Y-134570557D01*
X54859534Y-134548601D01*
X54866761Y-134524776D01*
X54869201Y-134500000D01*
X54869201Y-132127000D01*
X58115201Y-132127000D01*
X58115201Y-134500000D01*
G04 #@! TO.N,v-*
G36*
X16273000Y-94423000D02*
X14127000Y-94423000D01*
X14127000Y-92877000D01*
X16273000Y-92877000D01*
X16273000Y-94423000D01*
X16273000Y-94423000D01*
G37*
X16273000Y-94423000D02*
X14127000Y-94423000D01*
X14127000Y-92877000D01*
X16273000Y-92877000D01*
X16273000Y-94423000D01*
G04 #@! TO.N,v+*
G36*
X16270085Y-96753000D02*
X14124085Y-96753000D01*
X14124085Y-95207000D01*
X16270085Y-95207000D01*
X16270085Y-96753000D01*
X16270085Y-96753000D01*
G37*
X16270085Y-96753000D02*
X14124085Y-96753000D01*
X14124085Y-95207000D01*
X16270085Y-95207000D01*
X16270085Y-96753000D01*
G04 #@! TO.N,BST*
G36*
X16070085Y-136853000D02*
X13924085Y-136853000D01*
X13924085Y-135307000D01*
X16070085Y-135307000D01*
X16070085Y-136853000D01*
X16070085Y-136853000D01*
G37*
X16070085Y-136853000D02*
X13924085Y-136853000D01*
X13924085Y-135307000D01*
X16070085Y-135307000D01*
X16070085Y-136853000D01*
G04 #@! TO.N,CUT*
G36*
X16173000Y-124673000D02*
X14027000Y-124673000D01*
X14027000Y-122627000D01*
X16173000Y-122627000D01*
X16173000Y-124673000D01*
X16173000Y-124673000D01*
G37*
X16173000Y-124673000D02*
X14027000Y-124673000D01*
X14027000Y-122627000D01*
X16173000Y-122627000D01*
X16173000Y-124673000D01*
G04 #@! TO.N,GND*
G36*
X16134983Y-119023000D02*
X13988983Y-119023000D01*
X13988983Y-116977000D01*
X16134983Y-116977000D01*
X16134983Y-119023000D01*
X16134983Y-119023000D01*
G37*
X16134983Y-119023000D02*
X13988983Y-119023000D01*
X13988983Y-116977000D01*
X16134983Y-116977000D01*
X16134983Y-119023000D01*
G04 #@! TO.N,SIG*
G36*
X16223000Y-121673000D02*
X13977000Y-121673000D01*
X13977000Y-119927000D01*
X16223000Y-119927000D01*
X16223000Y-121673000D01*
X16223000Y-121673000D01*
G37*
X16223000Y-121673000D02*
X13977000Y-121673000D01*
X13977000Y-119927000D01*
X16223000Y-119927000D01*
X16223000Y-121673000D01*
G04 #@! TO.N,BST*
G36*
X113627564Y-136598000D02*
X112015114Y-136598000D01*
X112025591Y-135300033D01*
X112650000Y-135300033D01*
X112772913Y-135287927D01*
X112891103Y-135252075D01*
X112891243Y-135252000D01*
X113638429Y-135252000D01*
X113627564Y-136598000D01*
X113627564Y-136598000D01*
G37*
X113627564Y-136598000D02*
X112015114Y-136598000D01*
X112025591Y-135300033D01*
X112650000Y-135300033D01*
X112772913Y-135287927D01*
X112891103Y-135252075D01*
X112891243Y-135252000D01*
X113638429Y-135252000D01*
X113627564Y-136598000D01*
G04 #@! TO.N,CUT*
G36*
X113480924Y-123998000D02*
X111334957Y-123998000D01*
X111309855Y-122450033D01*
X111590000Y-122450033D01*
X111712913Y-122437927D01*
X111831103Y-122402075D01*
X111831243Y-122402000D01*
X113455043Y-122402000D01*
X113480924Y-123998000D01*
X113480924Y-123998000D01*
G37*
X113480924Y-123998000D02*
X111334957Y-123998000D01*
X111309855Y-122450033D01*
X111590000Y-122450033D01*
X111712913Y-122437927D01*
X111831103Y-122402075D01*
X111831243Y-122402000D01*
X113455043Y-122402000D01*
X113480924Y-123998000D01*
G04 #@! TO.N,v-*
G36*
X112808000Y-94408000D02*
X110662000Y-94408000D01*
X110662000Y-92862000D01*
X112808000Y-92862000D01*
X112808000Y-94408000D01*
X112808000Y-94408000D01*
G37*
X112808000Y-94408000D02*
X110662000Y-94408000D01*
X110662000Y-92862000D01*
X112808000Y-92862000D01*
X112808000Y-94408000D01*
G04 #@! TO.N,SIG*
G36*
X113523000Y-121448000D02*
X111277000Y-121448000D01*
X111277000Y-119743990D01*
X111969965Y-119743990D01*
X112172264Y-119724065D01*
X112245003Y-119702000D01*
X113523000Y-119702000D01*
X113523000Y-121448000D01*
X113523000Y-121448000D01*
G37*
X113523000Y-121448000D02*
X111277000Y-121448000D01*
X111277000Y-119743990D01*
X111969965Y-119743990D01*
X112172264Y-119724065D01*
X112245003Y-119702000D01*
X113523000Y-119702000D01*
X113523000Y-121448000D01*
G04 #@! TO.N,GND*
G36*
X113544983Y-118998000D02*
X111398983Y-118998000D01*
X111398983Y-116952000D01*
X113544983Y-116952000D01*
X113544983Y-118998000D01*
X113544983Y-118998000D01*
G37*
X113544983Y-118998000D02*
X111398983Y-118998000D01*
X111398983Y-116952000D01*
X113544983Y-116952000D01*
X113544983Y-118998000D01*
G04 #@! TO.N,v+*
G36*
X112805085Y-96738000D02*
X110659085Y-96738000D01*
X110659085Y-95192000D01*
X112805085Y-95192000D01*
X112805085Y-96738000D01*
X112805085Y-96738000D01*
G37*
X112805085Y-96738000D02*
X110659085Y-96738000D01*
X110659085Y-95192000D01*
X112805085Y-95192000D01*
X112805085Y-96738000D01*
G04 #@! TO.N,Net-(C129-Pad1)*
G36*
X48440999Y-106108369D02*
X48364340Y-113333000D01*
X45818783Y-113333000D01*
X45896988Y-107721770D01*
X45894893Y-107696962D01*
X45883941Y-107663906D01*
X45604109Y-107095497D01*
X45859803Y-106839803D01*
X45875597Y-106820557D01*
X45887333Y-106798601D01*
X45894560Y-106774776D01*
X45897000Y-106750000D01*
X45897000Y-106047532D01*
X48380162Y-106047532D01*
X48440999Y-106108369D01*
X48440999Y-106108369D01*
G37*
X48440999Y-106108369D02*
X48364340Y-113333000D01*
X45818783Y-113333000D01*
X45896988Y-107721770D01*
X45894893Y-107696962D01*
X45883941Y-107663906D01*
X45604109Y-107095497D01*
X45859803Y-106839803D01*
X45875597Y-106820557D01*
X45887333Y-106798601D01*
X45894560Y-106774776D01*
X45897000Y-106750000D01*
X45897000Y-106047532D01*
X48380162Y-106047532D01*
X48440999Y-106108369D01*
G04 #@! TO.N,Net-(C126-Pad1)*
G36*
X30633000Y-98882606D02*
X30633000Y-101763215D01*
X27045193Y-102064413D01*
X27609803Y-101499803D01*
X27625597Y-101480557D01*
X27637333Y-101458601D01*
X27644560Y-101434776D01*
X27647000Y-101410000D01*
X27647000Y-98512606D01*
X28052606Y-98107000D01*
X29857394Y-98107000D01*
X30633000Y-98882606D01*
X30633000Y-98882606D01*
G37*
X30633000Y-98882606D02*
X30633000Y-101763215D01*
X27045193Y-102064413D01*
X27609803Y-101499803D01*
X27625597Y-101480557D01*
X27637333Y-101458601D01*
X27644560Y-101434776D01*
X27647000Y-101410000D01*
X27647000Y-98512606D01*
X28052606Y-98107000D01*
X29857394Y-98107000D01*
X30633000Y-98882606D01*
G04 #@! TO.N,Net-(C128-Pad1)*
G36*
X48487863Y-98507451D02*
X48473354Y-103849265D01*
X46931844Y-103804454D01*
X46017176Y-102945220D01*
X46031825Y-98374595D01*
X46165922Y-98246884D01*
X48239969Y-98242127D01*
X48487863Y-98507451D01*
X48487863Y-98507451D01*
G37*
X48487863Y-98507451D02*
X48473354Y-103849265D01*
X46931844Y-103804454D01*
X46017176Y-102945220D01*
X46031825Y-98374595D01*
X46165922Y-98246884D01*
X48239969Y-98242127D01*
X48487863Y-98507451D01*
G04 #@! TO.N,Net-(C126-Pad2)*
G36*
X23252808Y-98512414D02*
X23213475Y-109279708D01*
X20745577Y-109216313D01*
X20806948Y-107063619D01*
X20805215Y-107038783D01*
X20798670Y-107014763D01*
X20787564Y-106992480D01*
X20769803Y-106970197D01*
X19189803Y-105390197D01*
X19170557Y-105374403D01*
X19148601Y-105362667D01*
X19124776Y-105355440D01*
X19100000Y-105353000D01*
X14437000Y-105353000D01*
X14437000Y-102912606D01*
X17029803Y-100319803D01*
X17045597Y-100300557D01*
X17057333Y-100278601D01*
X17064560Y-100254776D01*
X17067000Y-100230000D01*
X17067000Y-98452606D01*
X17872606Y-97647000D01*
X22387394Y-97647000D01*
X23252808Y-98512414D01*
X23252808Y-98512414D01*
G37*
X23252808Y-98512414D02*
X23213475Y-109279708D01*
X20745577Y-109216313D01*
X20806948Y-107063619D01*
X20805215Y-107038783D01*
X20798670Y-107014763D01*
X20787564Y-106992480D01*
X20769803Y-106970197D01*
X19189803Y-105390197D01*
X19170557Y-105374403D01*
X19148601Y-105362667D01*
X19124776Y-105355440D01*
X19100000Y-105353000D01*
X14437000Y-105353000D01*
X14437000Y-102912606D01*
X17029803Y-100319803D01*
X17045597Y-100300557D01*
X17057333Y-100278601D01*
X17064560Y-100254776D01*
X17067000Y-100230000D01*
X17067000Y-98452606D01*
X17872606Y-97647000D01*
X22387394Y-97647000D01*
X23252808Y-98512414D01*
G04 #@! TO.N,Net-(C128-Pad2)*
G36*
X61743000Y-100232606D02*
X61743000Y-104963000D01*
X56970000Y-104963000D01*
X56945224Y-104965440D01*
X56921399Y-104972667D01*
X56899443Y-104984403D01*
X56880197Y-105000197D01*
X55540197Y-106340197D01*
X55524403Y-106359443D01*
X55512667Y-106381399D01*
X55505440Y-106405224D01*
X55503000Y-106429833D01*
X55498069Y-110172325D01*
X55242394Y-110428000D01*
X53297606Y-110428000D01*
X53081828Y-110212222D01*
X53047171Y-99572435D01*
X54602606Y-98017000D01*
X59527394Y-98017000D01*
X61743000Y-100232606D01*
X61743000Y-100232606D01*
G37*
X61743000Y-100232606D02*
X61743000Y-104963000D01*
X56970000Y-104963000D01*
X56945224Y-104965440D01*
X56921399Y-104972667D01*
X56899443Y-104984403D01*
X56880197Y-105000197D01*
X55540197Y-106340197D01*
X55524403Y-106359443D01*
X55512667Y-106381399D01*
X55505440Y-106405224D01*
X55503000Y-106429833D01*
X55498069Y-110172325D01*
X55242394Y-110428000D01*
X53297606Y-110428000D01*
X53081828Y-110212222D01*
X53047171Y-99572435D01*
X54602606Y-98017000D01*
X59527394Y-98017000D01*
X61743000Y-100232606D01*
G04 #@! TO.N,Net-(C126-Pad1)*
G36*
X23043000Y-110287992D02*
X23043000Y-115087394D01*
X22757394Y-115373000D01*
X20952606Y-115373000D01*
X20557000Y-114977394D01*
X20557000Y-110612606D01*
X20942606Y-110227000D01*
X22972624Y-110227000D01*
X23043000Y-110287992D01*
X23043000Y-110287992D01*
G37*
X23043000Y-110287992D02*
X23043000Y-115087394D01*
X22757394Y-115373000D01*
X20952606Y-115373000D01*
X20557000Y-114977394D01*
X20557000Y-110612606D01*
X20942606Y-110227000D01*
X22972624Y-110227000D01*
X23043000Y-110287992D01*
G04 #@! TO.N,Net-(C128-Pad1)*
G36*
X55643000Y-111427992D02*
X55643000Y-116227394D01*
X55357394Y-116513000D01*
X53552606Y-116513000D01*
X53157000Y-116117394D01*
X53157000Y-111752606D01*
X53542606Y-111367000D01*
X55572624Y-111367000D01*
X55643000Y-111427992D01*
X55643000Y-111427992D01*
G37*
X55643000Y-111427992D02*
X55643000Y-116227394D01*
X55357394Y-116513000D01*
X53552606Y-116513000D01*
X53157000Y-116117394D01*
X53157000Y-111752606D01*
X53542606Y-111367000D01*
X55572624Y-111367000D01*
X55643000Y-111427992D01*
G04 #@! TO.N,SIG*
G36*
X61923000Y-110732606D02*
X61923000Y-114167394D01*
X61547394Y-114543000D01*
X59772606Y-114543000D01*
X59307000Y-114077394D01*
X59307000Y-110472606D01*
X59392606Y-110387000D01*
X61577394Y-110387000D01*
X61923000Y-110732606D01*
X61923000Y-110732606D01*
G37*
X61923000Y-110732606D02*
X61923000Y-114167394D01*
X61547394Y-114543000D01*
X59772606Y-114543000D01*
X59307000Y-114077394D01*
X59307000Y-110472606D01*
X59392606Y-110387000D01*
X61577394Y-110387000D01*
X61923000Y-110732606D01*
G04 #@! TO.N,GND*
G36*
X58603000Y-107622606D02*
X58603000Y-110037394D01*
X58367394Y-110273000D01*
X56542606Y-110273000D01*
X56517000Y-110247394D01*
X56517000Y-107503575D01*
X56522114Y-107497000D01*
X58477394Y-107497000D01*
X58603000Y-107622606D01*
X58603000Y-107622606D01*
G37*
X58603000Y-107622606D02*
X58603000Y-110037394D01*
X58367394Y-110273000D01*
X56542606Y-110273000D01*
X56517000Y-110247394D01*
X56517000Y-107503575D01*
X56522114Y-107497000D01*
X58477394Y-107497000D01*
X58603000Y-107622606D01*
G36*
X19583000Y-107352606D02*
X19583000Y-109767394D01*
X19347394Y-110003000D01*
X17522606Y-110003000D01*
X17497000Y-109977394D01*
X17497000Y-107233575D01*
X17502114Y-107227000D01*
X19457394Y-107227000D01*
X19583000Y-107352606D01*
X19583000Y-107352606D01*
G37*
X19583000Y-107352606D02*
X19583000Y-109767394D01*
X19347394Y-110003000D01*
X17522606Y-110003000D01*
X17497000Y-109977394D01*
X17497000Y-107233575D01*
X17502114Y-107227000D01*
X19457394Y-107227000D01*
X19583000Y-107352606D01*
G04 #@! TO.N,SIG*
G36*
X16753000Y-111152606D02*
X16753000Y-114587394D01*
X16377394Y-114963000D01*
X14602606Y-114963000D01*
X14137000Y-114497394D01*
X14137000Y-110892606D01*
X14222606Y-110807000D01*
X16407394Y-110807000D01*
X16753000Y-111152606D01*
X16753000Y-111152606D01*
G37*
X16753000Y-111152606D02*
X16753000Y-114587394D01*
X16377394Y-114963000D01*
X14602606Y-114963000D01*
X14137000Y-114497394D01*
X14137000Y-110892606D01*
X14222606Y-110807000D01*
X16407394Y-110807000D01*
X16753000Y-111152606D01*
G36*
X66753000Y-111152606D02*
X66753000Y-114587394D01*
X66377394Y-114963000D01*
X64602606Y-114963000D01*
X64137000Y-114497394D01*
X64137000Y-110892606D01*
X64222606Y-110807000D01*
X66407394Y-110807000D01*
X66753000Y-111152606D01*
X66753000Y-111152606D01*
G37*
X66753000Y-111152606D02*
X66753000Y-114587394D01*
X66377394Y-114963000D01*
X64602606Y-114963000D01*
X64137000Y-114497394D01*
X64137000Y-110892606D01*
X64222606Y-110807000D01*
X66407394Y-110807000D01*
X66753000Y-111152606D01*
G36*
X111923000Y-110732606D02*
X111923000Y-114167394D01*
X111547394Y-114543000D01*
X109772606Y-114543000D01*
X109307000Y-114077394D01*
X109307000Y-110472606D01*
X109392606Y-110387000D01*
X111577394Y-110387000D01*
X111923000Y-110732606D01*
X111923000Y-110732606D01*
G37*
X111923000Y-110732606D02*
X111923000Y-114167394D01*
X111547394Y-114543000D01*
X109772606Y-114543000D01*
X109307000Y-114077394D01*
X109307000Y-110472606D01*
X109392606Y-110387000D01*
X111577394Y-110387000D01*
X111923000Y-110732606D01*
G04 #@! TO.N,Net-(C126-Pad1)*
G36*
X73043000Y-110287992D02*
X73043000Y-115087394D01*
X72757394Y-115373000D01*
X70952606Y-115373000D01*
X70557000Y-114977394D01*
X70557000Y-110612606D01*
X70942606Y-110227000D01*
X72972624Y-110227000D01*
X73043000Y-110287992D01*
X73043000Y-110287992D01*
G37*
X73043000Y-110287992D02*
X73043000Y-115087394D01*
X72757394Y-115373000D01*
X70952606Y-115373000D01*
X70557000Y-114977394D01*
X70557000Y-110612606D01*
X70942606Y-110227000D01*
X72972624Y-110227000D01*
X73043000Y-110287992D01*
G04 #@! TO.N,Net-(C127-Pad1)*
G36*
X80853638Y-112353000D02*
X78307640Y-112353000D01*
X78346362Y-104657000D01*
X80892360Y-104657000D01*
X80853638Y-112353000D01*
X80853638Y-112353000D01*
G37*
X80853638Y-112353000D02*
X78307640Y-112353000D01*
X78346362Y-104657000D01*
X80892360Y-104657000D01*
X80853638Y-112353000D01*
G04 #@! TO.N,GND*
G36*
X108603000Y-107622606D02*
X108603000Y-110037394D01*
X108367394Y-110273000D01*
X106542606Y-110273000D01*
X106517000Y-110247394D01*
X106517000Y-107503575D01*
X106522114Y-107497000D01*
X108477394Y-107497000D01*
X108603000Y-107622606D01*
X108603000Y-107622606D01*
G37*
X108603000Y-107622606D02*
X108603000Y-110037394D01*
X108367394Y-110273000D01*
X106542606Y-110273000D01*
X106517000Y-110247394D01*
X106517000Y-107503575D01*
X106522114Y-107497000D01*
X108477394Y-107497000D01*
X108603000Y-107622606D01*
G04 #@! TO.N,Net-(C128-Pad1)*
G36*
X105643000Y-111427992D02*
X105643000Y-116227394D01*
X105357394Y-116513000D01*
X103552606Y-116513000D01*
X103157000Y-116117394D01*
X103157000Y-111752606D01*
X103542606Y-111367000D01*
X105572624Y-111367000D01*
X105643000Y-111427992D01*
X105643000Y-111427992D01*
G37*
X105643000Y-111427992D02*
X105643000Y-116227394D01*
X105357394Y-116513000D01*
X103552606Y-116513000D01*
X103157000Y-116117394D01*
X103157000Y-111752606D01*
X103542606Y-111367000D01*
X105572624Y-111367000D01*
X105643000Y-111427992D01*
G04 #@! TO.N,GND*
G36*
X69583000Y-107352606D02*
X69583000Y-109767394D01*
X69347394Y-110003000D01*
X67522606Y-110003000D01*
X67497000Y-109977394D01*
X67497000Y-107233575D01*
X67502114Y-107227000D01*
X69457394Y-107227000D01*
X69583000Y-107352606D01*
X69583000Y-107352606D01*
G37*
X69583000Y-107352606D02*
X69583000Y-109767394D01*
X69347394Y-110003000D01*
X67522606Y-110003000D01*
X67497000Y-109977394D01*
X67497000Y-107233575D01*
X67502114Y-107227000D01*
X69457394Y-107227000D01*
X69583000Y-107352606D01*
G04 #@! TO.N,v-*
G36*
X88659335Y-95010178D02*
X88643531Y-95029415D01*
X88631784Y-95051365D01*
X88624544Y-95075186D01*
X88622091Y-95099859D01*
X88614879Y-100543000D01*
X84368851Y-100543000D01*
X84374905Y-95050193D01*
X84372492Y-95025414D01*
X84365291Y-95001582D01*
X84353579Y-94979612D01*
X84341938Y-94964690D01*
X83036814Y-93526999D01*
X90144078Y-93526975D01*
X88659335Y-95010178D01*
X88659335Y-95010178D01*
G37*
X88659335Y-95010178D02*
X88643531Y-95029415D01*
X88631784Y-95051365D01*
X88624544Y-95075186D01*
X88622091Y-95099859D01*
X88614879Y-100543000D01*
X84368851Y-100543000D01*
X84374905Y-95050193D01*
X84372492Y-95025414D01*
X84365291Y-95001582D01*
X84353579Y-94979612D01*
X84341938Y-94964690D01*
X83036814Y-93526999D01*
X90144078Y-93526975D01*
X88659335Y-95010178D01*
G04 #@! TO.N,v+*
G36*
X93913000Y-99797394D02*
X93127729Y-100582665D01*
X90167587Y-100563807D01*
X90167006Y-95772600D01*
X90732606Y-95207000D01*
X93913000Y-95207000D01*
X93913000Y-99797394D01*
X93913000Y-99797394D01*
G37*
X93913000Y-99797394D02*
X93127729Y-100582665D01*
X90167587Y-100563807D01*
X90167006Y-95772600D01*
X90732606Y-95207000D01*
X93913000Y-95207000D01*
X93913000Y-99797394D01*
G04 #@! TO.N,Net-(C138-Pad1)*
G36*
X88273000Y-127973000D02*
X84027000Y-127973000D01*
X84027000Y-124727000D01*
X88273000Y-124727000D01*
X88273000Y-127973000D01*
X88273000Y-127973000D01*
G37*
X88273000Y-127973000D02*
X84027000Y-127973000D01*
X84027000Y-124727000D01*
X88273000Y-124727000D01*
X88273000Y-127973000D01*
G04 #@! TO.N,Net-(C139-Pad1)*
G36*
X112629090Y-128723000D02*
X108383090Y-128723000D01*
X108383090Y-124927000D01*
X112629090Y-124927000D01*
X112629090Y-128723000D01*
X112629090Y-128723000D01*
G37*
X112629090Y-128723000D02*
X108383090Y-128723000D01*
X108383090Y-124927000D01*
X112629090Y-124927000D01*
X112629090Y-128723000D01*
G04 #@! TO.N,BST*
G36*
X82873000Y-134500000D02*
X82875440Y-134524776D01*
X82882667Y-134548601D01*
X82894403Y-134570557D01*
X82910197Y-134589803D01*
X84180512Y-135860118D01*
X78544912Y-135634694D01*
X79589803Y-134589803D01*
X79605597Y-134570557D01*
X79617333Y-134548601D01*
X79624560Y-134524776D01*
X79627000Y-134500000D01*
X79627000Y-132127000D01*
X82873000Y-132127000D01*
X82873000Y-134500000D01*
X82873000Y-134500000D01*
G37*
X82873000Y-134500000D02*
X82875440Y-134524776D01*
X82882667Y-134548601D01*
X82894403Y-134570557D01*
X82910197Y-134589803D01*
X84180512Y-135860118D01*
X78544912Y-135634694D01*
X79589803Y-134589803D01*
X79605597Y-134570557D01*
X79617333Y-134548601D01*
X79624560Y-134524776D01*
X79627000Y-134500000D01*
X79627000Y-132127000D01*
X82873000Y-132127000D01*
X82873000Y-134500000D01*
G36*
X108115201Y-134500000D02*
X108117641Y-134524776D01*
X108124868Y-134548601D01*
X108136604Y-134570557D01*
X108152398Y-134589803D01*
X109422713Y-135860118D01*
X103787113Y-135634694D01*
X104832004Y-134589803D01*
X104847798Y-134570557D01*
X104859534Y-134548601D01*
X104866761Y-134524776D01*
X104869201Y-134500000D01*
X104869201Y-132127000D01*
X108115201Y-132127000D01*
X108115201Y-134500000D01*
X108115201Y-134500000D01*
G37*
X108115201Y-134500000D02*
X108117641Y-134524776D01*
X108124868Y-134548601D01*
X108136604Y-134570557D01*
X108152398Y-134589803D01*
X109422713Y-135860118D01*
X103787113Y-135634694D01*
X104832004Y-134589803D01*
X104847798Y-134570557D01*
X104859534Y-134548601D01*
X104866761Y-134524776D01*
X104869201Y-134500000D01*
X104869201Y-132127000D01*
X108115201Y-132127000D01*
X108115201Y-134500000D01*
G04 #@! TO.N,Net-(C129-Pad1)*
G36*
X98440999Y-106108369D02*
X98364340Y-113333000D01*
X95818783Y-113333000D01*
X95896988Y-107721770D01*
X95894893Y-107696962D01*
X95883941Y-107663906D01*
X95604109Y-107095497D01*
X95859803Y-106839803D01*
X95875597Y-106820557D01*
X95887333Y-106798601D01*
X95894560Y-106774776D01*
X95897000Y-106750000D01*
X95897000Y-106047532D01*
X98380162Y-106047532D01*
X98440999Y-106108369D01*
X98440999Y-106108369D01*
G37*
X98440999Y-106108369D02*
X98364340Y-113333000D01*
X95818783Y-113333000D01*
X95896988Y-107721770D01*
X95894893Y-107696962D01*
X95883941Y-107663906D01*
X95604109Y-107095497D01*
X95859803Y-106839803D01*
X95875597Y-106820557D01*
X95887333Y-106798601D01*
X95894560Y-106774776D01*
X95897000Y-106750000D01*
X95897000Y-106047532D01*
X98380162Y-106047532D01*
X98440999Y-106108369D01*
G04 #@! TO.N,Net-(C126-Pad1)*
G36*
X80633000Y-98882606D02*
X80633000Y-101763215D01*
X77045193Y-102064413D01*
X77609803Y-101499803D01*
X77625597Y-101480557D01*
X77637333Y-101458601D01*
X77644560Y-101434776D01*
X77647000Y-101410000D01*
X77647000Y-98512606D01*
X78052606Y-98107000D01*
X79857394Y-98107000D01*
X80633000Y-98882606D01*
X80633000Y-98882606D01*
G37*
X80633000Y-98882606D02*
X80633000Y-101763215D01*
X77045193Y-102064413D01*
X77609803Y-101499803D01*
X77625597Y-101480557D01*
X77637333Y-101458601D01*
X77644560Y-101434776D01*
X77647000Y-101410000D01*
X77647000Y-98512606D01*
X78052606Y-98107000D01*
X79857394Y-98107000D01*
X80633000Y-98882606D01*
G04 #@! TO.N,Net-(C128-Pad1)*
G36*
X98487863Y-98507451D02*
X98473354Y-103849265D01*
X96931844Y-103804454D01*
X96017176Y-102945220D01*
X96031825Y-98374595D01*
X96165922Y-98246884D01*
X98239969Y-98242127D01*
X98487863Y-98507451D01*
X98487863Y-98507451D01*
G37*
X98487863Y-98507451D02*
X98473354Y-103849265D01*
X96931844Y-103804454D01*
X96017176Y-102945220D01*
X96031825Y-98374595D01*
X96165922Y-98246884D01*
X98239969Y-98242127D01*
X98487863Y-98507451D01*
G04 #@! TO.N,Net-(C126-Pad2)*
G36*
X73252808Y-98512414D02*
X73213475Y-109279708D01*
X70745577Y-109216313D01*
X70806948Y-107063619D01*
X70805215Y-107038783D01*
X70798670Y-107014763D01*
X70787564Y-106992480D01*
X70769803Y-106970197D01*
X69189803Y-105390197D01*
X69170557Y-105374403D01*
X69148601Y-105362667D01*
X69124776Y-105355440D01*
X69100000Y-105353000D01*
X64437000Y-105353000D01*
X64437000Y-102912606D01*
X67029803Y-100319803D01*
X67045597Y-100300557D01*
X67057333Y-100278601D01*
X67064560Y-100254776D01*
X67067000Y-100230000D01*
X67067000Y-98452606D01*
X67872606Y-97647000D01*
X72387394Y-97647000D01*
X73252808Y-98512414D01*
X73252808Y-98512414D01*
G37*
X73252808Y-98512414D02*
X73213475Y-109279708D01*
X70745577Y-109216313D01*
X70806948Y-107063619D01*
X70805215Y-107038783D01*
X70798670Y-107014763D01*
X70787564Y-106992480D01*
X70769803Y-106970197D01*
X69189803Y-105390197D01*
X69170557Y-105374403D01*
X69148601Y-105362667D01*
X69124776Y-105355440D01*
X69100000Y-105353000D01*
X64437000Y-105353000D01*
X64437000Y-102912606D01*
X67029803Y-100319803D01*
X67045597Y-100300557D01*
X67057333Y-100278601D01*
X67064560Y-100254776D01*
X67067000Y-100230000D01*
X67067000Y-98452606D01*
X67872606Y-97647000D01*
X72387394Y-97647000D01*
X73252808Y-98512414D01*
G04 #@! TO.N,Net-(C128-Pad2)*
G36*
X111743000Y-100232606D02*
X111743000Y-104963000D01*
X106970000Y-104963000D01*
X106945224Y-104965440D01*
X106921399Y-104972667D01*
X106899443Y-104984403D01*
X106880197Y-105000197D01*
X105540197Y-106340197D01*
X105524403Y-106359443D01*
X105512667Y-106381399D01*
X105505440Y-106405224D01*
X105503000Y-106429833D01*
X105498069Y-110172325D01*
X105242394Y-110428000D01*
X103297606Y-110428000D01*
X103081828Y-110212222D01*
X103047171Y-99572435D01*
X104602606Y-98017000D01*
X109527394Y-98017000D01*
X111743000Y-100232606D01*
X111743000Y-100232606D01*
G37*
X111743000Y-100232606D02*
X111743000Y-104963000D01*
X106970000Y-104963000D01*
X106945224Y-104965440D01*
X106921399Y-104972667D01*
X106899443Y-104984403D01*
X106880197Y-105000197D01*
X105540197Y-106340197D01*
X105524403Y-106359443D01*
X105512667Y-106381399D01*
X105505440Y-106405224D01*
X105503000Y-106429833D01*
X105498069Y-110172325D01*
X105242394Y-110428000D01*
X103297606Y-110428000D01*
X103081828Y-110212222D01*
X103047171Y-99572435D01*
X104602606Y-98017000D01*
X109527394Y-98017000D01*
X111743000Y-100232606D01*
G04 #@! TD*
M02*
