( CopperCAM 3 - 08/12/2008 / ISO-Mill Output )
( C:\COPPERCAM\CopperCAM.iso created 24/07/2019 at 15:49 )
( Workpiece dimensions: 120.2 x 0.2 x 0.3 mm )
G00 G90 G94 G71 G40 G54 G80
T1 M06
M03 S8000
G00 F3000
G00 Z2
G00 X120.1 Y0.1
G00 Z0
G01 F60 Z-0.3
G01 F600 X0.1
G00 Z2
M05
M02
%