EESchema Schematic File Version 4
LIBS:vumetre-cache
EELAYER 26 0
EELAYER END
$Descr A4 11693 8268
encoding utf-8
Sheet 1 1
Title ""
Date ""
Rev ""
Comp ""
Comment1 ""
Comment2 ""
Comment3 ""
Comment4 ""
$EndDescr
Connection ~ 4150 750 
$Comp
L facade-filtre5voies-rescue:AN6884-facade-filtre5voies-rescue-facade-filtre5voies-rescue U101
U 1 1 5A88C3E2
P 5350 1300
F 0 "U101" H 5049 1726 50  0000 L BNN
F 1 "AN6884" H 5050 799 50  0000 L BNN
F 2 "AN6884:SIP9" H 5350 1300 50  0001 L BNN
F 3 "None" H 5350 1300 50  0001 L BNN
F 4 "AN6884" H 5350 1300 50  0001 L BNN "Field4"
F 5 "0.94 USD" H 5350 1300 50  0001 L BNN "Field5"
F 6 "Panasonic" H 5350 1300 50  0001 L BNN "Field6"
F 7 "" H 5350 1300 50  0001 L BNN "Field7"
F 8 "Unavailable" H 5350 1300 50  0001 L BNN "Field8"
	1    5350 1300
	1    0    0    -1  
$EndComp
$Comp
L facade-filtre5voies-rescue:R-facade-filtre5voies-rescue-facade-filtre5voies-rescue R102
U 1 1 5A88C789
P 4450 750
F 0 "R102" V 4530 750 50  0000 C CNN
F 1 "110" V 4450 750 50  0000 C CNN
F 2 "resistance-grospad:Resistor_Horizontal_RM7mm-pad2mm" V 4380 750 50  0001 C CNN
F 3 "" H 4450 750 50  0000 C CNN
	1    4450 750 
	0    1    1    0   
$EndComp
Wire Wire Line
	4600 750  6150 750 
Wire Wire Line
	6150 750  6150 1000
$Comp
L facade-filtre5voies-rescue:LED-RESCUE-facade-filtre5voies-facade-filtre5voies-rescue-facade-filtre5voies-rescue D101
U 1 1 5A88C865
P 5950 1000
F 0 "D101" H 5950 1100 50  0000 C CNN
F 1 "LED" H 5950 900 50  0000 C CNN
F 2 "resistance-grospad:LED_D2.0mm_W4.0mm_H2.8mm_FlatTop-pad2mm" H 5950 1000 50  0001 C CNN
F 3 "" H 5950 1000 50  0000 C CNN
	1    5950 1000
	1    0    0    -1  
$EndComp
$Comp
L facade-filtre5voies-rescue:LED-RESCUE-facade-filtre5voies-facade-filtre5voies-rescue-facade-filtre5voies-rescue D102
U 1 1 5A88C900
P 5950 1100
F 0 "D102" H 5950 1200 50  0000 C CNN
F 1 "LED" H 5950 1000 50  0000 C CNN
F 2 "resistance-grospad:LED_D2.0mm_W4.0mm_H2.8mm_FlatTop-pad2mm" H 5950 1100 50  0001 C CNN
F 3 "" H 5950 1100 50  0000 C CNN
	1    5950 1100
	1    0    0    -1  
$EndComp
$Comp
L facade-filtre5voies-rescue:LED-RESCUE-facade-filtre5voies-facade-filtre5voies-rescue-facade-filtre5voies-rescue D103
U 1 1 5A88C94B
P 5950 1200
F 0 "D103" H 5950 1300 50  0000 C CNN
F 1 "LED" H 5950 1100 50  0000 C CNN
F 2 "resistance-grospad:LED_D2.0mm_W4.0mm_H2.8mm_FlatTop-pad2mm" H 5950 1200 50  0001 C CNN
F 3 "" H 5950 1200 50  0000 C CNN
	1    5950 1200
	1    0    0    -1  
$EndComp
$Comp
L facade-filtre5voies-rescue:LED-RESCUE-facade-filtre5voies-facade-filtre5voies-rescue-facade-filtre5voies-rescue D104
U 1 1 5A88C995
P 5950 1300
F 0 "D104" H 5950 1400 50  0000 C CNN
F 1 "LED" H 5950 1200 50  0000 C CNN
F 2 "resistance-grospad:LED_D2.0mm_W4.0mm_H2.8mm_FlatTop-pad2mm" H 5950 1300 50  0001 C CNN
F 3 "" H 5950 1300 50  0000 C CNN
	1    5950 1300
	1    0    0    -1  
$EndComp
$Comp
L facade-filtre5voies-rescue:LED-RESCUE-facade-filtre5voies-facade-filtre5voies-rescue-facade-filtre5voies-rescue D105
U 1 1 5A88C9E2
P 5950 1400
F 0 "D105" H 5950 1500 50  0000 C CNN
F 1 "LED" H 5950 1300 50  0000 C CNN
F 2 "resistance-grospad:LED_D2.0mm_W4.0mm_H2.8mm_FlatTop-pad2mm" H 5950 1400 50  0001 C CNN
F 3 "" H 5950 1400 50  0000 C CNN
	1    5950 1400
	1    0    0    -1  
$EndComp
Connection ~ 6150 1000
Connection ~ 6150 1100
Connection ~ 6150 1200
Connection ~ 6150 1300
Wire Wire Line
	4150 1000 4950 1000
Wire Wire Line
	4150 750  4150 1000
$Comp
L facade-filtre5voies-rescue:POT-RESCUE-facade-filtre5voies-facade-filtre5voies-rescue-facade-filtre5voies-rescue RV101
U 1 1 5A88CF14
P 4000 1200
F 0 "RV101" H 4000 1100 50  0000 C CNN
F 1 "10K" H 4000 1200 50  0000 C CNN
F 2 "resistance-grospad:TO-220-padcarre2mm" H 4000 1200 50  0001 C CNN
F 3 "" H 4000 1200 50  0000 C CNN
	1    4000 1200
	0    1    -1   0   
$EndComp
Wire Wire Line
	4000 900  4000 1050
$Comp
L power:Earth #PWR?
U 1 1 5A88D1A9
P 4000 1450
F 0 "#PWR?" H 4000 1200 50  0001 C CNN
F 1 "Earth" H 4000 1300 50  0001 C CNN
F 2 "" H 4000 1450 50  0000 C CNN
F 3 "" H 4000 1450 50  0000 C CNN
	1    4000 1450
	1    0    0    -1  
$EndComp
$Comp
L facade-filtre5voies-rescue:CP-facade-filtre5voies-rescue-facade-filtre5voies-rescue C103
U 1 1 5A88D2DB
P 4550 1700
F 0 "C103" H 4575 1800 50  0000 L CNN
F 1 "10u" H 4575 1600 50  0000 L CNN
F 2 "resistance-grospad:C_Radial_D6.3_L11.2_P2.5-GROSPAD-ecarte" H 4588 1550 50  0001 C CNN
F 3 "" H 4550 1700 50  0000 C CNN
	1    4550 1700
	1    0    0    -1  
$EndComp
$Comp
L facade-filtre5voies-rescue:R-facade-filtre5voies-rescue-facade-filtre5voies-rescue R103
U 1 1 5A88D40B
P 4350 1700
F 0 "R103" V 4430 1700 50  0000 C CNN
F 1 "10K" V 4350 1700 50  0000 C CNN
F 2 "resistance-grospad:Resistor_Horizontal_RM7mm-pad2mm" V 4280 1700 50  0001 C CNN
F 3 "" H 4350 1700 50  0000 C CNN
	1    4350 1700
	-1   0    0    1   
$EndComp
Wire Wire Line
	4350 1400 4550 1400
Wire Wire Line
	4350 1400 4350 1550
Wire Wire Line
	4550 1550 4550 1400
Connection ~ 4550 1400
$Comp
L power:Earth #PWR?
U 1 1 5A88D5E9
P 4350 1850
F 0 "#PWR?" H 4350 1600 50  0001 C CNN
F 1 "Earth" H 4350 1700 50  0001 C CNN
F 2 "" H 4350 1850 50  0000 C CNN
F 3 "" H 4350 1850 50  0000 C CNN
	1    4350 1850
	1    0    0    -1  
$EndComp
$Comp
L power:Earth #PWR?
U 1 1 5A88D642
P 4550 1850
F 0 "#PWR?" H 4550 1600 50  0001 C CNN
F 1 "Earth" H 4550 1700 50  0001 C CNN
F 2 "" H 4550 1850 50  0000 C CNN
F 3 "" H 4550 1850 50  0000 C CNN
	1    4550 1850
	1    0    0    -1  
$EndComp
$Comp
L power:Earth #PWR?
U 1 1 5A88D74E
P 4950 1600
F 0 "#PWR?" H 4950 1350 50  0001 C CNN
F 1 "Earth" H 4950 1450 50  0001 C CNN
F 2 "" H 4950 1600 50  0000 C CNN
F 3 "" H 4950 1600 50  0000 C CNN
	1    4950 1600
	0    1    1    0   
$EndComp
Wire Wire Line
	4150 1200 4950 1200
$Comp
L power:PWR_FLAG #FLG?
U 1 1 5A88E9AB
P 4150 750
F 0 "#FLG?" H 4150 845 50  0001 C CNN
F 1 "PWR_FLAG" H 4150 930 50  0000 C CNN
F 2 "" H 4150 750 50  0000 C CNN
F 3 "" H 4150 750 50  0000 C CNN
	1    4150 750 
	1    0    0    -1  
$EndComp
$Comp
L facade-filtre5voies-rescue:CP-facade-filtre5voies-rescue-facade-filtre5voies-rescue C101
U 1 1 5A88FAC4
P 3600 900
F 0 "C101" H 3625 1000 50  0000 L CNN
F 1 "10u" H 3625 800 50  0000 L CNN
F 2 "resistance-grospad:C_Radial_D6.3_L11.2_P2.5-GROSPAD-ecarte" H 3638 750 50  0001 C CNN
F 3 "" H 3600 900 50  0000 C CNN
	1    3600 900 
	0    -1   -1   0   
$EndComp
Wire Wire Line
	4150 750  4300 750 
Text GLabel 4150 750  0    60   Input ~ 0
v+
$Comp
L facade-filtre5voies-rescue:AN6884-facade-filtre5voies-rescue-facade-filtre5voies-rescue U102
U 1 1 5A8906D2
P 5400 2600
F 0 "U102" H 5099 3026 50  0000 L BNN
F 1 "AN6884" H 5100 2099 50  0000 L BNN
F 2 "AN6884:SIP9" H 5400 2600 50  0001 L BNN
F 3 "None" H 5400 2600 50  0001 L BNN
F 4 "AN6884" H 5400 2600 50  0001 L BNN "Field4"
F 5 "0.94 USD" H 5400 2600 50  0001 L BNN "Field5"
F 6 "Panasonic" H 5400 2600 50  0001 L BNN "Field6"
F 7 "" H 5400 2600 50  0001 L BNN "Field7"
F 8 "Unavailable" H 5400 2600 50  0001 L BNN "Field8"
	1    5400 2600
	1    0    0    -1  
$EndComp
$Comp
L facade-filtre5voies-rescue:R-facade-filtre5voies-rescue-facade-filtre5voies-rescue R104
U 1 1 5A8906DE
P 4500 2050
F 0 "R104" V 4580 2050 50  0000 C CNN
F 1 "110" V 4500 2050 50  0000 C CNN
F 2 "resistance-grospad:Resistor_Horizontal_RM7mm-pad2mm" V 4430 2050 50  0001 C CNN
F 3 "" H 4500 2050 50  0000 C CNN
	1    4500 2050
	0    1    1    0   
$EndComp
Wire Wire Line
	4650 2050 6200 2050
Wire Wire Line
	6200 2050 6200 2300
$Comp
L facade-filtre5voies-rescue:LED-RESCUE-facade-filtre5voies-facade-filtre5voies-rescue-facade-filtre5voies-rescue D106
U 1 1 5A8906EA
P 6000 2300
F 0 "D106" H 6000 2400 50  0000 C CNN
F 1 "LED" H 6000 2200 50  0000 C CNN
F 2 "resistance-grospad:LED_D2.0mm_W4.0mm_H2.8mm_FlatTop-pad2mm" H 6000 2300 50  0001 C CNN
F 3 "" H 6000 2300 50  0000 C CNN
	1    6000 2300
	1    0    0    -1  
$EndComp
$Comp
L facade-filtre5voies-rescue:LED-RESCUE-facade-filtre5voies-facade-filtre5voies-rescue-facade-filtre5voies-rescue D107
U 1 1 5A8906F0
P 6000 2400
F 0 "D107" H 6000 2500 50  0000 C CNN
F 1 "LED" H 6000 2300 50  0000 C CNN
F 2 "resistance-grospad:LED_D2.0mm_W4.0mm_H2.8mm_FlatTop-pad2mm" H 6000 2400 50  0001 C CNN
F 3 "" H 6000 2400 50  0000 C CNN
	1    6000 2400
	1    0    0    -1  
$EndComp
$Comp
L facade-filtre5voies-rescue:LED-RESCUE-facade-filtre5voies-facade-filtre5voies-rescue-facade-filtre5voies-rescue D108
U 1 1 5A8906F6
P 6000 2500
F 0 "D108" H 6000 2600 50  0000 C CNN
F 1 "LED" H 6000 2400 50  0000 C CNN
F 2 "resistance-grospad:LED_D2.0mm_W4.0mm_H2.8mm_FlatTop-pad2mm" H 6000 2500 50  0001 C CNN
F 3 "" H 6000 2500 50  0000 C CNN
	1    6000 2500
	1    0    0    -1  
$EndComp
$Comp
L facade-filtre5voies-rescue:LED-RESCUE-facade-filtre5voies-facade-filtre5voies-rescue-facade-filtre5voies-rescue D109
U 1 1 5A8906FC
P 6000 2600
F 0 "D109" H 6000 2700 50  0000 C CNN
F 1 "LED" H 6000 2500 50  0000 C CNN
F 2 "resistance-grospad:LED_D2.0mm_W4.0mm_H2.8mm_FlatTop-pad2mm" H 6000 2600 50  0001 C CNN
F 3 "" H 6000 2600 50  0000 C CNN
	1    6000 2600
	1    0    0    -1  
$EndComp
$Comp
L facade-filtre5voies-rescue:LED-RESCUE-facade-filtre5voies-facade-filtre5voies-rescue-facade-filtre5voies-rescue D110
U 1 1 5A890702
P 6000 2700
F 0 "D110" H 6000 2800 50  0000 C CNN
F 1 "LED" H 6000 2600 50  0000 C CNN
F 2 "resistance-grospad:LED_D2.0mm_W4.0mm_H2.8mm_FlatTop-pad2mm" H 6000 2700 50  0001 C CNN
F 3 "" H 6000 2700 50  0000 C CNN
	1    6000 2700
	1    0    0    -1  
$EndComp
Connection ~ 6200 2300
Connection ~ 6200 2400
Connection ~ 6200 2500
Connection ~ 6200 2600
Wire Wire Line
	4200 2300 5000 2300
Wire Wire Line
	4200 2050 4200 2300
$Comp
L facade-filtre5voies-rescue:POT-RESCUE-facade-filtre5voies-facade-filtre5voies-rescue-facade-filtre5voies-rescue RV104
U 1 1 5A89070F
P 4050 2500
F 0 "RV104" H 4050 2400 50  0000 C CNN
F 1 "10K" H 4050 2500 50  0000 C CNN
F 2 "resistance-grospad:TO-220-padcarre2mm" H 4050 2500 50  0001 C CNN
F 3 "" H 4050 2500 50  0000 C CNN
	1    4050 2500
	0    1    -1   0   
$EndComp
Wire Wire Line
	4050 2200 4050 2350
$Comp
L power:Earth #PWR?
U 1 1 5A890716
P 4050 2750
F 0 "#PWR?" H 4050 2500 50  0001 C CNN
F 1 "Earth" H 4050 2600 50  0001 C CNN
F 2 "" H 4050 2750 50  0000 C CNN
F 3 "" H 4050 2750 50  0000 C CNN
	1    4050 2750
	1    0    0    -1  
$EndComp
$Comp
L facade-filtre5voies-rescue:CP-facade-filtre5voies-rescue-facade-filtre5voies-rescue C104
U 1 1 5A89071C
P 4600 3000
F 0 "C104" H 4625 3100 50  0000 L CNN
F 1 "10u" H 4625 2900 50  0000 L CNN
F 2 "resistance-grospad:C_Radial_D6.3_L11.2_P2.5-GROSPAD-ecarte" H 4638 2850 50  0001 C CNN
F 3 "" H 4600 3000 50  0000 C CNN
	1    4600 3000
	1    0    0    -1  
$EndComp
$Comp
L facade-filtre5voies-rescue:R-facade-filtre5voies-rescue-facade-filtre5voies-rescue R105
U 1 1 5A890722
P 4400 3000
F 0 "R105" V 4480 3000 50  0000 C CNN
F 1 "10K" V 4400 3000 50  0000 C CNN
F 2 "resistance-grospad:Resistor_Horizontal_RM7mm-pad2mm" V 4330 3000 50  0001 C CNN
F 3 "" H 4400 3000 50  0000 C CNN
	1    4400 3000
	-1   0    0    1   
$EndComp
Wire Wire Line
	4400 2700 4600 2700
Wire Wire Line
	4400 2700 4400 2850
Wire Wire Line
	4600 2850 4600 2700
Connection ~ 4600 2700
$Comp
L power:Earth #PWR?
U 1 1 5A890733
P 4600 3150
F 0 "#PWR?" H 4600 2900 50  0001 C CNN
F 1 "Earth" H 4600 3000 50  0001 C CNN
F 2 "" H 4600 3150 50  0000 C CNN
F 3 "" H 4600 3150 50  0000 C CNN
	1    4600 3150
	1    0    0    -1  
$EndComp
$Comp
L power:Earth #PWR?
U 1 1 5A890739
P 5000 2900
F 0 "#PWR?" H 5000 2650 50  0001 C CNN
F 1 "Earth" H 5000 2750 50  0001 C CNN
F 2 "" H 5000 2900 50  0000 C CNN
F 3 "" H 5000 2900 50  0000 C CNN
	1    5000 2900
	0    1    1    0   
$EndComp
Wire Wire Line
	4200 2500 5000 2500
$Comp
L power:PWR_FLAG #FLG?
U 1 1 5A890747
P 9600 1150
F 0 "#FLG?" H 9600 1245 50  0001 C CNN
F 1 "PWR_FLAG" H 9600 1330 50  0000 C CNN
F 2 "" H 9600 1150 50  0000 C CNN
F 3 "" H 9600 1150 50  0000 C CNN
	1    9600 1150
	1    0    0    -1  
$EndComp
$Comp
L facade-filtre5voies-rescue:CP-facade-filtre5voies-rescue-facade-filtre5voies-rescue C102
U 1 1 5A89074D
P 3650 2200
F 0 "C102" H 3675 2300 50  0000 L CNN
F 1 "10u" H 3675 2100 50  0000 L CNN
F 2 "resistance-grospad:C_Radial_D6.3_L11.2_P2.5-GROSPAD-ecarte" H 3688 2050 50  0001 C CNN
F 3 "" H 3650 2200 50  0000 C CNN
	1    3650 2200
	0    -1   -1   0   
$EndComp
Wire Wire Line
	4050 2200 3800 2200
Wire Wire Line
	4200 2050 4350 2050
Text GLabel 4200 2050 0    60   Input ~ 0
v+
$Comp
L power:Earth #PWR?
U 1 1 5A890758
P 9600 1150
F 0 "#PWR?" H 9600 900 50  0001 C CNN
F 1 "Earth" H 9600 1000 50  0001 C CNN
F 2 "" H 9600 1150 50  0000 C CNN
F 3 "" H 9600 1150 50  0000 C CNN
	1    9600 1150
	1    0    0    -1  
$EndComp
$Comp
L power:Earth #PWR?
U 1 1 5A890FB1
P 4400 3150
F 0 "#PWR?" H 4400 2900 50  0001 C CNN
F 1 "Earth" H 4400 3000 50  0001 C CNN
F 2 "" H 4400 3150 50  0000 C CNN
F 3 "" H 4400 3150 50  0000 C CNN
	1    4400 3150
	1    0    0    -1  
$EndComp
$Comp
L facade-filtre5voies-rescue:AN6884-facade-filtre5voies-rescue-facade-filtre5voies-rescue U103
U 1 1 5A890FC3
P 5450 3900
F 0 "U103" H 5149 4326 50  0000 L BNN
F 1 "AN6884" H 5150 3399 50  0000 L BNN
F 2 "AN6884:SIP9" H 5450 3900 50  0001 L BNN
F 3 "None" H 5450 3900 50  0001 L BNN
F 4 "AN6884" H 5450 3900 50  0001 L BNN "Field4"
F 5 "0.94 USD" H 5450 3900 50  0001 L BNN "Field5"
F 6 "Panasonic" H 5450 3900 50  0001 L BNN "Field6"
F 7 "" H 5450 3900 50  0001 L BNN "Field7"
F 8 "Unavailable" H 5450 3900 50  0001 L BNN "Field8"
	1    5450 3900
	1    0    0    -1  
$EndComp
$Comp
L facade-filtre5voies-rescue:R-facade-filtre5voies-rescue-facade-filtre5voies-rescue R106
U 1 1 5A890FC9
P 4550 3350
F 0 "R106" V 4630 3350 50  0000 C CNN
F 1 "110" V 4550 3350 50  0000 C CNN
F 2 "resistance-grospad:Resistor_Horizontal_RM7mm-pad2mm" V 4480 3350 50  0001 C CNN
F 3 "" H 4550 3350 50  0000 C CNN
	1    4550 3350
	0    1    1    0   
$EndComp
Wire Wire Line
	4700 3350 6250 3350
Wire Wire Line
	6250 3350 6250 3600
$Comp
L facade-filtre5voies-rescue:LED-RESCUE-facade-filtre5voies-facade-filtre5voies-rescue-facade-filtre5voies-rescue D111
U 1 1 5A890FD5
P 6050 3600
F 0 "D111" H 6050 3700 50  0000 C CNN
F 1 "LED" H 6050 3500 50  0000 C CNN
F 2 "resistance-grospad:LED_D2.0mm_W4.0mm_H2.8mm_FlatTop-pad2mm" H 6050 3600 50  0001 C CNN
F 3 "" H 6050 3600 50  0000 C CNN
	1    6050 3600
	1    0    0    -1  
$EndComp
$Comp
L facade-filtre5voies-rescue:LED-RESCUE-facade-filtre5voies-facade-filtre5voies-rescue-facade-filtre5voies-rescue D112
U 1 1 5A890FDB
P 6050 3700
F 0 "D112" H 6050 3800 50  0000 C CNN
F 1 "LED" H 6050 3600 50  0000 C CNN
F 2 "resistance-grospad:LED_D2.0mm_W4.0mm_H2.8mm_FlatTop-pad2mm" H 6050 3700 50  0001 C CNN
F 3 "" H 6050 3700 50  0000 C CNN
	1    6050 3700
	1    0    0    -1  
$EndComp
$Comp
L facade-filtre5voies-rescue:LED-RESCUE-facade-filtre5voies-facade-filtre5voies-rescue-facade-filtre5voies-rescue D113
U 1 1 5A890FE1
P 6050 3800
F 0 "D113" H 6050 3900 50  0000 C CNN
F 1 "LED" H 6050 3700 50  0000 C CNN
F 2 "resistance-grospad:LED_D2.0mm_W4.0mm_H2.8mm_FlatTop-pad2mm" H 6050 3800 50  0001 C CNN
F 3 "" H 6050 3800 50  0000 C CNN
	1    6050 3800
	1    0    0    -1  
$EndComp
$Comp
L facade-filtre5voies-rescue:LED-RESCUE-facade-filtre5voies-facade-filtre5voies-rescue-facade-filtre5voies-rescue D114
U 1 1 5A890FE7
P 6050 3900
F 0 "D114" H 6050 4000 50  0000 C CNN
F 1 "LED" H 6050 3800 50  0000 C CNN
F 2 "resistance-grospad:LED_D2.0mm_W4.0mm_H2.8mm_FlatTop-pad2mm" H 6050 3900 50  0001 C CNN
F 3 "" H 6050 3900 50  0000 C CNN
	1    6050 3900
	1    0    0    -1  
$EndComp
$Comp
L facade-filtre5voies-rescue:LED-RESCUE-facade-filtre5voies-facade-filtre5voies-rescue-facade-filtre5voies-rescue D115
U 1 1 5A890FED
P 6050 4000
F 0 "D115" H 6050 4100 50  0000 C CNN
F 1 "LED" H 6050 3900 50  0000 C CNN
F 2 "resistance-grospad:LED_D2.0mm_W4.0mm_H2.8mm_FlatTop-pad2mm" H 6050 4000 50  0001 C CNN
F 3 "" H 6050 4000 50  0000 C CNN
	1    6050 4000
	1    0    0    -1  
$EndComp
Connection ~ 6250 3600
Connection ~ 6250 3700
Connection ~ 6250 3800
Connection ~ 6250 3900
Wire Wire Line
	4250 3600 5050 3600
Wire Wire Line
	4250 3350 4250 3600
$Comp
L facade-filtre5voies-rescue:POT-RESCUE-facade-filtre5voies-facade-filtre5voies-rescue-facade-filtre5voies-rescue RV106
U 1 1 5A890FFA
P 4100 3800
F 0 "RV106" H 4100 3700 50  0000 C CNN
F 1 "10K" H 4100 3800 50  0000 C CNN
F 2 "resistance-grospad:TO-220-padcarre2mm" H 4100 3800 50  0001 C CNN
F 3 "" H 4100 3800 50  0000 C CNN
	1    4100 3800
	0    1    -1   0   
$EndComp
Wire Wire Line
	4100 3500 4100 3650
$Comp
L power:Earth #PWR?
U 1 1 5A891001
P 4100 4050
F 0 "#PWR?" H 4100 3800 50  0001 C CNN
F 1 "Earth" H 4100 3900 50  0001 C CNN
F 2 "" H 4100 4050 50  0000 C CNN
F 3 "" H 4100 4050 50  0000 C CNN
	1    4100 4050
	1    0    0    -1  
$EndComp
$Comp
L facade-filtre5voies-rescue:CP-facade-filtre5voies-rescue-facade-filtre5voies-rescue C106
U 1 1 5A891007
P 4650 4300
F 0 "C106" H 4675 4400 50  0000 L CNN
F 1 "10u" H 4675 4200 50  0000 L CNN
F 2 "resistance-grospad:C_Radial_D6.3_L11.2_P2.5-GROSPAD-ecarte" H 4688 4150 50  0001 C CNN
F 3 "" H 4650 4300 50  0000 C CNN
	1    4650 4300
	1    0    0    -1  
$EndComp
$Comp
L facade-filtre5voies-rescue:R-facade-filtre5voies-rescue-facade-filtre5voies-rescue R107
U 1 1 5A89100D
P 4450 4300
F 0 "R107" V 4530 4300 50  0000 C CNN
F 1 "10K" V 4450 4300 50  0000 C CNN
F 2 "resistance-grospad:Resistor_Horizontal_RM7mm-pad2mm" V 4380 4300 50  0001 C CNN
F 3 "" H 4450 4300 50  0000 C CNN
	1    4450 4300
	-1   0    0    1   
$EndComp
Wire Wire Line
	4450 4000 4650 4000
Wire Wire Line
	4450 4000 4450 4150
Wire Wire Line
	4650 4150 4650 4000
Connection ~ 4650 4000
$Comp
L power:Earth #PWR?
U 1 1 5A891024
P 5050 4200
F 0 "#PWR?" H 5050 3950 50  0001 C CNN
F 1 "Earth" H 5050 4050 50  0001 C CNN
F 2 "" H 5050 4200 50  0000 C CNN
F 3 "" H 5050 4200 50  0000 C CNN
	1    5050 4200
	0    1    1    0   
$EndComp
Wire Wire Line
	4250 3800 5050 3800
$Comp
L facade-filtre5voies-rescue:CP-facade-filtre5voies-rescue-facade-filtre5voies-rescue C105
U 1 1 5A89102B
P 3700 3500
F 0 "C105" H 3725 3600 50  0000 L CNN
F 1 "10u" H 3725 3400 50  0000 L CNN
F 2 "resistance-grospad:C_Radial_D6.3_L11.2_P2.5-GROSPAD-ecarte" H 3738 3350 50  0001 C CNN
F 3 "" H 3700 3500 50  0000 C CNN
	1    3700 3500
	0    -1   -1   0   
$EndComp
Wire Wire Line
	4100 3500 3850 3500
Wire Wire Line
	4250 3350 4400 3350
Text GLabel 4250 3350 0    60   Input ~ 0
v+
$Comp
L power:Earth #PWR?
U 1 1 5A8912C4
P 4650 4450
F 0 "#PWR?" H 4650 4200 50  0001 C CNN
F 1 "Earth" H 4650 4300 50  0001 C CNN
F 2 "" H 4650 4450 50  0000 C CNN
F 3 "" H 4650 4450 50  0000 C CNN
	1    4650 4450
	1    0    0    -1  
$EndComp
$Comp
L power:Earth #PWR?
U 1 1 5A8912CA
P 4450 4450
F 0 "#PWR?" H 4450 4200 50  0001 C CNN
F 1 "Earth" H 4450 4300 50  0001 C CNN
F 2 "" H 4450 4450 50  0000 C CNN
F 3 "" H 4450 4450 50  0000 C CNN
	1    4450 4450
	1    0    0    -1  
$EndComp
$Comp
L facade-filtre5voies-rescue:AN6884-facade-filtre5voies-rescue-facade-filtre5voies-rescue U104
U 1 1 5A8912D6
P 5500 5200
F 0 "U104" H 5199 5626 50  0000 L BNN
F 1 "AN6884" H 5200 4699 50  0000 L BNN
F 2 "AN6884:SIP9" H 5500 5200 50  0001 L BNN
F 3 "None" H 5500 5200 50  0001 L BNN
F 4 "AN6884" H 5500 5200 50  0001 L BNN "Field4"
F 5 "0.94 USD" H 5500 5200 50  0001 L BNN "Field5"
F 6 "Panasonic" H 5500 5200 50  0001 L BNN "Field6"
F 7 "" H 5500 5200 50  0001 L BNN "Field7"
F 8 "Unavailable" H 5500 5200 50  0001 L BNN "Field8"
	1    5500 5200
	1    0    0    -1  
$EndComp
$Comp
L facade-filtre5voies-rescue:R-facade-filtre5voies-rescue-facade-filtre5voies-rescue R108
U 1 1 5A8912DC
P 4600 4650
F 0 "R108" V 4680 4650 50  0000 C CNN
F 1 "110" V 4600 4650 50  0000 C CNN
F 2 "resistance-grospad:Resistor_Horizontal_RM7mm-pad2mm" V 4530 4650 50  0001 C CNN
F 3 "" H 4600 4650 50  0000 C CNN
	1    4600 4650
	0    1    1    0   
$EndComp
Wire Wire Line
	4750 4650 6300 4650
Wire Wire Line
	6300 4650 6300 4900
$Comp
L facade-filtre5voies-rescue:LED-RESCUE-facade-filtre5voies-facade-filtre5voies-rescue-facade-filtre5voies-rescue D116
U 1 1 5A8912E8
P 6100 4900
F 0 "D116" H 6100 5000 50  0000 C CNN
F 1 "LED" H 6100 4800 50  0000 C CNN
F 2 "resistance-grospad:LED_D2.0mm_W4.0mm_H2.8mm_FlatTop-pad2mm" H 6100 4900 50  0001 C CNN
F 3 "" H 6100 4900 50  0000 C CNN
	1    6100 4900
	1    0    0    -1  
$EndComp
$Comp
L facade-filtre5voies-rescue:LED-RESCUE-facade-filtre5voies-facade-filtre5voies-rescue-facade-filtre5voies-rescue D117
U 1 1 5A8912EE
P 6100 5000
F 0 "D117" H 6100 5100 50  0000 C CNN
F 1 "LED" H 6100 4900 50  0000 C CNN
F 2 "resistance-grospad:LED_D2.0mm_W4.0mm_H2.8mm_FlatTop-pad2mm" H 6100 5000 50  0001 C CNN
F 3 "" H 6100 5000 50  0000 C CNN
	1    6100 5000
	1    0    0    -1  
$EndComp
$Comp
L facade-filtre5voies-rescue:LED-RESCUE-facade-filtre5voies-facade-filtre5voies-rescue-facade-filtre5voies-rescue D118
U 1 1 5A8912F4
P 6100 5100
F 0 "D118" H 6100 5200 50  0000 C CNN
F 1 "LED" H 6100 5000 50  0000 C CNN
F 2 "resistance-grospad:LED_D2.0mm_W4.0mm_H2.8mm_FlatTop-pad2mm" H 6100 5100 50  0001 C CNN
F 3 "" H 6100 5100 50  0000 C CNN
	1    6100 5100
	1    0    0    -1  
$EndComp
$Comp
L facade-filtre5voies-rescue:LED-RESCUE-facade-filtre5voies-facade-filtre5voies-rescue-facade-filtre5voies-rescue D119
U 1 1 5A8912FA
P 6100 5200
F 0 "D119" H 6100 5300 50  0000 C CNN
F 1 "LED" H 6100 5100 50  0000 C CNN
F 2 "resistance-grospad:LED_D2.0mm_W4.0mm_H2.8mm_FlatTop-pad2mm" H 6100 5200 50  0001 C CNN
F 3 "" H 6100 5200 50  0000 C CNN
	1    6100 5200
	1    0    0    -1  
$EndComp
$Comp
L facade-filtre5voies-rescue:LED-RESCUE-facade-filtre5voies-facade-filtre5voies-rescue-facade-filtre5voies-rescue D120
U 1 1 5A891300
P 6100 5300
F 0 "D120" H 6100 5400 50  0000 C CNN
F 1 "LED" H 6100 5200 50  0000 C CNN
F 2 "resistance-grospad:LED_D2.0mm_W4.0mm_H2.8mm_FlatTop-pad2mm" H 6100 5300 50  0001 C CNN
F 3 "" H 6100 5300 50  0000 C CNN
	1    6100 5300
	1    0    0    -1  
$EndComp
Connection ~ 6300 4900
Connection ~ 6300 5000
Connection ~ 6300 5100
Connection ~ 6300 5200
Wire Wire Line
	4300 4900 5100 4900
Wire Wire Line
	4300 4650 4300 4900
$Comp
L facade-filtre5voies-rescue:POT-RESCUE-facade-filtre5voies-facade-filtre5voies-rescue-facade-filtre5voies-rescue RV108
U 1 1 5A89130D
P 4150 5100
F 0 "RV108" H 4150 5000 50  0000 C CNN
F 1 "10K" H 4150 5100 50  0000 C CNN
F 2 "resistance-grospad:TO-220-padcarre2mm" H 4150 5100 50  0001 C CNN
F 3 "" H 4150 5100 50  0000 C CNN
	1    4150 5100
	0    1    -1   0   
$EndComp
Wire Wire Line
	4150 4800 4150 4950
$Comp
L power:Earth #PWR?
U 1 1 5A891314
P 4150 5350
F 0 "#PWR?" H 4150 5100 50  0001 C CNN
F 1 "Earth" H 4150 5200 50  0001 C CNN
F 2 "" H 4150 5350 50  0000 C CNN
F 3 "" H 4150 5350 50  0000 C CNN
	1    4150 5350
	1    0    0    -1  
$EndComp
$Comp
L facade-filtre5voies-rescue:CP-facade-filtre5voies-rescue-facade-filtre5voies-rescue C108
U 1 1 5A89131A
P 4700 5600
F 0 "C108" H 4725 5700 50  0000 L CNN
F 1 "10u" H 4725 5500 50  0000 L CNN
F 2 "resistance-grospad:C_Radial_D6.3_L11.2_P2.5-GROSPAD-ecarte" H 4738 5450 50  0001 C CNN
F 3 "" H 4700 5600 50  0000 C CNN
	1    4700 5600
	1    0    0    -1  
$EndComp
$Comp
L facade-filtre5voies-rescue:R-facade-filtre5voies-rescue-facade-filtre5voies-rescue R109
U 1 1 5A891320
P 4500 5600
F 0 "R109" V 4580 5600 50  0000 C CNN
F 1 "10K" V 4500 5600 50  0000 C CNN
F 2 "resistance-grospad:Resistor_Horizontal_RM7mm-pad2mm" V 4430 5600 50  0001 C CNN
F 3 "" H 4500 5600 50  0000 C CNN
	1    4500 5600
	-1   0    0    1   
$EndComp
Wire Wire Line
	4500 5300 4700 5300
Wire Wire Line
	4500 5300 4500 5450
Wire Wire Line
	4700 5450 4700 5300
Connection ~ 4700 5300
$Comp
L power:Earth #PWR?
U 1 1 5A89132B
P 5100 5500
F 0 "#PWR?" H 5100 5250 50  0001 C CNN
F 1 "Earth" H 5100 5350 50  0001 C CNN
F 2 "" H 5100 5500 50  0000 C CNN
F 3 "" H 5100 5500 50  0000 C CNN
	1    5100 5500
	0    1    1    0   
$EndComp
Wire Wire Line
	4300 5100 5100 5100
$Comp
L facade-filtre5voies-rescue:CP-facade-filtre5voies-rescue-facade-filtre5voies-rescue C107
U 1 1 5A891332
P 3750 4800
F 0 "C107" H 3775 4900 50  0000 L CNN
F 1 "10u" H 3775 4700 50  0000 L CNN
F 2 "resistance-grospad:C_Radial_D6.3_L11.2_P2.5-GROSPAD-ecarte" H 3788 4650 50  0001 C CNN
F 3 "" H 3750 4800 50  0000 C CNN
	1    3750 4800
	0    -1   -1   0   
$EndComp
Wire Wire Line
	4150 4800 3900 4800
Wire Wire Line
	4300 4650 4450 4650
Text GLabel 4300 4650 0    60   Input ~ 0
v+
$Comp
L facade-filtre5voies-rescue:CONN_01X02-facade-filtre5voies-rescue-facade-filtre5voies-rescue P102
U 1 1 5A894C4C
P 800 7050
F 0 "P102" H 800 7200 50  0000 C CNN
F 1 "CONN_01X02" V 900 7050 50  0000 C CNN
F 2 "resistance-grospad:grospad-connector-2-padcaree2mm" H 800 7050 50  0001 C CNN
F 3 "" H 800 7050 50  0000 C CNN
	1    800  7050
	-1   0    0    1   
$EndComp
$Comp
L power:Earth #PWR?
U 1 1 5A895293
P 1000 7100
F 0 "#PWR?" H 1000 6850 50  0001 C CNN
F 1 "Earth" H 1000 6950 50  0001 C CNN
F 2 "" H 1000 7100 50  0000 C CNN
F 3 "" H 1000 7100 50  0000 C CNN
	1    1000 7100
	1    0    0    -1  
$EndComp
Wire Wire Line
	1000 7000 1050 7000
Wire Wire Line
	4150 5350 4150 5250
Wire Wire Line
	4100 4050 4100 3950
Wire Wire Line
	4050 2750 4050 2650
Wire Wire Line
	4000 1450 4000 1350
$Comp
L facade-filtre5voies-rescue:CONN_01X01-facade-filtre5voies-rescue-facade-filtre5voies-rescue P7
U 1 1 5A88E019
P 700 1000
F 0 "P7" H 700 1100 50  0000 C CNN
F 1 "CONN_01X01" V 700 750 50  0000 C CNN
F 2 "resistance-grospad:PINTST-grospad" H 700 1000 50  0001 C CNN
F 3 "" H 700 1000 50  0000 C CNN
	1    700  1000
	-1   0    0    1   
$EndComp
$Comp
L facade-filtre5voies-rescue:CONN_01X01-facade-filtre5voies-rescue-facade-filtre5voies-rescue P8
U 1 1 5A88E5EB
P 700 1100
F 0 "P8" H 700 1200 50  0000 C CNN
F 1 "CONN_01X01" V 800 1100 50  0000 C CNN
F 2 "resistance-grospad:PINTST-grospad" H 700 1100 50  0001 C CNN
F 3 "" H 700 1100 50  0000 C CNN
	1    700  1100
	-1   0    0    1   
$EndComp
$Comp
L facade-filtre5voies-rescue:CONN_01X01-facade-filtre5voies-rescue-facade-filtre5voies-rescue P9
U 1 1 5A88E743
P 700 1200
F 0 "P9" H 700 1300 50  0000 C CNN
F 1 "CONN_01X01" V 800 1200 50  0000 C CNN
F 2 "resistance-grospad:PINTST-grospad" H 700 1200 50  0001 C CNN
F 3 "" H 700 1200 50  0000 C CNN
	1    700  1200
	-1   0    0    1   
$EndComp
$Comp
L facade-filtre5voies-rescue:CONN_01X01-facade-filtre5voies-rescue-facade-filtre5voies-rescue P10
U 1 1 5A88E849
P 700 1300
F 0 "P10" H 700 1400 50  0000 C CNN
F 1 "CONN_01X01" V 800 1300 50  0000 C CNN
F 2 "resistance-grospad:PINTST-grospad" H 700 1300 50  0001 C CNN
F 3 "" H 700 1300 50  0000 C CNN
	1    700  1300
	-1   0    0    1   
$EndComp
Wire Wire Line
	6150 1000 6150 1100
Wire Wire Line
	6150 1100 6150 1200
Wire Wire Line
	6150 1200 6150 1300
Wire Wire Line
	6150 1300 6150 1400
Wire Wire Line
	4550 1400 4950 1400
Wire Wire Line
	6200 2300 6200 2400
Wire Wire Line
	6200 2400 6200 2500
Wire Wire Line
	6200 2500 6200 2600
Wire Wire Line
	6200 2600 6200 2700
Wire Wire Line
	4600 2700 5000 2700
Wire Wire Line
	6250 3600 6250 3700
Wire Wire Line
	6250 3700 6250 3800
Wire Wire Line
	6250 3800 6250 3900
Wire Wire Line
	6250 3900 6250 4000
Wire Wire Line
	4650 4000 5050 4000
Wire Wire Line
	6300 4900 6300 5000
Wire Wire Line
	6300 5000 6300 5100
Wire Wire Line
	6300 5100 6300 5200
Wire Wire Line
	6300 5200 6300 5300
Wire Wire Line
	4700 5300 5100 5300
$Comp
L facade-filtre5voies-rescue:CONN_01X01-facade-filtre5voies-rescue-facade-filtre5voies-rescue P101
U 1 1 5D2FF52F
P 700 1500
F 0 "P101" H 700 1600 50  0000 C CNN
F 1 "CONN_01X01" V 800 1500 50  0000 C CNN
F 2 "resistance-grospad:PINTST-grospad" H 700 1500 50  0001 C CNN
F 3 "" H 700 1500 50  0000 C CNN
	1    700  1500
	-1   0    0    1   
$EndComp
Wire Wire Line
	3750 900  4000 900 
Wire Wire Line
	2900 1000 2900 900 
Wire Wire Line
	2900 900  3450 900 
Wire Wire Line
	900  1000 2900 1000
Wire Wire Line
	3500 2200 2900 2200
Wire Wire Line
	2900 2200 2900 1100
Wire Wire Line
	2900 1100 900  1100
Wire Wire Line
	900  1200 2800 1200
Wire Wire Line
	2800 1200 2800 3500
Wire Wire Line
	2800 3500 3550 3500
Wire Wire Line
	1700 4800 1700 1500
Wire Wire Line
	1700 1500 900  1500
Wire Wire Line
	1700 4800 3600 4800
$Comp
L power:Earth #PWR?
U 1 1 5D317733
P 4700 5750
F 0 "#PWR?" H 4700 5500 50  0001 C CNN
F 1 "Earth" H 4700 5600 50  0001 C CNN
F 2 "" H 4700 5750 50  0000 C CNN
F 3 "" H 4700 5750 50  0000 C CNN
	1    4700 5750
	1    0    0    -1  
$EndComp
$Comp
L power:Earth #PWR?
U 1 1 5D317739
P 4500 5750
F 0 "#PWR?" H 4500 5500 50  0001 C CNN
F 1 "Earth" H 4500 5600 50  0001 C CNN
F 2 "" H 4500 5750 50  0000 C CNN
F 3 "" H 4500 5750 50  0000 C CNN
	1    4500 5750
	1    0    0    -1  
$EndComp
Text GLabel 1050 7000 2    60   Input ~ 0
v+
$EndSCHEMATC
