(kicad_pcb (version 20171130) (host pcbnew "(5.1.0-0)")

  (general
    (thickness 1.6)
    (drawings 1)
    (tracks 171)
    (zones 0)
    (modules 27)
    (nets 24)
  )

  (page A4)
  (layers
    (0 F.Cu signal)
    (31 B.Cu signal)
    (32 B.Adhes user)
    (33 F.Adhes user)
    (34 B.Paste user)
    (35 F.Paste user)
    (36 B.SilkS user)
    (37 F.SilkS user)
    (38 B.Mask user)
    (39 F.Mask user)
    (40 Dwgs.User user)
    (41 Cmts.User user)
    (42 Eco1.User user)
    (43 Eco2.User user)
    (44 Edge.Cuts user)
    (45 Margin user)
    (46 B.CrtYd user)
    (47 F.CrtYd user)
    (48 B.Fab user)
    (49 F.Fab user)
  )

  (setup
    (last_trace_width 2)
    (trace_clearance 0.5)
    (zone_clearance 0.3)
    (zone_45_only yes)
    (trace_min 0.2)
    (via_size 0.8)
    (via_drill 0.4)
    (via_min_size 0.4)
    (via_min_drill 0.3)
    (uvia_size 0.3)
    (uvia_drill 0.1)
    (uvias_allowed no)
    (uvia_min_size 0.2)
    (uvia_min_drill 0.1)
    (edge_width 0.1)
    (segment_width 0.2)
    (pcb_text_width 0.3)
    (pcb_text_size 1.5 1.5)
    (mod_edge_width 0.15)
    (mod_text_size 1 1)
    (mod_text_width 0.15)
    (pad_size 2 2)
    (pad_drill 0.8)
    (pad_to_mask_clearance 0)
    (solder_mask_min_width 0.25)
    (aux_axis_origin 0 0)
    (visible_elements FFFFFF7F)
    (pcbplotparams
      (layerselection 0x00000_fffffffe)
      (usegerberextensions false)
      (usegerberattributes false)
      (usegerberadvancedattributes false)
      (creategerberjobfile false)
      (excludeedgelayer true)
      (linewidth 0.100000)
      (plotframeref false)
      (viasonmask false)
      (mode 1)
      (useauxorigin false)
      (hpglpennumber 1)
      (hpglpenspeed 20)
      (hpglpendiameter 15.000000)
      (psnegative false)
      (psa4output false)
      (plotreference true)
      (plotvalue true)
      (plotinvisibletext false)
      (padsonsilk false)
      (subtractmaskfromsilk false)
      (outputformat 1)
      (mirror false)
      (drillshape 0)
      (scaleselection 1)
      (outputdirectory "GRBL/"))
  )

  (net 0 "")
  (net 1 GND)
  (net 2 +v)
  (net 3 -v)
  (net 4 /GND-MAS)
  (net 5 /MAS)
  (net 6 GNDD)
  (net 7 "Net-(C102-Pad1)")
  (net 8 "Net-(C102-Pad2)")
  (net 9 "Net-(C104-Pad1)")
  (net 10 "Net-(C104-Pad2)")
  (net 11 "Net-(C105-Pad2)")
  (net 12 "Net-(C105-Pad1)")
  (net 13 "Net-(C106-Pad1)")
  (net 14 "Net-(C106-Pad2)")
  (net 15 "Net-(C108-Pad2)")
  (net 16 "Net-(C108-Pad1)")
  (net 17 "Net-(J104-Pad2)")
  (net 18 "Net-(J104-Pad1)")
  (net 19 "Net-(R104-Pad2)")
  (net 20 "Net-(R106-Pad2)")
  (net 21 "Net-(R113-Pad2)")
  (net 22 "Net-(R114-Pad2)")
  (net 23 "Net-(R115-Pad1)")

  (net_class Default "Ceci est la Netclass par défaut."
    (clearance 0.5)
    (trace_width 2)
    (via_dia 0.8)
    (via_drill 0.4)
    (uvia_dia 0.3)
    (uvia_drill 0.1)
    (add_net +v)
    (add_net -v)
    (add_net /MAS)
    (add_net GNDD)
    (add_net "Net-(C102-Pad1)")
    (add_net "Net-(C102-Pad2)")
    (add_net "Net-(C104-Pad1)")
    (add_net "Net-(C104-Pad2)")
    (add_net "Net-(C105-Pad1)")
    (add_net "Net-(C105-Pad2)")
    (add_net "Net-(C106-Pad1)")
    (add_net "Net-(C106-Pad2)")
    (add_net "Net-(C108-Pad1)")
    (add_net "Net-(C108-Pad2)")
    (add_net "Net-(J104-Pad1)")
    (add_net "Net-(J104-Pad2)")
    (add_net "Net-(R104-Pad2)")
    (add_net "Net-(R106-Pad2)")
    (add_net "Net-(R113-Pad2)")
    (add_net "Net-(R114-Pad2)")
    (add_net "Net-(R115-Pad1)")
  )

  (net_class alim ""
    (clearance 0.5)
    (trace_width 1.5)
    (via_dia 0.8)
    (via_drill 0.4)
    (uvia_dia 0.3)
    (uvia_drill 0.1)
  )

  (net_class gnd ""
    (clearance 0.5)
    (trace_width 2)
    (via_dia 0.8)
    (via_drill 0.4)
    (uvia_dia 0.3)
    (uvia_drill 0.1)
    (add_net /GND-MAS)
    (add_net GND)
  )

  (module resistance-grospad:Resistor_Horizontal_RM12mm-PAS2MM (layer F.Cu) (tedit 5C6A6B77) (tstamp 5D2BF86B)
    (at 93.8 59.9 90)
    (descr "Resistor, Axial,  RM 10mm, 1/3W,")
    (tags "Resistor, Axial, RM 10mm, 1/3W,")
    (path /5968A4C6)
    (fp_text reference R116 (at 0.24892 -3.50012 90) (layer F.SilkS)
      (effects (font (size 1 1) (thickness 0.15)))
    )
    (fp_text value 10k (at -0.521973 -0.096908 180) (layer F.Fab)
      (effects (font (size 1 1) (thickness 0.15)))
    )
    (fp_line (start -2.94 -1.27) (end 2.14 -1.27) (layer F.SilkS) (width 0.15))
    (fp_line (start 2.14 -1.27) (end 2.14 1.27) (layer F.SilkS) (width 0.15))
    (fp_line (start 2.14 1.27) (end -2.94 1.27) (layer F.SilkS) (width 0.15))
    (fp_line (start -2.94 1.27) (end -2.94 -1.27) (layer F.SilkS) (width 0.15))
    (fp_line (start -2.54 0) (end -3.81 0) (layer F.SilkS) (width 0.15))
    (fp_line (start 2.54 0) (end 3.81 0) (layer F.SilkS) (width 0.15))
    (pad 1 thru_hole rect (at -6.08 0 90) (size 2 2) (drill 1.00076) (layers *.Cu *.SilkS *.Mask)
      (net 15 "Net-(C108-Pad2)"))
    (pad 2 thru_hole rect (at 6 0 90) (size 2 2) (drill 1.00076) (layers *.Cu *.SilkS *.Mask)
      (net 5 /MAS))
    (model ${KISYS3DMOD}/Resistor_THT.3dshapes/R_Axial_DIN0207_L6.3mm_D2.5mm_P10.16mm_Horizontal.wrl
      (offset (xyz -5 0 0))
      (scale (xyz 1 1 1))
      (rotate (xyz 0 0 0))
    )
  )

  (module resistance-grospad:Resistor_Horizontal_RM14mm-padcarre2mm (layer F.Cu) (tedit 5C6A5BAE) (tstamp 5D2B2B0E)
    (at 99.325 64.675 270)
    (descr "Resistor, Axial,  RM 10mm, 1/3W,")
    (tags "Resistor, Axial, RM 10mm, 1/3W,")
    (path /5D2DB41B)
    (fp_text reference R114 (at 0.35 -3.425 270) (layer F.SilkS)
      (effects (font (size 1 1) (thickness 0.15)))
    )
    (fp_text value 1k (at -0.521973 -0.096908) (layer F.Fab)
      (effects (font (size 1 1) (thickness 0.15)))
    )
    (fp_line (start 2.54 0) (end 3.81 0) (layer F.SilkS) (width 0.15))
    (fp_line (start -2.54 0) (end -3.81 0) (layer F.SilkS) (width 0.15))
    (fp_line (start -2.94 1.27) (end -2.94 -1.27) (layer F.SilkS) (width 0.15))
    (fp_line (start 2.14 1.27) (end -2.94 1.27) (layer F.SilkS) (width 0.15))
    (fp_line (start 2.14 -1.27) (end 2.14 1.27) (layer F.SilkS) (width 0.15))
    (fp_line (start -2.94 -1.27) (end 2.14 -1.27) (layer F.SilkS) (width 0.15))
    (pad 2 thru_hole rect (at 7 0 270) (size 2 2) (drill 1.00076) (layers *.Cu *.SilkS *.Mask)
      (net 22 "Net-(R114-Pad2)"))
    (pad 1 thru_hole rect (at -7 0 270) (size 2 2) (drill 1.00076) (layers *.Cu *.SilkS *.Mask)
      (net 9 "Net-(C104-Pad1)"))
    (model Resistors_ThroughHole.3dshapes/Resistor_Horizontal_RM10mm.wrl
      (at (xyz 0 0 0))
      (scale (xyz 0.4 0.4 0.4))
      (rotate (xyz 0 0 0))
    )
    (model ${KISYS3DMOD}/Resistor_THT.3dshapes/R_Axial_DIN0207_L6.3mm_D2.5mm_P15.24mm_Horizontal.step
      (offset (xyz -7.5 0 0))
      (scale (xyz 1 1 1))
      (rotate (xyz 0 0 0))
    )
  )

  (module resistance-grospad:Resistor_Horizontal_RM16mm-padcarre2mm (layer F.Cu) (tedit 5C6A5A9A) (tstamp 5D2B2AE4)
    (at 80.01 68.81 270)
    (descr "Resistor, Axial,  RM 10mm, 1/3W,")
    (tags "Resistor, Axial, RM 10mm, 1/3W,")
    (path /5D2D47E0)
    (fp_text reference R111 (at 0.24892 -3.50012 270) (layer F.SilkS)
      (effects (font (size 1 1) (thickness 0.15)))
    )
    (fp_text value 2k2 (at -0.521973 -0.096908) (layer F.Fab)
      (effects (font (size 1 1) (thickness 0.15)))
    )
    (fp_line (start 2.54 0) (end 3.81 0) (layer F.SilkS) (width 0.15))
    (fp_line (start -2.54 0) (end -3.81 0) (layer F.SilkS) (width 0.15))
    (fp_line (start -2.94 1.27) (end -2.94 -1.27) (layer F.SilkS) (width 0.15))
    (fp_line (start 2.14 1.27) (end -2.94 1.27) (layer F.SilkS) (width 0.15))
    (fp_line (start 2.14 -1.27) (end 2.14 1.27) (layer F.SilkS) (width 0.15))
    (fp_line (start -2.94 -1.27) (end 2.14 -1.27) (layer F.SilkS) (width 0.15))
    (pad 2 thru_hole rect (at 8 0 270) (size 2 2) (drill 1.00076) (layers *.Cu *.SilkS *.Mask)
      (net 11 "Net-(C105-Pad2)"))
    (pad 1 thru_hole rect (at -8 0 270) (size 2 2) (drill 1.00076) (layers *.Cu *.SilkS *.Mask)
      (net 9 "Net-(C104-Pad1)"))
    (model Resistors_ThroughHole.3dshapes/Resistor_Horizontal_RM10mm.wrl
      (at (xyz 0 0 0))
      (scale (xyz 0.4 0.4 0.4))
      (rotate (xyz 0 0 0))
    )
    (model ${KISYS3DMOD}/Resistor_THT.3dshapes/R_Axial_DIN0207_L6.3mm_D2.5mm_P15.24mm_Horizontal.step
      (offset (xyz -7.5 0 0))
      (scale (xyz 1 1 1))
      (rotate (xyz 0 0 0))
    )
  )

  (module resistance-grospad:Resistor_Horizontal_RM7mm-pad2mm (layer F.Cu) (tedit 5C6A4ED5) (tstamp 5D2B5FE5)
    (at 91.24 68.63 180)
    (descr "Resistor, Axial,  RM 7.62mm, 1/3W,")
    (tags "Resistor Axial RM 7.62mm 1/3W R3")
    (path /5D2ED3D2)
    (fp_text reference R115 (at 4.24 -6.37 180) (layer F.SilkS)
      (effects (font (size 1 1) (thickness 0.15)))
    )
    (fp_text value 1k (at 4.24 -0.37 180) (layer F.Fab)
      (effects (font (size 1 1) (thickness 0.15)))
    )
    (fp_line (start -1.25 -1.5) (end 8.85 -1.5) (layer F.CrtYd) (width 0.05))
    (fp_line (start -1.25 1.5) (end -1.25 -1.5) (layer F.CrtYd) (width 0.05))
    (fp_line (start 8.85 -1.5) (end 8.85 1.5) (layer F.CrtYd) (width 0.05))
    (fp_line (start -1.25 1.5) (end 8.85 1.5) (layer F.CrtYd) (width 0.05))
    (fp_line (start 1.27 -1.27) (end 6.35 -1.27) (layer F.SilkS) (width 0.15))
    (fp_line (start 6.35 -1.27) (end 6.35 1.27) (layer F.SilkS) (width 0.15))
    (fp_line (start 6.35 1.27) (end 1.27 1.27) (layer F.SilkS) (width 0.15))
    (fp_line (start 1.27 1.27) (end 1.27 -1.27) (layer F.SilkS) (width 0.15))
    (pad 1 thru_hole rect (at 0 0 180) (size 2 2) (drill 1.00076) (layers *.Cu *.SilkS *.Mask)
      (net 23 "Net-(R115-Pad1)"))
    (pad 2 thru_hole rect (at 7.62 0 180) (size 2 2) (drill 1.00076) (layers *.Cu *.SilkS *.Mask)
      (net 16 "Net-(C108-Pad1)"))
    (model ${KISYS3DMOD}/Resistor_THT.3dshapes/R_Axial_DIN0204_L3.6mm_D1.6mm_P7.62mm_Horizontal.step
      (at (xyz 0 0 0))
      (scale (xyz 1 1 1))
      (rotate (xyz 0 0 0))
    )
  )

  (module resistance-grospad:C_Rect_L7.0mm_W2.5mm_P5.00mm-grospad (layer F.Cu) (tedit 5C6A5026) (tstamp 5D2B61D8)
    (at 63.4 61.72 180)
    (descr "C, Rect series, Radial, pin pitch=5.00mm, , length*width=7*2.5mm^2, Capacitor")
    (tags "C Rect series Radial pin pitch 5.00mm  length 7mm width 2.5mm Capacitor")
    (path /5D2FE004)
    (fp_text reference C109 (at 2.5 -2.56 180) (layer F.SilkS)
      (effects (font (size 1 1) (thickness 0.15)))
    )
    (fp_text value 100n (at 2.4 -0.28 180) (layer F.Fab)
      (effects (font (size 1 1) (thickness 0.15)))
    )
    (fp_text user %R (at 2.5 -1.78 180) (layer F.Fab)
      (effects (font (size 1 1) (thickness 0.15)))
    )
    (fp_line (start 6.35 -1.6) (end -1.35 -1.6) (layer F.CrtYd) (width 0.05))
    (fp_line (start 6.35 1.6) (end 6.35 -1.6) (layer F.CrtYd) (width 0.05))
    (fp_line (start -1.35 1.6) (end 6.35 1.6) (layer F.CrtYd) (width 0.05))
    (fp_line (start -1.35 -1.6) (end -1.35 1.6) (layer F.CrtYd) (width 0.05))
    (fp_line (start 6.06 -1.31) (end 6.06 1.31) (layer F.SilkS) (width 0.12))
    (fp_line (start -1.06 -1.31) (end -1.06 1.31) (layer F.SilkS) (width 0.12))
    (fp_line (start -1.06 1.31) (end 6.06 1.31) (layer F.SilkS) (width 0.12))
    (fp_line (start -1.06 -1.31) (end 6.06 -1.31) (layer F.SilkS) (width 0.12))
    (fp_line (start 6 -1.25) (end -1 -1.25) (layer F.Fab) (width 0.1))
    (fp_line (start 6 1.25) (end 6 -1.25) (layer F.Fab) (width 0.1))
    (fp_line (start -1 1.25) (end 6 1.25) (layer F.Fab) (width 0.1))
    (fp_line (start -1 -1.25) (end -1 1.25) (layer F.Fab) (width 0.1))
    (pad 2 thru_hole rect (at 5 0 180) (size 2 2) (drill 0.8) (layers *.Cu *.Mask)
      (net 3 -v))
    (pad 1 thru_hole rect (at 0 0 180) (size 2 2) (drill 0.8) (layers *.Cu *.Mask)
      (net 2 +v))
    (model ${KISYS3DMOD}/Capacitor_THT.3dshapes/C_Rect_L7.0mm_W2.0mm_P5.00mm.wrl
      (at (xyz 0 0 0))
      (scale (xyz 1 1 1))
      (rotate (xyz 0 0 0))
    )
  )

  (module resistance-grospad:Resistor_Horizontal_RM7mm-pad2mm (layer F.Cu) (tedit 5C6A4ED5) (tstamp 5D2B2B00)
    (at 77.415 73.41 180)
    (descr "Resistor, Axial,  RM 7.62mm, 1/3W,")
    (tags "Resistor Axial RM 7.62mm 1/3W R3")
    (path /5D2CDAF0)
    (fp_text reference R113 (at -1.585 -0.09 180) (layer F.SilkS)
      (effects (font (size 1 1) (thickness 0.15)))
    )
    (fp_text value 2k2 (at 3.915 0.41 180) (layer F.Fab)
      (effects (font (size 1 1) (thickness 0.15)))
    )
    (fp_line (start -1.25 -1.5) (end 8.85 -1.5) (layer F.CrtYd) (width 0.05))
    (fp_line (start -1.25 1.5) (end -1.25 -1.5) (layer F.CrtYd) (width 0.05))
    (fp_line (start 8.85 -1.5) (end 8.85 1.5) (layer F.CrtYd) (width 0.05))
    (fp_line (start -1.25 1.5) (end 8.85 1.5) (layer F.CrtYd) (width 0.05))
    (fp_line (start 1.27 -1.27) (end 6.35 -1.27) (layer F.SilkS) (width 0.15))
    (fp_line (start 6.35 -1.27) (end 6.35 1.27) (layer F.SilkS) (width 0.15))
    (fp_line (start 6.35 1.27) (end 1.27 1.27) (layer F.SilkS) (width 0.15))
    (fp_line (start 1.27 1.27) (end 1.27 -1.27) (layer F.SilkS) (width 0.15))
    (pad 1 thru_hole rect (at 0 0 180) (size 2 2) (drill 1.00076) (layers *.Cu *.SilkS *.Mask)
      (net 14 "Net-(C106-Pad2)"))
    (pad 2 thru_hole rect (at 7.62 0 180) (size 2 2) (drill 1.00076) (layers *.Cu *.SilkS *.Mask)
      (net 21 "Net-(R113-Pad2)"))
    (model ${KISYS3DMOD}/Resistor_THT.3dshapes/R_Axial_DIN0204_L3.6mm_D1.6mm_P7.62mm_Horizontal.step
      (at (xyz 0 0 0))
      (scale (xyz 1 1 1))
      (rotate (xyz 0 0 0))
    )
  )

  (module resistance-grospad:TO-220-padcarre2mm (layer F.Cu) (tedit 5C6A5DBF) (tstamp 5D2B2A5E)
    (at 65 53.5)
    (descr "Non Isolated JEDEC TO-220 Package")
    (tags "Power Integration YN Package")
    (path /5CCEB1BC)
    (fp_text reference J104 (at 0 -4.318) (layer F.SilkS)
      (effects (font (size 1 1) (thickness 0.15)))
    )
    (fp_text value alim (at 0 -4.318) (layer F.Fab)
      (effects (font (size 1 1) (thickness 0.15)))
    )
    (fp_line (start 4.826 -1.651) (end 4.826 1.778) (layer F.SilkS) (width 0.15))
    (fp_line (start -4.826 -1.651) (end -4.826 1.778) (layer F.SilkS) (width 0.15))
    (fp_line (start 5.334 -2.794) (end -5.334 -2.794) (layer F.SilkS) (width 0.15))
    (fp_line (start 1.778 -1.778) (end 1.778 -3.048) (layer F.SilkS) (width 0.15))
    (fp_line (start -1.778 -1.778) (end -1.778 -3.048) (layer F.SilkS) (width 0.15))
    (fp_line (start -5.334 -1.651) (end 5.334 -1.651) (layer F.SilkS) (width 0.15))
    (fp_line (start 5.334 1.778) (end -5.334 1.778) (layer F.SilkS) (width 0.15))
    (fp_line (start -5.334 -3.048) (end -5.334 1.778) (layer F.SilkS) (width 0.15))
    (fp_line (start 5.334 -3.048) (end 5.334 1.778) (layer F.SilkS) (width 0.15))
    (fp_line (start 5.334 -3.048) (end -5.334 -3.048) (layer F.SilkS) (width 0.15))
    (pad 2 thru_hole rect (at 0 0) (size 2 2.5) (drill 1.143) (layers *.Cu *.Mask)
      (net 17 "Net-(J104-Pad2)"))
    (pad 3 thru_hole rect (at 2.54 0) (size 2 2.5) (drill 1.143) (layers *.Cu *.Mask)
      (net 6 GNDD))
    (pad 1 thru_hole rect (at -2.54 0) (size 2 2.5) (drill 1.143) (layers *.Cu *.Mask)
      (net 18 "Net-(J104-Pad1)"))
    (model ${KISYS3DMOD}/Package_TO_SOT_THT.3dshapes/TO-220-3_Vertical.step
      (offset (xyz -2.5 0 0))
      (scale (xyz 1 1 1))
      (rotate (xyz 0 0 0))
    )
  )

  (module resistance-grospad:Resistor_Horizontal_RM7mm-pad2mm (layer F.Cu) (tedit 5D2B48AF) (tstamp 5D2B2B4E)
    (at 65.07 61.98 90)
    (descr "Resistor, Axial,  RM 7.62mm, 1/3W,")
    (tags "Resistor Axial RM 7.62mm 1/3W R3")
    (path /5D2FE005)
    (fp_text reference R119 (at 4.05892 -3.50012 90) (layer F.SilkS)
      (effects (font (size 1 1) (thickness 0.15)))
    )
    (fp_text value 2R2 (at 5.495 -0.495 90) (layer F.Fab)
      (effects (font (size 1 1) (thickness 0.15)))
    )
    (fp_line (start 1.27 1.27) (end 1.27 -1.27) (layer F.SilkS) (width 0.15))
    (fp_line (start 6.35 1.27) (end 1.27 1.27) (layer F.SilkS) (width 0.15))
    (fp_line (start 6.35 -1.27) (end 6.35 1.27) (layer F.SilkS) (width 0.15))
    (fp_line (start 1.27 -1.27) (end 6.35 -1.27) (layer F.SilkS) (width 0.15))
    (fp_line (start -1.25 1.5) (end 8.85 1.5) (layer F.CrtYd) (width 0.05))
    (fp_line (start 8.85 -1.5) (end 8.85 1.5) (layer F.CrtYd) (width 0.05))
    (fp_line (start -1.25 1.5) (end -1.25 -1.5) (layer F.CrtYd) (width 0.05))
    (fp_line (start -1.25 -1.5) (end 8.85 -1.5) (layer F.CrtYd) (width 0.05))
    (pad 2 thru_hole rect (at 7.62 0 90) (size 2 2) (drill 1.00076) (layers *.Cu *.SilkS *.Mask)
      (net 17 "Net-(J104-Pad2)"))
    (pad 1 thru_hole rect (at 0 0 90) (size 2 2) (drill 1.00076) (layers *.Cu *.SilkS *.Mask)
      (net 2 +v))
    (model ${KISYS3DMOD}/Resistor_THT.3dshapes/R_Axial_DIN0204_L3.6mm_D1.6mm_P7.62mm_Horizontal.step
      (at (xyz 0 0 0))
      (scale (xyz 1 1 1))
      (rotate (xyz 0 0 0))
    )
  )

  (module resistance-grospad:Resistor_Horizontal_RM7mm-pad2mm (layer F.Cu) (tedit 5D2B489E) (tstamp 5D2B2B5C)
    (at 57.09 60.95 90)
    (descr "Resistor, Axial,  RM 7.62mm, 1/3W,")
    (tags "Resistor Axial RM 7.62mm 1/3W R3")
    (path /5D2FE006)
    (fp_text reference R120 (at 4.05892 -3.50012 90) (layer F.SilkS)
      (effects (font (size 1 1) (thickness 0.15)))
    )
    (fp_text value 2R2 (at 5.44 -0.48 90) (layer F.Fab)
      (effects (font (size 1 1) (thickness 0.15)))
    )
    (fp_line (start -1.25 -1.5) (end 8.85 -1.5) (layer F.CrtYd) (width 0.05))
    (fp_line (start -1.25 1.5) (end -1.25 -1.5) (layer F.CrtYd) (width 0.05))
    (fp_line (start 8.85 -1.5) (end 8.85 1.5) (layer F.CrtYd) (width 0.05))
    (fp_line (start -1.25 1.5) (end 8.85 1.5) (layer F.CrtYd) (width 0.05))
    (fp_line (start 1.27 -1.27) (end 6.35 -1.27) (layer F.SilkS) (width 0.15))
    (fp_line (start 6.35 -1.27) (end 6.35 1.27) (layer F.SilkS) (width 0.15))
    (fp_line (start 6.35 1.27) (end 1.27 1.27) (layer F.SilkS) (width 0.15))
    (fp_line (start 1.27 1.27) (end 1.27 -1.27) (layer F.SilkS) (width 0.15))
    (pad 1 thru_hole rect (at 0 0 90) (size 2 2) (drill 1.00076) (layers *.Cu *.SilkS *.Mask)
      (net 3 -v))
    (pad 2 thru_hole rect (at 7.62 0 90) (size 2 2) (drill 1.00076) (layers *.Cu *.SilkS *.Mask)
      (net 18 "Net-(J104-Pad1)"))
    (model ${KISYS3DMOD}/Resistor_THT.3dshapes/R_Axial_DIN0204_L3.6mm_D1.6mm_P7.62mm_Horizontal.step
      (at (xyz 0 0 0))
      (scale (xyz 1 1 1))
      (rotate (xyz 0 0 0))
    )
  )

  (module resistance-grospad:C_Rect_L11.0mm_W2.7mm_P11mm_MKT-grospad-padcarre2mm (layer F.Cu) (tedit 5C683327) (tstamp 5D2B29BE)
    (at 69.29 76.76)
    (descr "C, Rect series, Radial, pin pitch=7.50mm, , length*width=9*2.7mm^2, Capacitor, https://en.tdk.eu/inf/20/20/db/fc_2009/MKT_B32560_564.pdf")
    (tags "C Rect series Radial pin pitch 7.50mm  length 9mm width 2.7mm Capacitor")
    (path /5D2D5AAE)
    (fp_text reference C105 (at 3.72 -2.36) (layer F.SilkS)
      (effects (font (size 1 1) (thickness 0.15)))
    )
    (fp_text value 220n (at 3.71 0.24) (layer F.Fab)
      (effects (font (size 1 1) (thickness 0.15)))
    )
    (fp_line (start -0.75 -1.35) (end -0.75 1.35) (layer F.Fab) (width 0.1))
    (fp_line (start -0.75 1.35) (end 8.25 1.35) (layer F.Fab) (width 0.1))
    (fp_line (start 8.25 1.35) (end 8.25 -1.35) (layer F.Fab) (width 0.1))
    (fp_line (start 8.25 -1.35) (end -0.75 -1.35) (layer F.Fab) (width 0.1))
    (fp_line (start -0.81 -1.41) (end 8.31 -1.41) (layer F.SilkS) (width 0.12))
    (fp_line (start -0.81 1.41) (end 8.31 1.41) (layer F.SilkS) (width 0.12))
    (fp_line (start -0.81 -1.41) (end -0.81 -0.75) (layer F.SilkS) (width 0.12))
    (fp_line (start -0.81 0.75) (end -0.81 1.41) (layer F.SilkS) (width 0.12))
    (fp_line (start 8.31 -1.41) (end 8.31 -0.75) (layer F.SilkS) (width 0.12))
    (fp_line (start 8.31 0.75) (end 8.31 1.41) (layer F.SilkS) (width 0.12))
    (fp_line (start -1.1 -1.7) (end -1.1 1.7) (layer F.CrtYd) (width 0.05))
    (fp_line (start -1.1 1.7) (end 8.6 1.7) (layer F.CrtYd) (width 0.05))
    (fp_line (start 8.6 1.7) (end 8.6 -1.7) (layer F.CrtYd) (width 0.05))
    (fp_line (start 8.6 -1.7) (end -1.1 -1.7) (layer F.CrtYd) (width 0.05))
    (fp_text user %R (at 11.21 -0.76) (layer F.Fab)
      (effects (font (size 1 1) (thickness 0.15)))
    )
    (pad 1 thru_hole rect (at -2 0) (size 2 2) (drill 0.8) (layers *.Cu *.Mask)
      (net 12 "Net-(C105-Pad1)"))
    (pad 2 thru_hole rect (at 9 0) (size 2 2) (drill 0.8) (layers *.Cu *.Mask)
      (net 11 "Net-(C105-Pad2)"))
    (model ${KISYS3DMOD}/Capacitors_THT.3dshapes/C_Rect_L9.0mm_W2.7mm_P7.50mm_MKT.wrl
      (at (xyz 0 0 0))
      (scale (xyz 1 1 1))
      (rotate (xyz 0 0 0))
    )
  )

  (module resistance-grospad:C_Rect_L11.0mm_W2.7mm_P11mm_MKT-grospad-padcarre2mm (layer F.Cu) (tedit 5C683327) (tstamp 5D2B5EEE)
    (at 92.915 71.985 180)
    (descr "C, Rect series, Radial, pin pitch=7.50mm, , length*width=9*2.7mm^2, Capacitor, https://en.tdk.eu/inf/20/20/db/fc_2009/MKT_B32560_564.pdf")
    (tags "C Rect series Radial pin pitch 7.50mm  length 9mm width 2.7mm Capacitor")
    (path /5D2D4653)
    (fp_text reference C106 (at 3.75 -2.66 180) (layer F.SilkS)
      (effects (font (size 1 1) (thickness 0.15)))
    )
    (fp_text value 10n (at 3.915 -0.015 180) (layer F.Fab)
      (effects (font (size 1 1) (thickness 0.15)))
    )
    (fp_line (start -0.75 -1.35) (end -0.75 1.35) (layer F.Fab) (width 0.1))
    (fp_line (start -0.75 1.35) (end 8.25 1.35) (layer F.Fab) (width 0.1))
    (fp_line (start 8.25 1.35) (end 8.25 -1.35) (layer F.Fab) (width 0.1))
    (fp_line (start 8.25 -1.35) (end -0.75 -1.35) (layer F.Fab) (width 0.1))
    (fp_line (start -0.81 -1.41) (end 8.31 -1.41) (layer F.SilkS) (width 0.12))
    (fp_line (start -0.81 1.41) (end 8.31 1.41) (layer F.SilkS) (width 0.12))
    (fp_line (start -0.81 -1.41) (end -0.81 -0.75) (layer F.SilkS) (width 0.12))
    (fp_line (start -0.81 0.75) (end -0.81 1.41) (layer F.SilkS) (width 0.12))
    (fp_line (start 8.31 -1.41) (end 8.31 -0.75) (layer F.SilkS) (width 0.12))
    (fp_line (start 8.31 0.75) (end 8.31 1.41) (layer F.SilkS) (width 0.12))
    (fp_line (start -1.1 -1.7) (end -1.1 1.7) (layer F.CrtYd) (width 0.05))
    (fp_line (start -1.1 1.7) (end 8.6 1.7) (layer F.CrtYd) (width 0.05))
    (fp_line (start 8.6 1.7) (end 8.6 -1.7) (layer F.CrtYd) (width 0.05))
    (fp_line (start 8.6 -1.7) (end -1.1 -1.7) (layer F.CrtYd) (width 0.05))
    (fp_text user %R (at 3.915 -2.515 180) (layer F.Fab)
      (effects (font (size 1 1) (thickness 0.15)))
    )
    (pad 1 thru_hole rect (at -2 0 180) (size 2 2) (drill 0.8) (layers *.Cu *.Mask)
      (net 13 "Net-(C106-Pad1)"))
    (pad 2 thru_hole rect (at 9 0 180) (size 2 2) (drill 0.8) (layers *.Cu *.Mask)
      (net 14 "Net-(C106-Pad2)"))
    (model ${KISYS3DMOD}/Capacitors_THT.3dshapes/C_Rect_L9.0mm_W2.7mm_P7.50mm_MKT.wrl
      (at (xyz 0 0 0))
      (scale (xyz 1 1 1))
      (rotate (xyz 0 0 0))
    )
  )

  (module resistance-grospad:C_Radial_D6.3_L11.2_P2.5-GROSPAD-ecarte (layer F.Cu) (tedit 5C6A5191) (tstamp 5D2B29ED)
    (at 86.06 64.75)
    (descr "Radial Electrolytic Capacitor, Diameter 6.3mm x Length 11.2mm, Pitch 2.5mm")
    (tags "Electrolytic Capacitor")
    (path /5D2FDFFA)
    (fp_text reference C108 (at -0.45 -0.5 90) (layer F.SilkS)
      (effects (font (size 1 1) (thickness 0.15)))
    )
    (fp_text value 10u (at 0.19 0 90) (layer F.Fab)
      (effects (font (size 1 1) (thickness 0.15)))
    )
    (fp_circle (center 1.25 0) (end 1.25 -3.4) (layer F.CrtYd) (width 0.05))
    (fp_circle (center 1.25 0) (end 1.25 -3.1875) (layer F.SilkS) (width 0.15))
    (fp_circle (center 3.75 0) (end 3.75 -1) (layer F.SilkS) (width 0.15))
    (fp_line (start 3.765 -0.912) (end 3.765 0.912) (layer F.SilkS) (width 0.15))
    (fp_line (start 3.625 -1.287) (end 3.625 1.287) (layer F.SilkS) (width 0.15))
    (fp_line (start 3.485 -1.563) (end 3.485 1.563) (layer F.SilkS) (width 0.15))
    (fp_line (start 3.845 -1.786) (end 3.845 1.786) (layer F.SilkS) (width 0.15))
    (fp_line (start 3.705 -1.974) (end 3.705 1.974) (layer F.SilkS) (width 0.15))
    (fp_line (start 3.565 -2.136) (end 3.565 2.136) (layer F.SilkS) (width 0.15))
    (fp_line (start 3.425 0.38) (end 3.425 2.279) (layer F.SilkS) (width 0.15))
    (fp_line (start 3.425 -2.279) (end 3.425 -0.38) (layer F.SilkS) (width 0.15))
    (fp_line (start 3.285 0.619) (end 3.285 2.404) (layer F.SilkS) (width 0.15))
    (fp_line (start 3.285 -2.404) (end 3.285 -0.619) (layer F.SilkS) (width 0.15))
    (fp_line (start 3.145 0.764) (end 3.145 2.516) (layer F.SilkS) (width 0.15))
    (fp_line (start 3.145 -2.516) (end 3.145 -0.764) (layer F.SilkS) (width 0.15))
    (fp_line (start 3.005 0.863) (end 3.005 2.616) (layer F.SilkS) (width 0.15))
    (fp_line (start 3.005 -2.616) (end 3.005 -0.863) (layer F.SilkS) (width 0.15))
    (fp_line (start 2.865 0.931) (end 2.865 2.704) (layer F.SilkS) (width 0.15))
    (fp_line (start 2.865 -2.704) (end 2.865 -0.931) (layer F.SilkS) (width 0.15))
    (fp_line (start 2.725 0.974) (end 2.725 2.783) (layer F.SilkS) (width 0.15))
    (fp_line (start 2.725 -2.783) (end 2.725 -0.974) (layer F.SilkS) (width 0.15))
    (fp_line (start 2.585 0.996) (end 2.585 2.853) (layer F.SilkS) (width 0.15))
    (fp_line (start 2.585 -2.853) (end 2.585 -0.996) (layer F.SilkS) (width 0.15))
    (fp_line (start 2.445 0.998) (end 2.445 2.915) (layer F.SilkS) (width 0.15))
    (fp_line (start 2.445 -2.915) (end 2.445 -0.998) (layer F.SilkS) (width 0.15))
    (fp_line (start 2.305 0.981) (end 2.305 2.968) (layer F.SilkS) (width 0.15))
    (fp_line (start 2.305 -2.968) (end 2.305 -0.981) (layer F.SilkS) (width 0.15))
    (fp_line (start 2.165 0.942) (end 2.165 3.014) (layer F.SilkS) (width 0.15))
    (fp_line (start 2.165 -3.014) (end 2.165 -0.942) (layer F.SilkS) (width 0.15))
    (fp_line (start 2.025 0.88) (end 2.025 3.053) (layer F.SilkS) (width 0.15))
    (fp_line (start 2.025 -3.053) (end 2.025 -0.88) (layer F.SilkS) (width 0.15))
    (fp_line (start 1.885 0.789) (end 1.885 3.085) (layer F.SilkS) (width 0.15))
    (fp_line (start 1.885 -3.085) (end 1.885 -0.789) (layer F.SilkS) (width 0.15))
    (fp_line (start 1.745 0.656) (end 1.745 3.111) (layer F.SilkS) (width 0.15))
    (fp_line (start 1.745 -3.111) (end 1.745 -0.656) (layer F.SilkS) (width 0.15))
    (fp_line (start 1.605 0.446) (end 1.605 3.13) (layer F.SilkS) (width 0.15))
    (fp_line (start 1.605 -3.13) (end 1.605 -0.446) (layer F.SilkS) (width 0.15))
    (fp_line (start 1.465 -3.143) (end 1.465 3.143) (layer F.SilkS) (width 0.15))
    (fp_line (start 1.325 -3.149) (end 1.325 3.149) (layer F.SilkS) (width 0.15))
    (pad 1 thru_hole rect (at -2.25 0) (size 2 2) (drill 0.8) (layers *.Cu *.Mask F.SilkS)
      (net 16 "Net-(C108-Pad1)"))
    (pad 2 thru_hole rect (at 4.75 0) (size 2 2) (drill 0.8) (layers *.Cu *.Mask F.SilkS)
      (net 15 "Net-(C108-Pad2)"))
    (model ${KISYS3DMOD}/Capacitor_THT.3dshapes/C_Radial_D6.3mm_H5.0mm_P2.50mm.step
      (at (xyz 0 0 0))
      (scale (xyz 1 1 1))
      (rotate (xyz 0 0 0))
    )
  )

  (module resistance-grospad:Resistor_Horizontal_RM7mm-pad2mm (layer F.Cu) (tedit 5C6A4ED5) (tstamp 5D2B2AF2)
    (at 65.99 75.66 90)
    (descr "Resistor, Axial,  RM 7.62mm, 1/3W,")
    (tags "Resistor Axial RM 7.62mm 1/3W R3")
    (path /5CC7B74D)
    (fp_text reference R112 (at 4.05892 -3.50012 90) (layer F.SilkS)
      (effects (font (size 1 1) (thickness 0.15)))
    )
    (fp_text value 2k2 (at 3.66 0.01 90) (layer F.Fab)
      (effects (font (size 1 1) (thickness 0.15)))
    )
    (fp_line (start -1.25 -1.5) (end 8.85 -1.5) (layer F.CrtYd) (width 0.05))
    (fp_line (start -1.25 1.5) (end -1.25 -1.5) (layer F.CrtYd) (width 0.05))
    (fp_line (start 8.85 -1.5) (end 8.85 1.5) (layer F.CrtYd) (width 0.05))
    (fp_line (start -1.25 1.5) (end 8.85 1.5) (layer F.CrtYd) (width 0.05))
    (fp_line (start 1.27 -1.27) (end 6.35 -1.27) (layer F.SilkS) (width 0.15))
    (fp_line (start 6.35 -1.27) (end 6.35 1.27) (layer F.SilkS) (width 0.15))
    (fp_line (start 6.35 1.27) (end 1.27 1.27) (layer F.SilkS) (width 0.15))
    (fp_line (start 1.27 1.27) (end 1.27 -1.27) (layer F.SilkS) (width 0.15))
    (pad 1 thru_hole rect (at 0 0 90) (size 2 2) (drill 1.00076) (layers *.Cu *.SilkS *.Mask)
      (net 12 "Net-(C105-Pad1)"))
    (pad 2 thru_hole rect (at 7.62 0 90) (size 2 2) (drill 1.00076) (layers *.Cu *.SilkS *.Mask)
      (net 16 "Net-(C108-Pad1)"))
    (model ${KISYS3DMOD}/Resistor_THT.3dshapes/R_Axial_DIN0204_L3.6mm_D1.6mm_P7.62mm_Horizontal.step
      (at (xyz 0 0 0))
      (scale (xyz 1 1 1))
      (rotate (xyz 0 0 0))
    )
  )

  (module resistance-grospad:pot-RK163-grospad (layer F.Cu) (tedit 5C337299) (tstamp 5D2B2BC5)
    (at 67.25 86.5 270)
    (descr "Potentiometer, vertically mounted, Omeg PC16PU, Omeg PC16PU, Omeg PC16PU, Vishay/Spectrol 248GJ/249GJ Single, Vishay/Spectrol 248GJ/249GJ Single, Vishay/Spectrol 248GJ/249GJ Single, Vishay/Spectrol 248GH/249GH Single, Vishay/Spectrol 148/149 Single, Vishay/Spectrol 148/149 Single, Vishay/Spectrol 148/149 Single, Vishay/Spectrol 148A/149A Single with mounting plates, Vishay/Spectrol 148/149 Double, Vishay/Spectrol 148A/149A Double with mounting plates, Piher PC-16 Single, Piher PC-16 Single, Piher PC-16 Single, Piher PC-16SV Single, Piher PC-16 Double, Piher PC-16 Triple, Piher T16H Single, Piher T16L Single, Piher T16H Double, Alps RK163 Single, http://www.alps.com/prod/info/E/PDF/Potentiometer/MetalShaft/RK163/RK163.PDF")
    (tags "Potentiometer vertical  Omeg PC16PU  Omeg PC16PU  Omeg PC16PU  Vishay/Spectrol 248GJ/249GJ Single  Vishay/Spectrol 248GJ/249GJ Single  Vishay/Spectrol 248GJ/249GJ Single  Vishay/Spectrol 248GH/249GH Single  Vishay/Spectrol 148/149 Single  Vishay/Spectrol 148/149 Single  Vishay/Spectrol 148/149 Single  Vishay/Spectrol 148A/149A Single with mounting plates  Vishay/Spectrol 148/149 Double  Vishay/Spectrol 148A/149A Double with mounting plates  Piher PC-16 Single  Piher PC-16 Single  Piher PC-16 Single  Piher PC-16SV Single  Piher PC-16 Double  Piher PC-16 Triple  Piher T16H Single  Piher T16L Single  Piher T16H Double  Alps RK163 Single")
    (path /5CC62F8A)
    (fp_text reference RV103 (at 0 -15.2 270) (layer F.SilkS)
      (effects (font (size 1 1) (thickness 0.15)))
    )
    (fp_text value BASS10k (at 0 5.2 270) (layer F.Fab)
      (effects (font (size 1 1) (thickness 0.15)))
    )
    (fp_line (start 19.05 -14.2) (end -6.95 -14.2) (layer F.CrtYd) (width 0.05))
    (fp_line (start 19.05 4.2) (end 19.05 -14.2) (layer F.CrtYd) (width 0.05))
    (fp_line (start -6.95 4.2) (end 19.05 4.2) (layer F.CrtYd) (width 0.05))
    (fp_line (start -6.95 -14.2) (end -6.95 4.2) (layer F.CrtYd) (width 0.05))
    (fp_line (start 18.86 -8.06) (end 18.86 -1.94) (layer F.SilkS) (width 0.12))
    (fp_line (start 8.86 -8.06) (end 8.86 -1.94) (layer F.SilkS) (width 0.12))
    (fp_line (start 8.86 -1.94) (end 18.86 -1.94) (layer F.SilkS) (width 0.12))
    (fp_line (start 8.86 -8.06) (end 18.86 -8.06) (layer F.SilkS) (width 0.12))
    (fp_line (start 8.86 -8.56) (end 8.86 -1.44) (layer F.SilkS) (width 0.12))
    (fp_line (start 3.86 -8.56) (end 3.86 -1.44) (layer F.SilkS) (width 0.12))
    (fp_line (start 3.86 -1.44) (end 8.86 -1.44) (layer F.SilkS) (width 0.12))
    (fp_line (start 3.86 -8.56) (end 8.86 -8.56) (layer F.SilkS) (width 0.12))
    (fp_line (start 3.86 -14.01) (end 3.86 4.011) (layer F.SilkS) (width 0.12))
    (fp_line (start -6.76 -14.01) (end -6.76 4.011) (layer F.SilkS) (width 0.12))
    (fp_line (start -6.76 4.011) (end 3.86 4.011) (layer F.SilkS) (width 0.12))
    (fp_line (start -6.76 -14.01) (end 3.86 -14.01) (layer F.SilkS) (width 0.12))
    (fp_line (start 18.8 -8) (end 8.8 -8) (layer F.Fab) (width 0.1))
    (fp_line (start 18.8 -2) (end 18.8 -8) (layer F.Fab) (width 0.1))
    (fp_line (start 8.8 -2) (end 18.8 -2) (layer F.Fab) (width 0.1))
    (fp_line (start 8.8 -8) (end 8.8 -2) (layer F.Fab) (width 0.1))
    (fp_line (start 8.8 -8.5) (end 3.8 -8.5) (layer F.Fab) (width 0.1))
    (fp_line (start 8.8 -1.5) (end 8.8 -8.5) (layer F.Fab) (width 0.1))
    (fp_line (start 3.8 -1.5) (end 8.8 -1.5) (layer F.Fab) (width 0.1))
    (fp_line (start 3.8 -8.5) (end 3.8 -1.5) (layer F.Fab) (width 0.1))
    (fp_line (start 3.8 -13.95) (end -6.7 -13.95) (layer F.Fab) (width 0.1))
    (fp_line (start 3.8 3.95) (end 3.8 -13.95) (layer F.Fab) (width 0.1))
    (fp_line (start -6.7 3.95) (end 3.8 3.95) (layer F.Fab) (width 0.1))
    (fp_line (start -6.7 -13.95) (end -6.7 3.95) (layer F.Fab) (width 0.1))
    (pad 1 thru_hole rect (at 0 0 270) (size 3 3) (drill 1.3) (layers *.Cu *.Mask)
      (net 12 "Net-(C105-Pad1)"))
    (pad 2 thru_hole rect (at 0 -5 270) (size 3 3) (drill 1.3) (layers *.Cu *.Mask)
      (net 21 "Net-(R113-Pad2)"))
    (pad 3 thru_hole rect (at 0 -10 270) (size 3 3) (drill 1.3) (layers *.Cu *.Mask)
      (net 11 "Net-(C105-Pad2)"))
    (model Potentiometers.3dshapes/Potentiometer_Alps_RK163_Single_Vertical.wrl
      (at (xyz 0 0 0))
      (scale (xyz 1 1 1))
      (rotate (xyz 0 0 0))
    )
  )

  (module resistance-grospad:pot-RK163-grospad (layer F.Cu) (tedit 5C337299) (tstamp 5D2B2BE8)
    (at 92.5 86.5 270)
    (descr "Potentiometer, vertically mounted, Omeg PC16PU, Omeg PC16PU, Omeg PC16PU, Vishay/Spectrol 248GJ/249GJ Single, Vishay/Spectrol 248GJ/249GJ Single, Vishay/Spectrol 248GJ/249GJ Single, Vishay/Spectrol 248GH/249GH Single, Vishay/Spectrol 148/149 Single, Vishay/Spectrol 148/149 Single, Vishay/Spectrol 148/149 Single, Vishay/Spectrol 148A/149A Single with mounting plates, Vishay/Spectrol 148/149 Double, Vishay/Spectrol 148A/149A Double with mounting plates, Piher PC-16 Single, Piher PC-16 Single, Piher PC-16 Single, Piher PC-16SV Single, Piher PC-16 Double, Piher PC-16 Triple, Piher T16H Single, Piher T16L Single, Piher T16H Double, Alps RK163 Single, http://www.alps.com/prod/info/E/PDF/Potentiometer/MetalShaft/RK163/RK163.PDF")
    (tags "Potentiometer vertical  Omeg PC16PU  Omeg PC16PU  Omeg PC16PU  Vishay/Spectrol 248GJ/249GJ Single  Vishay/Spectrol 248GJ/249GJ Single  Vishay/Spectrol 248GJ/249GJ Single  Vishay/Spectrol 248GH/249GH Single  Vishay/Spectrol 148/149 Single  Vishay/Spectrol 148/149 Single  Vishay/Spectrol 148/149 Single  Vishay/Spectrol 148A/149A Single with mounting plates  Vishay/Spectrol 148/149 Double  Vishay/Spectrol 148A/149A Double with mounting plates  Piher PC-16 Single  Piher PC-16 Single  Piher PC-16 Single  Piher PC-16SV Single  Piher PC-16 Double  Piher PC-16 Triple  Piher T16H Single  Piher T16L Single  Piher T16H Double  Alps RK163 Single")
    (path /5C30E9E2)
    (fp_text reference RV104 (at 0 -15.2 270) (layer F.SilkS)
      (effects (font (size 1 1) (thickness 0.15)))
    )
    (fp_text value "MID 10kB" (at 0 5.2 270) (layer F.Fab)
      (effects (font (size 1 1) (thickness 0.15)))
    )
    (fp_line (start -6.7 -13.95) (end -6.7 3.95) (layer F.Fab) (width 0.1))
    (fp_line (start -6.7 3.95) (end 3.8 3.95) (layer F.Fab) (width 0.1))
    (fp_line (start 3.8 3.95) (end 3.8 -13.95) (layer F.Fab) (width 0.1))
    (fp_line (start 3.8 -13.95) (end -6.7 -13.95) (layer F.Fab) (width 0.1))
    (fp_line (start 3.8 -8.5) (end 3.8 -1.5) (layer F.Fab) (width 0.1))
    (fp_line (start 3.8 -1.5) (end 8.8 -1.5) (layer F.Fab) (width 0.1))
    (fp_line (start 8.8 -1.5) (end 8.8 -8.5) (layer F.Fab) (width 0.1))
    (fp_line (start 8.8 -8.5) (end 3.8 -8.5) (layer F.Fab) (width 0.1))
    (fp_line (start 8.8 -8) (end 8.8 -2) (layer F.Fab) (width 0.1))
    (fp_line (start 8.8 -2) (end 18.8 -2) (layer F.Fab) (width 0.1))
    (fp_line (start 18.8 -2) (end 18.8 -8) (layer F.Fab) (width 0.1))
    (fp_line (start 18.8 -8) (end 8.8 -8) (layer F.Fab) (width 0.1))
    (fp_line (start -6.76 -14.01) (end 3.86 -14.01) (layer F.SilkS) (width 0.12))
    (fp_line (start -6.76 4.011) (end 3.86 4.011) (layer F.SilkS) (width 0.12))
    (fp_line (start -6.76 -14.01) (end -6.76 4.011) (layer F.SilkS) (width 0.12))
    (fp_line (start 3.86 -14.01) (end 3.86 4.011) (layer F.SilkS) (width 0.12))
    (fp_line (start 3.86 -8.56) (end 8.86 -8.56) (layer F.SilkS) (width 0.12))
    (fp_line (start 3.86 -1.44) (end 8.86 -1.44) (layer F.SilkS) (width 0.12))
    (fp_line (start 3.86 -8.56) (end 3.86 -1.44) (layer F.SilkS) (width 0.12))
    (fp_line (start 8.86 -8.56) (end 8.86 -1.44) (layer F.SilkS) (width 0.12))
    (fp_line (start 8.86 -8.06) (end 18.86 -8.06) (layer F.SilkS) (width 0.12))
    (fp_line (start 8.86 -1.94) (end 18.86 -1.94) (layer F.SilkS) (width 0.12))
    (fp_line (start 8.86 -8.06) (end 8.86 -1.94) (layer F.SilkS) (width 0.12))
    (fp_line (start 18.86 -8.06) (end 18.86 -1.94) (layer F.SilkS) (width 0.12))
    (fp_line (start -6.95 -14.2) (end -6.95 4.2) (layer F.CrtYd) (width 0.05))
    (fp_line (start -6.95 4.2) (end 19.05 4.2) (layer F.CrtYd) (width 0.05))
    (fp_line (start 19.05 4.2) (end 19.05 -14.2) (layer F.CrtYd) (width 0.05))
    (fp_line (start 19.05 -14.2) (end -6.95 -14.2) (layer F.CrtYd) (width 0.05))
    (pad 3 thru_hole rect (at 0 -10 270) (size 3 3) (drill 1.3) (layers *.Cu *.Mask)
      (net 22 "Net-(R114-Pad2)"))
    (pad 2 thru_hole rect (at 0 -5 270) (size 3 3) (drill 1.3) (layers *.Cu *.Mask)
      (net 13 "Net-(C106-Pad1)"))
    (pad 1 thru_hole rect (at 0 0 270) (size 3 3) (drill 1.3) (layers *.Cu *.Mask)
      (net 23 "Net-(R115-Pad1)"))
    (model Potentiometers.3dshapes/Potentiometer_Alps_RK163_Single_Vertical.wrl
      (at (xyz 0 0 0))
      (scale (xyz 1 1 1))
      (rotate (xyz 0 0 0))
    )
  )

  (module resistance-grospad:C_Radial_D6.3_L11.2_P2.5-GROSPAD-ecarte (layer F.Cu) (tedit 5C6A5191) (tstamp 5D2B297F)
    (at 41.87 58.86 270)
    (descr "Radial Electrolytic Capacitor, Diameter 6.3mm x Length 11.2mm, Pitch 2.5mm")
    (tags "Electrolytic Capacitor")
    (path /5D3B8FEE)
    (fp_text reference C102 (at -0.45 -0.5) (layer F.SilkS)
      (effects (font (size 1 1) (thickness 0.15)))
    )
    (fp_text value 10u (at 0.19 0) (layer F.Fab)
      (effects (font (size 1 1) (thickness 0.15)))
    )
    (fp_circle (center 1.25 0) (end 1.25 -3.4) (layer F.CrtYd) (width 0.05))
    (fp_circle (center 1.25 0) (end 1.25 -3.1875) (layer F.SilkS) (width 0.15))
    (fp_circle (center 3.75 0) (end 3.75 -1) (layer F.SilkS) (width 0.15))
    (fp_line (start 3.765 -0.912) (end 3.765 0.912) (layer F.SilkS) (width 0.15))
    (fp_line (start 3.625 -1.287) (end 3.625 1.287) (layer F.SilkS) (width 0.15))
    (fp_line (start 3.485 -1.563) (end 3.485 1.563) (layer F.SilkS) (width 0.15))
    (fp_line (start 3.845 -1.786) (end 3.845 1.786) (layer F.SilkS) (width 0.15))
    (fp_line (start 3.705 -1.974) (end 3.705 1.974) (layer F.SilkS) (width 0.15))
    (fp_line (start 3.565 -2.136) (end 3.565 2.136) (layer F.SilkS) (width 0.15))
    (fp_line (start 3.425 0.38) (end 3.425 2.279) (layer F.SilkS) (width 0.15))
    (fp_line (start 3.425 -2.279) (end 3.425 -0.38) (layer F.SilkS) (width 0.15))
    (fp_line (start 3.285 0.619) (end 3.285 2.404) (layer F.SilkS) (width 0.15))
    (fp_line (start 3.285 -2.404) (end 3.285 -0.619) (layer F.SilkS) (width 0.15))
    (fp_line (start 3.145 0.764) (end 3.145 2.516) (layer F.SilkS) (width 0.15))
    (fp_line (start 3.145 -2.516) (end 3.145 -0.764) (layer F.SilkS) (width 0.15))
    (fp_line (start 3.005 0.863) (end 3.005 2.616) (layer F.SilkS) (width 0.15))
    (fp_line (start 3.005 -2.616) (end 3.005 -0.863) (layer F.SilkS) (width 0.15))
    (fp_line (start 2.865 0.931) (end 2.865 2.704) (layer F.SilkS) (width 0.15))
    (fp_line (start 2.865 -2.704) (end 2.865 -0.931) (layer F.SilkS) (width 0.15))
    (fp_line (start 2.725 0.974) (end 2.725 2.783) (layer F.SilkS) (width 0.15))
    (fp_line (start 2.725 -2.783) (end 2.725 -0.974) (layer F.SilkS) (width 0.15))
    (fp_line (start 2.585 0.996) (end 2.585 2.853) (layer F.SilkS) (width 0.15))
    (fp_line (start 2.585 -2.853) (end 2.585 -0.996) (layer F.SilkS) (width 0.15))
    (fp_line (start 2.445 0.998) (end 2.445 2.915) (layer F.SilkS) (width 0.15))
    (fp_line (start 2.445 -2.915) (end 2.445 -0.998) (layer F.SilkS) (width 0.15))
    (fp_line (start 2.305 0.981) (end 2.305 2.968) (layer F.SilkS) (width 0.15))
    (fp_line (start 2.305 -2.968) (end 2.305 -0.981) (layer F.SilkS) (width 0.15))
    (fp_line (start 2.165 0.942) (end 2.165 3.014) (layer F.SilkS) (width 0.15))
    (fp_line (start 2.165 -3.014) (end 2.165 -0.942) (layer F.SilkS) (width 0.15))
    (fp_line (start 2.025 0.88) (end 2.025 3.053) (layer F.SilkS) (width 0.15))
    (fp_line (start 2.025 -3.053) (end 2.025 -0.88) (layer F.SilkS) (width 0.15))
    (fp_line (start 1.885 0.789) (end 1.885 3.085) (layer F.SilkS) (width 0.15))
    (fp_line (start 1.885 -3.085) (end 1.885 -0.789) (layer F.SilkS) (width 0.15))
    (fp_line (start 1.745 0.656) (end 1.745 3.111) (layer F.SilkS) (width 0.15))
    (fp_line (start 1.745 -3.111) (end 1.745 -0.656) (layer F.SilkS) (width 0.15))
    (fp_line (start 1.605 0.446) (end 1.605 3.13) (layer F.SilkS) (width 0.15))
    (fp_line (start 1.605 -3.13) (end 1.605 -0.446) (layer F.SilkS) (width 0.15))
    (fp_line (start 1.465 -3.143) (end 1.465 3.143) (layer F.SilkS) (width 0.15))
    (fp_line (start 1.325 -3.149) (end 1.325 3.149) (layer F.SilkS) (width 0.15))
    (pad 1 thru_hole rect (at -2.25 0 270) (size 2 2) (drill 0.8) (layers *.Cu *.Mask F.SilkS)
      (net 7 "Net-(C102-Pad1)"))
    (pad 2 thru_hole rect (at 4.75 0 270) (size 2 2) (drill 0.8) (layers *.Cu *.Mask F.SilkS)
      (net 8 "Net-(C102-Pad2)"))
    (model ${KISYS3DMOD}/Capacitor_THT.3dshapes/C_Radial_D6.3mm_H5.0mm_P2.50mm.step
      (at (xyz 0 0 0))
      (scale (xyz 1 1 1))
      (rotate (xyz 0 0 0))
    )
  )

  (module resistance-grospad:LED_D2.0mm_W4.0mm_H2.8mm_FlatTop-pad2mm (layer F.Cu) (tedit 5D2AD655) (tstamp 5D2B2A34)
    (at 39.33 54.54)
    (descr "LED, Round, FlatTop,  Rectangular size 4.0x2.8mm^2 diameter 2.0mm, 2 pins, http://www.kingbright.com/attachments/file/psearch/000/00/00/L-1034IDT(Ver.9A).pdf")
    (tags "LED Round FlatTop  Rectangular size 4.0x2.8mm^2 diameter 2.0mm 2 pins")
    (path /5D3B8FF5)
    (fp_text reference J102 (at 1.27 -2.46) (layer F.SilkS)
      (effects (font (size 1 1) (thickness 0.15)))
    )
    (fp_text value inL (at 1.5 -0.06) (layer F.Fab)
      (effects (font (size 1 1) (thickness 0.15)))
    )
    (fp_line (start 3.7 -1.75) (end -1.15 -1.75) (layer F.CrtYd) (width 0.05))
    (fp_line (start 3.7 1.75) (end 3.7 -1.75) (layer F.CrtYd) (width 0.05))
    (fp_line (start -1.15 1.75) (end 3.7 1.75) (layer F.CrtYd) (width 0.05))
    (fp_line (start -1.15 -1.75) (end -1.15 1.75) (layer F.CrtYd) (width 0.05))
    (fp_line (start -0.55 1.08) (end -0.55 1.46) (layer F.SilkS) (width 0.12))
    (fp_line (start -0.55 -1.46) (end -0.55 -1.08) (layer F.SilkS) (width 0.12))
    (fp_line (start -0.67 1.08) (end -0.67 1.46) (layer F.SilkS) (width 0.12))
    (fp_line (start -0.67 -1.46) (end -0.67 -1.08) (layer F.SilkS) (width 0.12))
    (fp_line (start 3.33 0.825) (end 3.33 1.46) (layer F.SilkS) (width 0.12))
    (fp_line (start 3.33 -1.46) (end 3.33 -0.825) (layer F.SilkS) (width 0.12))
    (fp_line (start -0.79 1.08) (end -0.79 1.46) (layer F.SilkS) (width 0.12))
    (fp_line (start -0.79 -1.46) (end -0.79 -1.08) (layer F.SilkS) (width 0.12))
    (fp_line (start -0.79 1.46) (end 3.33 1.46) (layer F.SilkS) (width 0.12))
    (fp_line (start -0.79 -1.46) (end 3.33 -1.46) (layer F.SilkS) (width 0.12))
    (fp_line (start 3.27 -1.4) (end -0.73 -1.4) (layer F.Fab) (width 0.1))
    (fp_line (start 3.27 1.4) (end 3.27 -1.4) (layer F.Fab) (width 0.1))
    (fp_line (start -0.73 1.4) (end 3.27 1.4) (layer F.Fab) (width 0.1))
    (fp_line (start -0.73 -1.4) (end -0.73 1.4) (layer F.Fab) (width 0.1))
    (fp_circle (center 1.27 0) (end 2.27 0) (layer F.Fab) (width 0.1))
    (pad 2 thru_hole rect (at 2.54 0) (size 2 2) (drill 0.9) (layers *.Cu *.Mask)
      (net 7 "Net-(C102-Pad1)"))
    (pad 1 thru_hole rect (at 0 0) (size 2 2) (drill 0.9) (layers *.Cu *.Mask)
      (net 1 GND))
    (model ${KISYS3DMOD}/LEDs.3dshapes/LED_D2.0mm_W4.0mm_H2.8mm_FlatTop.wrl
      (at (xyz 0 0 0))
      (scale (xyz 0.393701 0.393701 0.393701))
      (rotate (xyz 0 0 0))
    )
  )

  (module resistance-grospad:Resistor_Horizontal_RM7mm-pad2mm (layer F.Cu) (tedit 5C6A4ED5) (tstamp 5D2B2AD6)
    (at 49.35 68 90)
    (descr "Resistor, Axial,  RM 7.62mm, 1/3W,")
    (tags "Resistor Axial RM 7.62mm 1/3W R3")
    (path /5D3B8FCF)
    (fp_text reference R110 (at 4.05892 -3.50012 90) (layer F.SilkS)
      (effects (font (size 1 1) (thickness 0.15)))
    )
    (fp_text value 2k2 (at 4 -0.35 90) (layer F.Fab)
      (effects (font (size 1 1) (thickness 0.15)))
    )
    (fp_line (start -1.25 -1.5) (end 8.85 -1.5) (layer F.CrtYd) (width 0.05))
    (fp_line (start -1.25 1.5) (end -1.25 -1.5) (layer F.CrtYd) (width 0.05))
    (fp_line (start 8.85 -1.5) (end 8.85 1.5) (layer F.CrtYd) (width 0.05))
    (fp_line (start -1.25 1.5) (end 8.85 1.5) (layer F.CrtYd) (width 0.05))
    (fp_line (start 1.27 -1.27) (end 6.35 -1.27) (layer F.SilkS) (width 0.15))
    (fp_line (start 6.35 -1.27) (end 6.35 1.27) (layer F.SilkS) (width 0.15))
    (fp_line (start 6.35 1.27) (end 1.27 1.27) (layer F.SilkS) (width 0.15))
    (fp_line (start 1.27 1.27) (end 1.27 -1.27) (layer F.SilkS) (width 0.15))
    (pad 1 thru_hole rect (at 0 0 90) (size 2 2) (drill 1.00076) (layers *.Cu *.SilkS *.Mask)
      (net 10 "Net-(C104-Pad2)"))
    (pad 2 thru_hole rect (at 7.62 0 90) (size 2 2) (drill 1.00076) (layers *.Cu *.SilkS *.Mask)
      (net 9 "Net-(C104-Pad1)"))
    (model ${KISYS3DMOD}/Resistor_THT.3dshapes/R_Axial_DIN0204_L3.6mm_D1.6mm_P7.62mm_Horizontal.step
      (at (xyz 0 0 0))
      (scale (xyz 1 1 1))
      (rotate (xyz 0 0 0))
    )
  )

  (module resistance-grospad:C_Rect_L7.0mm_W2.5mm_P5.00mm-grospad (layer F.Cu) (tedit 5C6A5026) (tstamp 5D2B29A9)
    (at 51.6 63 270)
    (descr "C, Rect series, Radial, pin pitch=5.00mm, , length*width=7*2.5mm^2, Capacitor")
    (tags "C Rect series Radial pin pitch 5.00mm  length 7mm width 2.5mm Capacitor")
    (path /5D3B8FD5)
    (fp_text reference C104 (at 2.5 -2.56 270) (layer F.SilkS)
      (effects (font (size 1 1) (thickness 0.15)))
    )
    (fp_text value 22p (at 2.5 0.1 270) (layer F.Fab)
      (effects (font (size 1 1) (thickness 0.15)))
    )
    (fp_text user %R (at 6 0 270) (layer F.Fab)
      (effects (font (size 1 1) (thickness 0.15)))
    )
    (fp_line (start 6.35 -1.6) (end -1.35 -1.6) (layer F.CrtYd) (width 0.05))
    (fp_line (start 6.35 1.6) (end 6.35 -1.6) (layer F.CrtYd) (width 0.05))
    (fp_line (start -1.35 1.6) (end 6.35 1.6) (layer F.CrtYd) (width 0.05))
    (fp_line (start -1.35 -1.6) (end -1.35 1.6) (layer F.CrtYd) (width 0.05))
    (fp_line (start 6.06 -1.31) (end 6.06 1.31) (layer F.SilkS) (width 0.12))
    (fp_line (start -1.06 -1.31) (end -1.06 1.31) (layer F.SilkS) (width 0.12))
    (fp_line (start -1.06 1.31) (end 6.06 1.31) (layer F.SilkS) (width 0.12))
    (fp_line (start -1.06 -1.31) (end 6.06 -1.31) (layer F.SilkS) (width 0.12))
    (fp_line (start 6 -1.25) (end -1 -1.25) (layer F.Fab) (width 0.1))
    (fp_line (start 6 1.25) (end 6 -1.25) (layer F.Fab) (width 0.1))
    (fp_line (start -1 1.25) (end 6 1.25) (layer F.Fab) (width 0.1))
    (fp_line (start -1 -1.25) (end -1 1.25) (layer F.Fab) (width 0.1))
    (pad 2 thru_hole rect (at 5 0 270) (size 2 2) (drill 0.8) (layers *.Cu *.Mask)
      (net 10 "Net-(C104-Pad2)"))
    (pad 1 thru_hole rect (at 0 0 270) (size 2 2) (drill 0.8) (layers *.Cu *.Mask)
      (net 9 "Net-(C104-Pad1)"))
    (model ${KISYS3DMOD}/Capacitor_THT.3dshapes/C_Rect_L7.0mm_W2.0mm_P5.00mm.wrl
      (at (xyz 0 0 0))
      (scale (xyz 1 1 1))
      (rotate (xyz 0 0 0))
    )
  )

  (module resistance-grospad:Resistor_Horizontal_RM7mm-pad2mm (layer F.Cu) (tedit 5D2B2ED1) (tstamp 5D2B2A76)
    (at 38.43 70.53)
    (descr "Resistor, Axial,  RM 7.62mm, 1/3W,")
    (tags "Resistor Axial RM 7.62mm 1/3W R3")
    (path /5D3B8FAA)
    (fp_text reference R102 (at 4.05892 -3.50012) (layer F.SilkS)
      (effects (font (size 1 1) (thickness 0.15)))
    )
    (fp_text value 100k (at 3.91 -0.27) (layer F.Fab)
      (effects (font (size 1 1) (thickness 0.15)))
    )
    (fp_line (start -1.25 -1.5) (end 8.85 -1.5) (layer F.CrtYd) (width 0.05))
    (fp_line (start -1.25 1.5) (end -1.25 -1.5) (layer F.CrtYd) (width 0.05))
    (fp_line (start 8.85 -1.5) (end 8.85 1.5) (layer F.CrtYd) (width 0.05))
    (fp_line (start -1.25 1.5) (end 8.85 1.5) (layer F.CrtYd) (width 0.05))
    (fp_line (start 1.27 -1.27) (end 6.35 -1.27) (layer F.SilkS) (width 0.15))
    (fp_line (start 6.35 -1.27) (end 6.35 1.27) (layer F.SilkS) (width 0.15))
    (fp_line (start 6.35 1.27) (end 1.27 1.27) (layer F.SilkS) (width 0.15))
    (fp_line (start 1.27 1.27) (end 1.27 -1.27) (layer F.SilkS) (width 0.15))
    (pad 1 thru_hole rect (at 0 0) (size 2 2) (drill 1.00076) (layers *.Cu *.SilkS *.Mask)
      (net 1 GND))
    (pad 2 thru_hole rect (at 7.62 0) (size 2 2) (drill 1.00076) (layers *.Cu *.SilkS *.Mask)
      (net 8 "Net-(C102-Pad2)"))
    (model ${KISYS3DMOD}/Resistor_THT.3dshapes/R_Axial_DIN0204_L3.6mm_D1.6mm_P7.62mm_Horizontal.step
      (at (xyz 0 0 0))
      (scale (xyz 1 1 1))
      (rotate (xyz 0 0 0))
    )
  )

  (module resistance-grospad:Resistor_Horizontal_RM7mm-pad2mm (layer F.Cu) (tedit 5C6A4ED5) (tstamp 5D2B2AA6)
    (at 38.76 77.32)
    (descr "Resistor, Axial,  RM 7.62mm, 1/3W,")
    (tags "Resistor Axial RM 7.62mm 1/3W R3")
    (path /5D38EE62)
    (fp_text reference R106 (at 4.05892 -3.50012) (layer F.SilkS)
      (effects (font (size 1 1) (thickness 0.15)))
    )
    (fp_text value 15k (at 4.74 0.18) (layer F.Fab)
      (effects (font (size 1 1) (thickness 0.15)))
    )
    (fp_line (start -1.25 -1.5) (end 8.85 -1.5) (layer F.CrtYd) (width 0.05))
    (fp_line (start -1.25 1.5) (end -1.25 -1.5) (layer F.CrtYd) (width 0.05))
    (fp_line (start 8.85 -1.5) (end 8.85 1.5) (layer F.CrtYd) (width 0.05))
    (fp_line (start -1.25 1.5) (end 8.85 1.5) (layer F.CrtYd) (width 0.05))
    (fp_line (start 1.27 -1.27) (end 6.35 -1.27) (layer F.SilkS) (width 0.15))
    (fp_line (start 6.35 -1.27) (end 6.35 1.27) (layer F.SilkS) (width 0.15))
    (fp_line (start 6.35 1.27) (end 1.27 1.27) (layer F.SilkS) (width 0.15))
    (fp_line (start 1.27 1.27) (end 1.27 -1.27) (layer F.SilkS) (width 0.15))
    (pad 1 thru_hole rect (at 0 0) (size 2 2) (drill 1.00076) (layers *.Cu *.SilkS *.Mask)
      (net 1 GND))
    (pad 2 thru_hole rect (at 7.62 0) (size 2 2) (drill 1.00076) (layers *.Cu *.SilkS *.Mask)
      (net 20 "Net-(R106-Pad2)"))
    (model ${KISYS3DMOD}/Resistor_THT.3dshapes/R_Axial_DIN0204_L3.6mm_D1.6mm_P7.62mm_Horizontal.step
      (at (xyz 0 0 0))
      (scale (xyz 1 1 1))
      (rotate (xyz 0 0 0))
    )
  )

  (module resistance-grospad:Resistor_Horizontal_RM7mm-pad2mm (layer F.Cu) (tedit 5C6A4ED5) (tstamp 5D2B2ABE)
    (at 38.7 65.46)
    (descr "Resistor, Axial,  RM 7.62mm, 1/3W,")
    (tags "Resistor Axial RM 7.62mm 1/3W R3")
    (path /5D3B8FDB)
    (fp_text reference R108 (at 4.05892 -3.50012) (layer F.SilkS)
      (effects (font (size 1 1) (thickness 0.15)))
    )
    (fp_text value 2k2 (at 3.8 0.04) (layer F.Fab)
      (effects (font (size 1 1) (thickness 0.15)))
    )
    (fp_line (start -1.25 -1.5) (end 8.85 -1.5) (layer F.CrtYd) (width 0.05))
    (fp_line (start -1.25 1.5) (end -1.25 -1.5) (layer F.CrtYd) (width 0.05))
    (fp_line (start 8.85 -1.5) (end 8.85 1.5) (layer F.CrtYd) (width 0.05))
    (fp_line (start -1.25 1.5) (end 8.85 1.5) (layer F.CrtYd) (width 0.05))
    (fp_line (start 1.27 -1.27) (end 6.35 -1.27) (layer F.SilkS) (width 0.15))
    (fp_line (start 6.35 -1.27) (end 6.35 1.27) (layer F.SilkS) (width 0.15))
    (fp_line (start 6.35 1.27) (end 1.27 1.27) (layer F.SilkS) (width 0.15))
    (fp_line (start 1.27 1.27) (end 1.27 -1.27) (layer F.SilkS) (width 0.15))
    (pad 1 thru_hole rect (at 0 0) (size 2 2) (drill 1.00076) (layers *.Cu *.SilkS *.Mask)
      (net 1 GND))
    (pad 2 thru_hole rect (at 7.62 0) (size 2 2) (drill 1.00076) (layers *.Cu *.SilkS *.Mask)
      (net 10 "Net-(C104-Pad2)"))
    (model ${KISYS3DMOD}/Resistor_THT.3dshapes/R_Axial_DIN0204_L3.6mm_D1.6mm_P7.62mm_Horizontal.step
      (at (xyz 0 0 0))
      (scale (xyz 1 1 1))
      (rotate (xyz 0 0 0))
    )
  )

  (module resistance-grospad:Resistor_Horizontal_RM7mm-pad2mm (layer F.Cu) (tedit 5D2B2D19) (tstamp 5D2B2A8E)
    (at 43.33 74.47)
    (descr "Resistor, Axial,  RM 7.62mm, 1/3W,")
    (tags "Resistor Axial RM 7.62mm 1/3W R3")
    (path /5D3B8FE8)
    (fp_text reference R104 (at 4.05892 -3.50012) (layer F.SilkS)
      (effects (font (size 1 1) (thickness 0.15)))
    )
    (fp_text value 220 (at 4.17 0.03) (layer F.Fab)
      (effects (font (size 1 1) (thickness 0.15)))
    )
    (fp_line (start -1.25 -1.5) (end 8.85 -1.5) (layer F.CrtYd) (width 0.05))
    (fp_line (start -1.25 1.5) (end -1.25 -1.5) (layer F.CrtYd) (width 0.05))
    (fp_line (start 8.85 -1.5) (end 8.85 1.5) (layer F.CrtYd) (width 0.05))
    (fp_line (start -1.25 1.5) (end 8.85 1.5) (layer F.CrtYd) (width 0.05))
    (fp_line (start 1.27 -1.27) (end 6.35 -1.27) (layer F.SilkS) (width 0.15))
    (fp_line (start 6.35 -1.27) (end 6.35 1.27) (layer F.SilkS) (width 0.15))
    (fp_line (start 6.35 1.27) (end 1.27 1.27) (layer F.SilkS) (width 0.15))
    (fp_line (start 1.27 1.27) (end 1.27 -1.27) (layer F.SilkS) (width 0.15))
    (pad 1 thru_hole rect (at 0 0) (size 2 2) (drill 1.00076) (layers *.Cu *.SilkS *.Mask)
      (net 8 "Net-(C102-Pad2)"))
    (pad 2 thru_hole rect (at 7.62 0) (size 2 2) (drill 1.00076) (layers *.Cu *.SilkS *.Mask)
      (net 19 "Net-(R104-Pad2)"))
    (model ${KISYS3DMOD}/Resistor_THT.3dshapes/R_Axial_DIN0204_L3.6mm_D1.6mm_P7.62mm_Horizontal.step
      (at (xyz 0 0 0))
      (scale (xyz 1 1 1))
      (rotate (xyz 0 0 0))
    )
  )

  (module resistance-grospad:pot-RK163-grospad (layer F.Cu) (tedit 5C337299) (tstamp 5D2B2BA2)
    (at 42.25 86.5 270)
    (descr "Potentiometer, vertically mounted, Omeg PC16PU, Omeg PC16PU, Omeg PC16PU, Vishay/Spectrol 248GJ/249GJ Single, Vishay/Spectrol 248GJ/249GJ Single, Vishay/Spectrol 248GJ/249GJ Single, Vishay/Spectrol 248GH/249GH Single, Vishay/Spectrol 148/149 Single, Vishay/Spectrol 148/149 Single, Vishay/Spectrol 148/149 Single, Vishay/Spectrol 148A/149A Single with mounting plates, Vishay/Spectrol 148/149 Double, Vishay/Spectrol 148A/149A Double with mounting plates, Piher PC-16 Single, Piher PC-16 Single, Piher PC-16 Single, Piher PC-16SV Single, Piher PC-16 Double, Piher PC-16 Triple, Piher T16H Single, Piher T16L Single, Piher T16H Double, Alps RK163 Single, http://www.alps.com/prod/info/E/PDF/Potentiometer/MetalShaft/RK163/RK163.PDF")
    (tags "Potentiometer vertical  Omeg PC16PU  Omeg PC16PU  Omeg PC16PU  Vishay/Spectrol 248GJ/249GJ Single  Vishay/Spectrol 248GJ/249GJ Single  Vishay/Spectrol 248GJ/249GJ Single  Vishay/Spectrol 248GH/249GH Single  Vishay/Spectrol 148/149 Single  Vishay/Spectrol 148/149 Single  Vishay/Spectrol 148/149 Single  Vishay/Spectrol 148A/149A Single with mounting plates  Vishay/Spectrol 148/149 Double  Vishay/Spectrol 148A/149A Double with mounting plates  Piher PC-16 Single  Piher PC-16 Single  Piher PC-16 Single  Piher PC-16SV Single  Piher PC-16 Double  Piher PC-16 Triple  Piher T16H Single  Piher T16L Single  Piher T16H Double  Alps RK163 Single")
    (path /5D38EE00)
    (fp_text reference RV102 (at 0 -15.2 270) (layer F.SilkS)
      (effects (font (size 1 1) (thickness 0.15)))
    )
    (fp_text value volume (at 0 5.2 270) (layer F.Fab)
      (effects (font (size 1 1) (thickness 0.15)))
    )
    (fp_line (start -6.7 -13.95) (end -6.7 3.95) (layer F.Fab) (width 0.1))
    (fp_line (start -6.7 3.95) (end 3.8 3.95) (layer F.Fab) (width 0.1))
    (fp_line (start 3.8 3.95) (end 3.8 -13.95) (layer F.Fab) (width 0.1))
    (fp_line (start 3.8 -13.95) (end -6.7 -13.95) (layer F.Fab) (width 0.1))
    (fp_line (start 3.8 -8.5) (end 3.8 -1.5) (layer F.Fab) (width 0.1))
    (fp_line (start 3.8 -1.5) (end 8.8 -1.5) (layer F.Fab) (width 0.1))
    (fp_line (start 8.8 -1.5) (end 8.8 -8.5) (layer F.Fab) (width 0.1))
    (fp_line (start 8.8 -8.5) (end 3.8 -8.5) (layer F.Fab) (width 0.1))
    (fp_line (start 8.8 -8) (end 8.8 -2) (layer F.Fab) (width 0.1))
    (fp_line (start 8.8 -2) (end 18.8 -2) (layer F.Fab) (width 0.1))
    (fp_line (start 18.8 -2) (end 18.8 -8) (layer F.Fab) (width 0.1))
    (fp_line (start 18.8 -8) (end 8.8 -8) (layer F.Fab) (width 0.1))
    (fp_line (start -6.76 -14.01) (end 3.86 -14.01) (layer F.SilkS) (width 0.12))
    (fp_line (start -6.76 4.011) (end 3.86 4.011) (layer F.SilkS) (width 0.12))
    (fp_line (start -6.76 -14.01) (end -6.76 4.011) (layer F.SilkS) (width 0.12))
    (fp_line (start 3.86 -14.01) (end 3.86 4.011) (layer F.SilkS) (width 0.12))
    (fp_line (start 3.86 -8.56) (end 8.86 -8.56) (layer F.SilkS) (width 0.12))
    (fp_line (start 3.86 -1.44) (end 8.86 -1.44) (layer F.SilkS) (width 0.12))
    (fp_line (start 3.86 -8.56) (end 3.86 -1.44) (layer F.SilkS) (width 0.12))
    (fp_line (start 8.86 -8.56) (end 8.86 -1.44) (layer F.SilkS) (width 0.12))
    (fp_line (start 8.86 -8.06) (end 18.86 -8.06) (layer F.SilkS) (width 0.12))
    (fp_line (start 8.86 -1.94) (end 18.86 -1.94) (layer F.SilkS) (width 0.12))
    (fp_line (start 8.86 -8.06) (end 8.86 -1.94) (layer F.SilkS) (width 0.12))
    (fp_line (start 18.86 -8.06) (end 18.86 -1.94) (layer F.SilkS) (width 0.12))
    (fp_line (start -6.95 -14.2) (end -6.95 4.2) (layer F.CrtYd) (width 0.05))
    (fp_line (start -6.95 4.2) (end 19.05 4.2) (layer F.CrtYd) (width 0.05))
    (fp_line (start 19.05 4.2) (end 19.05 -14.2) (layer F.CrtYd) (width 0.05))
    (fp_line (start 19.05 -14.2) (end -6.95 -14.2) (layer F.CrtYd) (width 0.05))
    (pad 3 thru_hole rect (at 0 -10 270) (size 3 3) (drill 1.3) (layers *.Cu *.Mask)
      (net 19 "Net-(R104-Pad2)"))
    (pad 2 thru_hole rect (at 0 -5 270) (size 3 3) (drill 1.3) (layers *.Cu *.Mask)
      (net 20 "Net-(R106-Pad2)"))
    (pad 1 thru_hole rect (at 0 0 270) (size 3 3) (drill 1.3) (layers *.Cu *.Mask)
      (net 1 GND))
    (model Potentiometers.3dshapes/Potentiometer_Alps_RK163_Single_Vertical.wrl
      (at (xyz 0 0 0))
      (scale (xyz 1 1 1))
      (rotate (xyz 0 0 0))
    )
  )

  (module resistance-grospad:DIP-8_W7.62mm_GrosPads (layer F.Cu) (tedit 5C6A5CDA) (tstamp 5D2B2BFF)
    (at 54.75 65.5)
    (descr "8-lead dip package, row spacing 7.62 mm (300 mils), longer pads")
    (tags "dil dip 2.54 300")
    (path /596AAB42)
    (fp_text reference U101 (at 0 -5.22) (layer F.SilkS)
      (effects (font (size 1 1) (thickness 0.15)))
    )
    (fp_text value ne5532 (at 3.8 3.93 90) (layer F.Fab)
      (effects (font (size 1 1) (thickness 0.15)))
    )
    (fp_line (start -1.4 -2.45) (end -1.4 10.1) (layer F.CrtYd) (width 0.05))
    (fp_line (start 9 -2.45) (end 9 10.1) (layer F.CrtYd) (width 0.05))
    (fp_line (start -1.4 -2.45) (end 9 -2.45) (layer F.CrtYd) (width 0.05))
    (fp_line (start -1.4 10.1) (end 9 10.1) (layer F.CrtYd) (width 0.05))
    (fp_line (start 0.135 -2.295) (end 0.135 -1.025) (layer F.SilkS) (width 0.15))
    (fp_line (start 7.485 -2.295) (end 7.485 -1.025) (layer F.SilkS) (width 0.15))
    (fp_line (start 7.485 9.915) (end 7.485 8.645) (layer F.SilkS) (width 0.15))
    (fp_line (start 0.135 9.915) (end 0.135 8.645) (layer F.SilkS) (width 0.15))
    (fp_line (start 0.135 -2.295) (end 7.485 -2.295) (layer F.SilkS) (width 0.15))
    (fp_line (start 0.135 9.915) (end 7.485 9.915) (layer F.SilkS) (width 0.15))
    (fp_line (start 0.135 -1.025) (end -1.15 -1.025) (layer F.SilkS) (width 0.15))
    (pad 1 thru_hole rect (at 0 0) (size 2 2) (drill 0.8) (layers *.Cu *.Mask F.SilkS)
      (net 9 "Net-(C104-Pad1)"))
    (pad 2 thru_hole rect (at 0 2.54) (size 2 2) (drill 0.8) (layers *.Cu *.Mask F.SilkS)
      (net 10 "Net-(C104-Pad2)"))
    (pad 3 thru_hole rect (at 0 5.08) (size 2 2) (drill 0.8) (layers *.Cu *.Mask F.SilkS)
      (net 20 "Net-(R106-Pad2)"))
    (pad 4 thru_hole rect (at 0 7.62) (size 2 2) (drill 0.8) (layers *.Cu *.Mask F.SilkS)
      (net 3 -v))
    (pad 5 thru_hole rect (at 7.62 7.62) (size 2 2) (drill 0.8) (layers *.Cu *.Mask F.SilkS)
      (net 1 GND))
    (pad 6 thru_hole rect (at 7.62 5.08) (size 2 2) (drill 0.8) (layers *.Cu *.Mask F.SilkS)
      (net 14 "Net-(C106-Pad2)"))
    (pad 7 thru_hole rect (at 7.62 2.54) (size 2 2) (drill 0.8) (layers *.Cu *.Mask F.SilkS)
      (net 16 "Net-(C108-Pad1)"))
    (pad 8 thru_hole rect (at 7.62 0) (size 2 2) (drill 0.8) (layers *.Cu *.Mask F.SilkS)
      (net 2 +v))
    (model ${KISYS3DMOD}/Package_DIP.3dshapes/DIP-8_W7.62mm.step
      (at (xyz 0 0 0))
      (scale (xyz 1 1 1))
      (rotate (xyz 0 0 0))
    )
  )

  (module resistance-grospad:LED_D2.0mm_W4.0mm_H2.8mm_FlatTop-pad2mm (layer F.Cu) (tedit 5D2AD655) (tstamp 5D2C5398)
    (at 91.6 54 180)
    (descr "LED, Round, FlatTop,  Rectangular size 4.0x2.8mm^2 diameter 2.0mm, 2 pins, http://www.kingbright.com/attachments/file/psearch/000/00/00/L-1034IDT(Ver.9A).pdf")
    (tags "LED Round FlatTop  Rectangular size 4.0x2.8mm^2 diameter 2.0mm 2 pins")
    (path /5C314EF7)
    (fp_text reference J103 (at 1.27 -2.46 180) (layer F.SilkS)
      (effects (font (size 1 1) (thickness 0.15)))
    )
    (fp_text value MASTER-BUS (at 1.5 -0.06 180) (layer F.Fab)
      (effects (font (size 1 1) (thickness 0.15)))
    )
    (fp_line (start 3.7 -1.75) (end -1.15 -1.75) (layer F.CrtYd) (width 0.05))
    (fp_line (start 3.7 1.75) (end 3.7 -1.75) (layer F.CrtYd) (width 0.05))
    (fp_line (start -1.15 1.75) (end 3.7 1.75) (layer F.CrtYd) (width 0.05))
    (fp_line (start -1.15 -1.75) (end -1.15 1.75) (layer F.CrtYd) (width 0.05))
    (fp_line (start -0.55 1.08) (end -0.55 1.46) (layer F.SilkS) (width 0.12))
    (fp_line (start -0.55 -1.46) (end -0.55 -1.08) (layer F.SilkS) (width 0.12))
    (fp_line (start -0.67 1.08) (end -0.67 1.46) (layer F.SilkS) (width 0.12))
    (fp_line (start -0.67 -1.46) (end -0.67 -1.08) (layer F.SilkS) (width 0.12))
    (fp_line (start 3.33 0.825) (end 3.33 1.46) (layer F.SilkS) (width 0.12))
    (fp_line (start 3.33 -1.46) (end 3.33 -0.825) (layer F.SilkS) (width 0.12))
    (fp_line (start -0.79 1.08) (end -0.79 1.46) (layer F.SilkS) (width 0.12))
    (fp_line (start -0.79 -1.46) (end -0.79 -1.08) (layer F.SilkS) (width 0.12))
    (fp_line (start -0.79 1.46) (end 3.33 1.46) (layer F.SilkS) (width 0.12))
    (fp_line (start -0.79 -1.46) (end 3.33 -1.46) (layer F.SilkS) (width 0.12))
    (fp_line (start 3.27 -1.4) (end -0.73 -1.4) (layer F.Fab) (width 0.1))
    (fp_line (start 3.27 1.4) (end 3.27 -1.4) (layer F.Fab) (width 0.1))
    (fp_line (start -0.73 1.4) (end 3.27 1.4) (layer F.Fab) (width 0.1))
    (fp_line (start -0.73 -1.4) (end -0.73 1.4) (layer F.Fab) (width 0.1))
    (fp_circle (center 1.27 0) (end 2.27 0) (layer F.Fab) (width 0.1))
    (pad 2 thru_hole rect (at 2.54 0 180) (size 2 2) (drill 0.9) (layers *.Cu *.Mask)
      (net 4 /GND-MAS))
    (pad 1 thru_hole rect (at 0 0 180) (size 2 2) (drill 0.9) (layers *.Cu *.Mask)
      (net 5 /MAS))
    (model ${KISYS3DMOD}/LEDs.3dshapes/LED_D2.0mm_W4.0mm_H2.8mm_FlatTop.wrl
      (at (xyz 0 0 0))
      (scale (xyz 0.393701 0.393701 0.393701))
      (rotate (xyz 0 0 0))
    )
  )

  (module resistance-grospad:Resistor_Horizontal_RM7mm-pad2mm (layer F.Cu) (tedit 5D2B4F4D) (tstamp 5D2C53A6)
    (at 86.6 61.6 90)
    (descr "Resistor, Axial,  RM 7.62mm, 1/3W,")
    (tags "Resistor Axial RM 7.62mm 1/3W R3")
    (path /5D2FDFFC)
    (fp_text reference R118 (at 4.05892 -3.50012 90) (layer F.SilkS)
      (effects (font (size 1 1) (thickness 0.15)))
    )
    (fp_text value 75 (at 5.4 -0.4 90) (layer F.Fab)
      (effects (font (size 1 1) (thickness 0.15)))
    )
    (fp_line (start 1.27 1.27) (end 1.27 -1.27) (layer F.SilkS) (width 0.15))
    (fp_line (start 6.35 1.27) (end 1.27 1.27) (layer F.SilkS) (width 0.15))
    (fp_line (start 6.35 -1.27) (end 6.35 1.27) (layer F.SilkS) (width 0.15))
    (fp_line (start 1.27 -1.27) (end 6.35 -1.27) (layer F.SilkS) (width 0.15))
    (fp_line (start -1.25 1.5) (end 8.85 1.5) (layer F.CrtYd) (width 0.05))
    (fp_line (start 8.85 -1.5) (end 8.85 1.5) (layer F.CrtYd) (width 0.05))
    (fp_line (start -1.25 1.5) (end -1.25 -1.5) (layer F.CrtYd) (width 0.05))
    (fp_line (start -1.25 -1.5) (end 8.85 -1.5) (layer F.CrtYd) (width 0.05))
    (pad 2 thru_hole rect (at 7.62 0 90) (size 2 2) (drill 1.00076) (layers *.Cu *.SilkS *.Mask)
      (net 4 /GND-MAS))
    (pad 1 thru_hole rect (at 0 0 90) (size 2 2) (drill 1.00076) (layers *.Cu *.SilkS *.Mask)
      (net 1 GND))
    (model ${KISYS3DMOD}/Resistor_THT.3dshapes/R_Axial_DIN0204_L3.6mm_D1.6mm_P7.62mm_Horizontal.step
      (at (xyz 0 0 0))
      (scale (xyz 1 1 1))
      (rotate (xyz 0 0 0))
    )
  )

  (dimension 39.450324 (width 0.3) (layer B.SilkS)
    (gr_text "39,450 mm" (at 28.197074 70.277931 89.76762295) (layer B.SilkS)
      (effects (font (size 1.5 1.5) (thickness 0.3)))
    )
    (feature1 (pts (xy 108.92 50.88) (xy 29.790641 50.55907)))
    (feature2 (pts (xy 108.76 90.33) (xy 29.630641 90.00907)))
    (crossbar (pts (xy 30.217057 90.011448) (xy 30.377057 50.561448)))
    (arrow1a (pts (xy 30.377057 50.561448) (xy 30.958904 51.690321)))
    (arrow1b (pts (xy 30.377057 50.561448) (xy 29.786072 51.685564)))
    (arrow2a (pts (xy 30.217057 90.011448) (xy 30.808042 88.887332)))
    (arrow2b (pts (xy 30.217057 90.011448) (xy 29.63521 88.882575)))
  )

  (segment (start 42.25 86.5) (end 42.25 84.73) (width 2) (layer B.Cu) (net 1) (status 400000))
  (segment (start 42.25 84.73) (end 39.485 81.965) (width 2) (layer B.Cu) (net 1) (tstamp 5D2BE4D8))
  (segment (start 39.485 81.965) (end 40.44 82.92) (width 2) (layer B.Cu) (net 1) (tstamp 5D2BA533))
  (segment (start 40.44 82.92) (end 38.52 81) (width 2) (layer B.Cu) (net 1) (tstamp 5D2BA52B))
  (segment (start 38.52 80.02) (end 38.52 79.31) (width 2) (layer B.Cu) (net 1) (tstamp 5D2C71BB))
  (segment (start 38.52 79.31) (end 38.52 76.82) (width 2) (layer B.Cu) (net 1) (tstamp 5D2BE4E3))
  (segment (start 38.52 81) (end 38.52 80.02) (width 2) (layer B.Cu) (net 1) (tstamp 5D2BE4D9))
  (segment (start 38.52 77.82) (end 38.52 76.66) (width 2) (layer B.Cu) (net 1) (tstamp 5D2BE4E8))
  (segment (start 38.52 76.66) (end 38.52 75.01) (width 2) (layer B.Cu) (net 1) (tstamp 5D2C71B6))
  (segment (start 38.52 75.01) (end 38.52 74.09) (width 2) (layer B.Cu) (net 1) (tstamp 5D2BA538))
  (segment (start 38.52 74.09) (end 38.52 73.55) (width 2) (layer B.Cu) (net 1) (tstamp 5D2BA526))
  (segment (start 38.52 73.55) (end 38.52 71.44) (width 2) (layer B.Cu) (net 1))
  (segment (start 38.52 71.44) (end 38.52 55.69) (width 2) (layer B.Cu) (net 1))
  (segment (start 39.33 54.88) (end 38.52 55.69) (width 2) (layer B.Cu) (net 1) (tstamp 5D2B46BB) (status 400000))
  (segment (start 39.33 54.88) (end 39.33 54.54) (width 2) (layer B.Cu) (net 1) (status C00000))
  (segment (start 38.52 71.44) (end 38.52 59.59) (width 2) (layer B.Cu) (net 1))
  (segment (start 40.915 77.21) (end 40.295 77.21) (width 2) (layer B.Cu) (net 1) (status C00030))
  (segment (start 40.295 77.21) (end 38.52 76.66) (width 2) (layer B.Cu) (net 1) (tstamp 5D2C71B3) (status 400010))
  (segment (start 40.915 77.21) (end 40.915 77.39) (width 2) (layer B.Cu) (net 1) (status C00030))
  (segment (start 42.25 88.07) (end 42.25 86.5) (width 2) (layer B.Cu) (net 1) (tstamp 5D2B46CC) (status 800000))
  (segment (start 43.69 89.51) (end 42.25 88.07) (width 2) (layer B.Cu) (net 1) (tstamp 5D2B46CB))
  (segment (start 55.19 89.51) (end 56.9 89.51) (width 2) (layer B.Cu) (net 1) (tstamp 5D2B46CA))
  (segment (start 56.9 89.51) (end 57.19 89.51) (width 2) (layer B.Cu) (net 1) (tstamp 5D2CAA83))
  (segment (start 62.37 76.08) (end 62.37 73.12) (width 2) (layer B.Cu) (net 1) (status 800000))
  (segment (start 62.37 76.08) (end 59.44 79.01) (width 2) (layer B.Cu) (net 1) (tstamp 5D2B46C7))
  (segment (start 59.44 79.01) (end 59.44 87.26) (width 2) (layer B.Cu) (net 1) (tstamp 5D2B46C8))
  (segment (start 59.44 87.26) (end 57.19 89.51) (width 2) (layer B.Cu) (net 1) (tstamp 5D2B46C9))
  (segment (start 55.19 89.51) (end 43.69 89.51) (width 2) (layer B.Cu) (net 1) (tstamp 5D2B46CF))
  (segment (start 40.915 77.21) (end 40.915 76.485) (width 2) (layer B.Cu) (net 1) (status C00000))
  (segment (start 40.915 76.485) (end 38.52 74.09) (width 2) (layer B.Cu) (net 1) (tstamp 5D2BA523) (status 400000))
  (segment (start 40.915 77.21) (end 40.915 83.395) (width 2) (layer B.Cu) (net 1) (status 400000))
  (segment (start 40.44 83.01) (end 40.44 82.92) (width 2) (layer B.Cu) (net 1) (tstamp 5D2BA52A))
  (segment (start 40.53 83.01) (end 40.44 83.01) (width 2) (layer B.Cu) (net 1) (tstamp 5D2BA529))
  (segment (start 40.915 83.395) (end 40.53 83.01) (width 2) (layer B.Cu) (net 1) (tstamp 5D2BA528))
  (segment (start 39.485 81.965) (end 39.485 75.055) (width 2) (layer B.Cu) (net 1))
  (segment (start 39.44 75.01) (end 38.52 75.01) (width 2) (layer B.Cu) (net 1) (tstamp 5D2BA537))
  (segment (start 39.485 75.055) (end 39.44 75.01) (width 2) (layer B.Cu) (net 1) (tstamp 5D2BA535))
  (segment (start 86.6 60.6) (end 89.9 60.6) (width 2) (layer B.Cu) (net 1) (status 400000))
  (segment (start 56.9 89.51) (end 84.89 89.51) (width 2) (layer B.Cu) (net 1))
  (segment (start 84.89 89.51) (end 87.5 86.9) (width 2) (layer B.Cu) (net 1) (tstamp 5D2CAA85))
  (segment (start 87.5 86.9) (end 87.5 62.9) (width 2) (layer B.Cu) (net 1) (tstamp 5D2CAA86))
  (segment (start 87.5 62.9) (end 87.5 61.5) (width 2) (layer B.Cu) (net 1) (tstamp 5D2CAA91) (status 800000))
  (segment (start 87.5 61.5) (end 86.6 60.6) (width 2) (layer B.Cu) (net 1) (tstamp 5D2CAA87) (status C00000))
  (segment (start 89.9 60.6) (end 88.4 60.6) (width 2) (layer B.Cu) (net 1))
  (segment (start 88.4 60.6) (end 87.5 61.5) (width 2) (layer B.Cu) (net 1) (tstamp 5D2CAA8D) (status 800000))
  (segment (start 87.5 61.5) (end 86.6 60.6) (width 2) (layer B.Cu) (net 1) (tstamp 5D2CAA8F) (status C00000))
  (segment (start 87.5 62.9) (end 87.6 62.9) (width 2) (layer B.Cu) (net 1))
  (segment (start 87.6 62.9) (end 89.9 60.6) (width 2) (layer B.Cu) (net 1) (tstamp 5D2CAA93))
  (segment (start 102.34 60.6) (end 89.9 60.6) (width 2) (layer B.Cu) (net 1))
  (segment (start 103.6 60.6) (end 102.34 60.6) (width 2) (layer B.Cu) (net 1))
  (via (at 103.6 60.6) (size 0.8) (drill 0.4) (layers F.Cu B.Cu) (net 1))
  (segment (start 62.35 65.519998) (end 62.37 65.539998) (width 2) (layer B.Cu) (net 2) (tstamp 5D2E9B84) (status C00000))
  (segment (start 62.37 65.539998) (end 62.37 65.5) (width 2) (layer B.Cu) (net 2) (tstamp 5D2E9B86) (status C00000))
  (segment (start 63.85 65.5) (end 65.19 62.01) (width 2) (layer B.Cu) (net 2) (status 20))
  (segment (start 62.37 65.5) (end 63.85 65.5) (width 2) (layer B.Cu) (net 2))
  (segment (start 64.74 63.13) (end 62.37 65.5) (width 2) (layer B.Cu) (net 2))
  (segment (start 65.07 61.98) (end 63.66 61.98) (width 2) (layer B.Cu) (net 2) (status C00000))
  (segment (start 63.66 61.98) (end 63.4 61.72) (width 2) (layer B.Cu) (net 2) (tstamp 5D2BBD73) (status C00000))
  (segment (start 62.37 65.5) (end 62.37 62.75) (width 2) (layer B.Cu) (net 2) (status 400000))
  (segment (start 62.37 62.75) (end 63.4 61.72) (width 2) (layer B.Cu) (net 2) (tstamp 5D2BBD76) (status 800000))
  (segment (start 58.69 72.18) (end 58.69 63.41) (width 2) (layer B.Cu) (net 3))
  (segment (start 57.75 73.12) (end 58.69 72.18) (width 2) (layer B.Cu) (net 3))
  (segment (start 58.69 63.41) (end 57.24 61.96) (width 2) (layer B.Cu) (net 3))
  (segment (start 54.75 73.12) (end 57.75 73.12) (width 2) (layer B.Cu) (net 3))
  (segment (start 57.365 61.835) (end 57.24 61.96) (width 2) (layer B.Cu) (net 3) (tstamp 5D2B527C) (status C00000))
  (segment (start 57.365 62.085) (end 58.69 63.41) (width 2) (layer B.Cu) (net 3) (tstamp 5D2B527F) (status 400000))
  (segment (start 89.06 54) (end 86.62 54) (width 2) (layer B.Cu) (net 4) (status C00000))
  (segment (start 86.62 54) (end 86.6 53.98) (width 2) (layer B.Cu) (net 4) (tstamp 5D2C90D6) (status C00000))
  (segment (start 93.8 53.9) (end 91.7 53.9) (width 2) (layer B.Cu) (net 5) (status C00000))
  (segment (start 91.7 53.9) (end 91.6 54) (width 2) (layer B.Cu) (net 5) (tstamp 5D2C9199) (status C00000))
  (segment (start 41.87 54.54) (end 41.87 56.61) (width 2) (layer B.Cu) (net 7) (status C00000))
  (segment (start 41.87 63.61) (end 41.87 69.1) (width 2) (layer B.Cu) (net 8) (status 400000))
  (segment (start 41.87 69.1) (end 41.87 72.8) (width 2) (layer B.Cu) (net 8) (tstamp 5D356F1A) (status 800000))
  (segment (start 41.87 72.8) (end 42.27 73.2) (width 2) (layer B.Cu) (net 8) (tstamp 5D356F11) (status C00000))
  (segment (start 46.05 70.53) (end 44.94 70.53) (width 2) (layer B.Cu) (net 8) (status 400000))
  (segment (start 44.94 70.53) (end 42.27 73.2) (width 2) (layer B.Cu) (net 8) (tstamp 5D356F14) (status 800000))
  (segment (start 46.05 70.53) (end 43.3 70.53) (width 2) (layer B.Cu) (net 8) (status 400000))
  (segment (start 43.3 70.53) (end 41.87 69.1) (width 2) (layer B.Cu) (net 8) (tstamp 5D356F17))
  (segment (start 43.33 74.47) (end 43.33 73.25) (width 2) (layer B.Cu) (net 8) (status 400000))
  (segment (start 43.33 73.25) (end 46.05 70.53) (width 2) (layer B.Cu) (net 8) (tstamp 5D358DCF) (status 800000))
  (segment (start 41.87 72.8) (end 41.87 73.01) (width 2) (layer B.Cu) (net 8))
  (segment (start 41.87 73.01) (end 43.33 74.47) (width 2) (layer B.Cu) (net 8) (tstamp 5D358DD8) (status 800000))
  (segment (start 54.75 65.5) (end 54.47 65.5) (width 2) (layer B.Cu) (net 9) (status C00000))
  (segment (start 54.47 65.5) (end 49.35 60.38) (width 2) (layer B.Cu) (net 9) (tstamp 5D2B6AD8) (status C00000))
  (segment (start 51.6 63) (end 51.6 60.42) (width 2) (layer B.Cu) (net 9) (status 400000))
  (segment (start 51.6 60.42) (end 54.41 57.61) (width 2) (layer B.Cu) (net 9) (tstamp 5D2BD0D4))
  (segment (start 49.35 60.38) (end 51.56 60.38) (width 2) (layer B.Cu) (net 9) (status 400000))
  (segment (start 51.56 60.38) (end 51.6 60.42) (width 2) (layer B.Cu) (net 9) (tstamp 5D2BD0D9))
  (segment (start 54.41 57.61) (end 75.625 57.61) (width 2) (layer B.Cu) (net 9))
  (segment (start 75.625 57.61) (end 76.81 57.61) (width 2) (layer B.Cu) (net 9))
  (segment (start 80.01 59.525) (end 80.01 57.81) (width 2) (layer B.Cu) (net 9))
  (segment (start 81.86 57.675) (end 80.01 59.525) (width 2) (layer B.Cu) (net 9))
  (segment (start 80.01 60.81) (end 80.01 59.525) (width 2) (layer B.Cu) (net 9))
  (segment (start 99.325 57.675) (end 84.3 57.675) (width 2) (layer B.Cu) (net 9))
  (segment (start 80.145 57.675) (end 80.01 57.81) (width 2) (layer B.Cu) (net 9))
  (segment (start 84.3 57.675) (end 80.145 57.675) (width 2) (layer B.Cu) (net 9))
  (segment (start 84.3 57.675) (end 81.86 57.675) (width 2) (layer B.Cu) (net 9))
  (segment (start 79.81 57.61) (end 78.05 57.61) (width 2) (layer B.Cu) (net 9))
  (segment (start 80.01 57.81) (end 79.81 57.61) (width 2) (layer B.Cu) (net 9))
  (segment (start 75.625 57.61) (end 78.05 57.61) (width 2) (layer B.Cu) (net 9))
  (segment (start 78.595 57.61) (end 80.01 59.025) (width 2) (layer B.Cu) (net 9))
  (segment (start 75.625 57.61) (end 78.595 57.61) (width 2) (layer B.Cu) (net 9))
  (segment (start 80.01 59.025) (end 80.01 57.81) (width 2) (layer B.Cu) (net 9))
  (segment (start 80.01 60.81) (end 80.01 59.025) (width 2) (layer B.Cu) (net 9))
  (segment (start 54.75 68.04) (end 49.41 68.04) (width 2) (layer B.Cu) (net 10))
  (segment (start 49.35 68) (end 48.86 68) (width 2) (layer B.Cu) (net 10) (status C00000))
  (segment (start 48.86 68) (end 46.32 65.46) (width 2) (layer B.Cu) (net 10) (tstamp 5D2C8092) (status C00000))
  (segment (start 78.29 76.76) (end 79.96 76.76) (width 2) (layer B.Cu) (net 11) (status C00000))
  (segment (start 79.96 76.76) (end 80.01 76.81) (width 2) (layer B.Cu) (net 11) (tstamp 5D2BCCFB) (status C00000))
  (segment (start 77.25 86.5) (end 77.25 80.15) (width 2) (layer B.Cu) (net 11) (status 400000))
  (segment (start 77.25 80.15) (end 77.25 77.8) (width 2) (layer B.Cu) (net 11) (tstamp 5D2CAAA6))
  (segment (start 77.25 77.8) (end 78.29 76.76) (width 2) (layer B.Cu) (net 11) (tstamp 5D2CAAA0) (status 800000))
  (segment (start 80.01 76.81) (end 80.01 77.39) (width 2) (layer B.Cu) (net 11) (status C00000))
  (segment (start 80.01 77.39) (end 77.25 80.15) (width 2) (layer B.Cu) (net 11) (tstamp 5D2CAAA3) (status 400000))
  (segment (start 67.25 76.52) (end 65.99 75.66) (width 2) (layer B.Cu) (net 12) (status 10))
  (segment (start 67.25 86.5) (end 67.25 75.52) (width 2) (layer B.Cu) (net 12) (status 20))
  (segment (start 97.5 86.5) (end 97.5 74.57) (width 2) (layer B.Cu) (net 13) (status 400000))
  (segment (start 97.5 74.57) (end 94.915 71.985) (width 2) (layer B.Cu) (net 13) (tstamp 5D2CAA79) (status 800000))
  (segment (start 83.915 71.985) (end 79.315 71.985) (width 2) (layer B.Cu) (net 14) (status 400000))
  (segment (start 79.315 71.985) (end 77.985 71.985) (width 2) (layer B.Cu) (net 14) (tstamp 5D2CAAB8))
  (segment (start 77.985 71.985) (end 76.540002 70.540002) (width 2) (layer B.Cu) (net 14) (tstamp 5D2CAAB1))
  (segment (start 76.540002 70.540002) (end 74.940002 70.540002) (width 2) (layer B.Cu) (net 14) (tstamp 5D2CAAB2))
  (segment (start 62.37 70.540002) (end 62.37 70.58) (width 2) (layer B.Cu) (net 14) (tstamp 5D2CAAB4) (status C00000))
  (segment (start 74.940002 70.540002) (end 62.37 70.540002) (width 2) (layer B.Cu) (net 14) (tstamp 5D2CAABD) (status 800000))
  (segment (start 77.415 73.41) (end 77.89 73.41) (width 2) (layer B.Cu) (net 14) (status C00000))
  (segment (start 77.89 73.41) (end 79.315 71.985) (width 2) (layer B.Cu) (net 14) (tstamp 5D2CAAB5) (status 400000))
  (segment (start 77.415 73.41) (end 77.415 73.015) (width 2) (layer B.Cu) (net 14) (status C00000))
  (segment (start 77.415 73.015) (end 74.940002 70.540002) (width 2) (layer B.Cu) (net 14) (tstamp 5D2CAABA) (status 400000))
  (segment (start 95.3 64.9) (end 90.96 64.9) (width 2) (layer B.Cu) (net 15) (tstamp 5D2CAF0D) (status 800000))
  (segment (start 90.96 64.9) (end 90.81 64.75) (width 2) (layer B.Cu) (net 15) (tstamp 5D2CAA5D) (status C00000))
  (segment (start 93.8 65.98) (end 92.58 65.98) (width 2) (layer B.Cu) (net 15) (status 400000))
  (segment (start 91.5 64.9) (end 90.81 64.75) (width 2) (layer B.Cu) (net 15) (tstamp 5D2CAF08) (status C00000))
  (segment (start 92.58 65.98) (end 91.5 64.9) (width 2) (layer B.Cu) (net 15) (tstamp 5D2CAF06) (status 800000))
  (segment (start 93.8 65.98) (end 94.62 65.98) (width 2) (layer B.Cu) (net 15) (status C00000))
  (segment (start 95.3 65.7) (end 95.3 64.9) (width 2) (layer B.Cu) (net 15) (tstamp 5D2CAF0C))
  (segment (start 95.7 65.3) (end 95.3 65.7) (width 2) (layer B.Cu) (net 15) (tstamp 5D2CAF0B))
  (segment (start 95.7 64.9) (end 95.7 65.3) (width 2) (layer B.Cu) (net 15) (tstamp 5D2CAF0A))
  (segment (start 94.62 65.98) (end 95.7 64.9) (width 2) (layer B.Cu) (net 15) (tstamp 5D2CAF09) (status 400000))
  (segment (start 103.6 64.9) (end 95.3 64.9) (width 2) (layer B.Cu) (net 15))
  (via (at 103.6 64.9) (size 0.8) (drill 0.4) (layers F.Cu B.Cu) (net 15))
  (segment (start 83.81 64.75) (end 83.81 65.04) (width 2) (layer B.Cu) (net 16))
  (segment (start 83.81 65.04) (end 82.14 66.71) (width 2) (layer B.Cu) (net 16))
  (segment (start 65.99 68.04) (end 62.37 68.04) (width 2) (layer B.Cu) (net 16))
  (segment (start 68.99 68.04) (end 70.32 66.71) (width 2) (layer B.Cu) (net 16))
  (segment (start 70.32 66.71) (end 78.59 66.71) (width 2) (layer B.Cu) (net 16))
  (segment (start 78.59 66.71) (end 82.14 66.71) (width 2) (layer B.Cu) (net 16))
  (segment (start 65.99 68.04) (end 68.99 68.04) (width 2) (layer B.Cu) (net 16))
  (segment (start 83.62 68.63) (end 83.62 64.94) (width 2) (layer B.Cu) (net 16) (status C00000))
  (segment (start 83.62 64.94) (end 83.81 64.75) (width 2) (layer B.Cu) (net 16) (tstamp 5D2BC32C) (status C00000))
  (segment (start 83.62 68.63) (end 83.62 68.19) (width 2) (layer B.Cu) (net 16) (status C00000))
  (segment (start 83.62 68.19) (end 82.14 66.71) (width 2) (layer B.Cu) (net 16) (tstamp 5D2BC32F) (status 400000))
  (segment (start 65.09 53.36) (end 65.19 53.39) (width 2) (layer B.Cu) (net 17) (status 20))
  (segment (start 57.26 53.36) (end 57.24 53.34) (width 2) (layer B.Cu) (net 18))
  (segment (start 62.55 53.36) (end 57.26 53.36) (width 2) (layer B.Cu) (net 18))
  (segment (start 50.95 74.47) (end 50.95 81.27) (width 2) (layer B.Cu) (net 19) (status 400000))
  (segment (start 52.25 87.009998) (end 52.25 86.5) (width 2) (layer B.Cu) (net 19) (tstamp 5D358DE1) (status C00000))
  (segment (start 52.25 82.57) (end 52.25 87.009998) (width 2) (layer B.Cu) (net 19) (tstamp 5D358DDF) (status 800000))
  (segment (start 50.95 81.27) (end 52.25 82.57) (width 2) (layer B.Cu) (net 19) (tstamp 5D358DDE))
  (segment (start 54.75 70.58) (end 50.63 70.58) (width 2) (layer B.Cu) (net 20) (status 400000))
  (segment (start 46.38 74.83) (end 46.38 77.32) (width 2) (layer B.Cu) (net 20) (tstamp 5D3584E8) (status 800000))
  (segment (start 50.63 70.58) (end 46.38 74.83) (width 2) (layer B.Cu) (net 20) (tstamp 5D3584E7))
  (segment (start 46.38 77.32) (end 46.38 86.139998) (width 2) (layer B.Cu) (net 20) (status C00000))
  (segment (start 47.25 87.009998) (end 47.25 86.5) (width 2) (layer B.Cu) (net 20) (tstamp 5D358DDD) (status C00000))
  (segment (start 46.38 86.139998) (end 47.25 87.009998) (width 2) (layer B.Cu) (net 20) (tstamp 5D358DDB) (status C00000))
  (segment (start 69.795 73.41) (end 72.25 75.865) (width 2) (layer B.Cu) (net 21) (tstamp 5D2B9F67) (status 400000))
  (segment (start 72.25 75.865) (end 72.25 86.5) (width 2) (layer B.Cu) (net 21) (status 800000))
  (segment (start 102.5 86.5) (end 102.5 74.85) (width 2) (layer B.Cu) (net 22) (status 400000))
  (segment (start 102.5 74.85) (end 99.325 71.675) (width 2) (layer B.Cu) (net 22) (tstamp 5D2CAA74) (status 800000))
  (segment (start 92.5 86.5) (end 92.5 75.3) (width 2) (layer B.Cu) (net 23) (status 400000))
  (segment (start 91.24 74.04) (end 91.24 68.63) (width 2) (layer B.Cu) (net 23) (tstamp 5D2CAA7E) (status 800000))
  (segment (start 92.5 75.3) (end 91.24 74.04) (width 2) (layer B.Cu) (net 23) (tstamp 5D2CAA7D))

)
