PCBNEW-LibModule-V1  
# encoding utf-8
Units mm
$INDEX
SIP9
$EndINDEX
$MODULE SIP9
Po 0 0 0 15 00000000 00000000 ~~
Li SIP9
Cd <b>SIP-9</b><p>9 Pin SIP IC
Sc 00000000
At STD
Op 0 0 0
.SolderMask 0
.SolderPaste 0
T0 -9.03354 2.83729 0.80147 0.80147 0 0.05 N V 21 "SIP9"
T1 6.74742 2.95358 0.641561 0.641561 0 0.05 N V 21 "VAL**"
DS -11.43 -1.27 -11.43 1.5875 0.2032 21
DS -11.43 1.5875 -8.89 1.5875 0.2032 21
DS -8.89 1.5875 11.43 1.5875 0.2032 21
DS 11.43 1.5875 11.43 -1.27 0.2032 21
DS 11.43 -1.27 11.43 -1.905 0.2032 21
DS 11.43 -1.905 -8.89 -1.905 0.2032 21
DS -8.89 -1.905 -10.795 -1.905 0.2032 21
DS -10.795 -1.905 -11.43 -1.905 0.2032 21
DS -11.43 -1.27 -10.795 -1.27 0.0508 24
DS -10.795 -1.27 11.43 -1.27 0.0508 24
DS -11.43 -1.905 -11.43 -1.27 0.2032 21
DS -8.89 -1.905 -8.89 1.5875 0.2032 21
DP 0 0 0 0 4 0.381 21
Dl -11.4509 -1.905
Dl -10.795 -1.905
Dl -10.795 -1.27233
Dl -11.4509 -1.27233
$PAD
Sh "1" O 2.6416 1.3208 0 0 900
Dr 0.8128 0 0
At STD N 00E0FFFF
.SolderMask 0
Ne 0 ""
Po -10.16 0
$EndPAD
$PAD
Sh "2" O 2.6416 1.3208 0 0 900
Dr 0.8128 0 0
At STD N 00E0FFFF
.SolderMask 0
Ne 0 ""
Po -7.62 0
$EndPAD
$PAD
Sh "3" O 2.6416 1.3208 0 0 900
Dr 0.8128 0 0
At STD N 00E0FFFF
.SolderMask 0
Ne 0 ""
Po -5.08 0
$EndPAD
$PAD
Sh "4" O 2.6416 1.3208 0 0 900
Dr 0.8128 0 0
At STD N 00E0FFFF
.SolderMask 0
Ne 0 ""
Po -2.54 0
$EndPAD
$PAD
Sh "5" O 2.6416 1.3208 0 0 900
Dr 0.8128 0 0
At STD N 00E0FFFF
.SolderMask 0
Ne 0 ""
Po 0 0
$EndPAD
$PAD
Sh "6" O 2.6416 1.3208 0 0 900
Dr 0.8128 0 0
At STD N 00E0FFFF
.SolderMask 0
Ne 0 ""
Po 2.54 0
$EndPAD
$PAD
Sh "7" O 2.6416 1.3208 0 0 900
Dr 0.8128 0 0
At STD N 00E0FFFF
.SolderMask 0
Ne 0 ""
Po 5.08 0
$EndPAD
$PAD
Sh "8" O 2.6416 1.3208 0 0 900
Dr 0.8128 0 0
At STD N 00E0FFFF
.SolderMask 0
Ne 0 ""
Po 7.62 0
$EndPAD
$PAD
Sh "9" O 2.6416 1.3208 0 0 900
Dr 0.8128 0 0
At STD N 00E0FFFF
.SolderMask 0
Ne 0 ""
Po 10.16 0
$EndPAD
$EndMODULE SIP9
