EESchema Schematic File Version 4
LIBS:Filtre2Voies-cache
EELAYER 26 0
EELAYER END
$Descr A0 46811 33110
encoding utf-8
Sheet 1 1
Title ""
Date ""
Rev ""
Comp ""
Comment1 ""
Comment2 ""
Comment3 ""
Comment4 ""
$EndDescr
Text Notes 19350 7100 0    60   ~ 0
level pot is a trimmer.\nOnce parameter setup, need to be replace by a resistor
$Comp
L Device:C C38
U 1 1 5AAEA52B
P 38850 12200
F 0 "C38" H 38875 12300 50  0000 L CNN
F 1 "CH" H 38875 12100 50  0000 L CNN
F 2 "resistance-grospad:C_Rect_L7.0mm_W2.5mm_P5.00mm-grospad" H 38888 12050 50  0001 C CNN
F 3 "" H 38850 12200 50  0000 C CNN
	1    38850 12200
	0    -1   1    0   
$EndComp
$Comp
L Device:C C36
U 1 1 5AAEA531
P 38450 12200
F 0 "C36" H 38475 12300 50  0000 L CNN
F 1 "CH" H 38475 12100 50  0000 L CNN
F 2 "resistance-grospad:C_Rect_L9.0mm_W2.7mm_P7.50mm_MKT-grospad-padcarre2mm" H 38488 12050 50  0001 C CNN
F 3 "" H 38450 12200 50  0000 C CNN
	1    38450 12200
	0    -1   1    0   
$EndComp
$Comp
L Device:R R34
U 1 1 5AAEA537
P 38250 12750
F 0 "R34" V 38330 12750 50  0000 C CNN
F 1 "RH" V 38250 12750 50  0000 C CNN
F 2 "resistance-grospad:Resistor_Horizontal_RM7mm-pad2mm" V 38180 12750 50  0001 C CNN
F 3 "" H 38250 12750 50  0000 C CNN
	1    38250 12750
	-1   0    0    -1  
$EndComp
$Comp
L Device:R R35
U 1 1 5AAEA53D
P 38250 13100
F 0 "R35" V 38330 13100 50  0000 C CNN
F 1 "RH" V 38250 13100 50  0000 C CNN
F 2 "resistance-grospad:Resistor_Horizontal_RM7mm-pad2mm" V 38180 13100 50  0001 C CNN
F 3 "" H 38250 13100 50  0000 C CNN
	1    38250 13100
	-1   0    0    -1  
$EndComp
$Comp
L Device:R R33
U 1 1 5AAEA549
P 38250 11800
F 0 "R33" V 38330 11800 50  0000 C CNN
F 1 "RH" V 38250 11800 50  0000 C CNN
F 2 "resistance-grospad:Resistor_Horizontal_RM7mm-pad2mm" V 38180 11800 50  0001 C CNN
F 3 "" H 38250 11800 50  0000 C CNN
	1    38250 11800
	0    -1   1    0   
$EndComp
$Comp
L power:GND #PWR?
U 1 1 5AAEA54F
P 38250 13350
F 0 "#PWR?" H 38250 13100 50  0001 C CNN
F 1 "GND" H 38250 13200 50  0000 C CNN
F 2 "" H 38250 13350 50  0000 C CNN
F 3 "" H 38250 13350 50  0000 C CNN
	1    38250 13350
	-1   0    0    -1  
$EndComp
Text GLabel 38050 10600 2    60   Input ~ 0
Vplus
Text GLabel 38050 11200 2    60   Input ~ 0
Vmoins
$Comp
L Device:C C33
U 1 1 5AAEA557
P 36850 12200
F 0 "C33" H 36875 12300 50  0000 L CNN
F 1 "CH" H 36875 12100 50  0000 L CNN
F 2 "resistance-grospad:C_Rect_L7.0mm_W2.5mm_P5.00mm-grospad" H 36888 12050 50  0001 C CNN
F 3 "" H 36850 12200 50  0000 C CNN
	1    36850 12200
	0    -1   1    0   
$EndComp
$Comp
L Device:C C32
U 1 1 5AAEA55D
P 36450 12200
F 0 "C32" H 36475 12300 50  0000 L CNN
F 1 "CH" H 36475 12100 50  0000 L CNN
F 2 "resistance-grospad:C_Rect_L7.0mm_W2.5mm_P5.00mm-grospad" H 36488 12050 50  0001 C CNN
F 3 "" H 36450 12200 50  0000 C CNN
	1    36450 12200
	0    -1   1    0   
$EndComp
$Comp
L Device:R R29
U 1 1 5AAEA563
P 36250 12750
F 0 "R29" V 36330 12750 50  0000 C CNN
F 1 "RH" V 36250 12750 50  0000 C CNN
F 2 "resistance-grospad:Resistor_Horizontal_RM7mm-pad2mm" V 36180 12750 50  0001 C CNN
F 3 "" H 36250 12750 50  0000 C CNN
	1    36250 12750
	-1   0    0    -1  
$EndComp
$Comp
L Device:R R30
U 1 1 5AAEA569
P 36250 13100
F 0 "R30" V 36330 13100 50  0000 C CNN
F 1 "RH" V 36250 13100 50  0000 C CNN
F 2 "resistance-grospad:Resistor_Horizontal_RM16mm-padcarre2mm" V 36180 13100 50  0001 C CNN
F 3 "" H 36250 13100 50  0000 C CNN
	1    36250 13100
	-1   0    0    -1  
$EndComp
$Comp
L Device:R R28
U 1 1 5AAEA575
P 36250 11800
F 0 "R28" V 36330 11800 50  0000 C CNN
F 1 "RH" V 36250 11800 50  0000 C CNN
F 2 "resistance-grospad:Resistor_Horizontal_RM7mm-pad2mm" V 36180 11800 50  0001 C CNN
F 3 "" H 36250 11800 50  0000 C CNN
	1    36250 11800
	0    -1   1    0   
$EndComp
$Comp
L power:GND #PWR?
U 1 1 5AAEA57B
P 36250 13350
F 0 "#PWR?" H 36250 13100 50  0001 C CNN
F 1 "GND" H 36250 13200 50  0000 C CNN
F 2 "" H 36250 13350 50  0000 C CNN
F 3 "" H 36250 13350 50  0000 C CNN
	1    36250 13350
	-1   0    0    -1  
$EndComp
$Comp
L Device:R R37
U 1 1 5AAEA587
P 39150 15000
F 0 "R37" V 39230 15000 50  0000 C CNN
F 1 "RH" V 39150 15000 50  0000 C CNN
F 2 "resistance-grospad:Resistor_Horizontal_RM14mm-padcarre2mm" V 39080 15000 50  0001 C CNN
F 3 "" H 39150 15000 50  0000 C CNN
	1    39150 15000
	0    -1   1    0   
$EndComp
$Comp
L Device:R R36
U 1 1 5AAEA58D
P 38750 15000
F 0 "R36" V 38830 15000 50  0000 C CNN
F 1 "RH" V 38750 15000 50  0000 C CNN
F 2 "resistance-grospad:Resistor_Horizontal_RM7mm-pad2mm" V 38680 15000 50  0001 C CNN
F 3 "" H 38750 15000 50  0000 C CNN
	1    38750 15000
	0    -1   1    0   
$EndComp
$Comp
L Device:C C37
U 1 1 5AAEA593
P 38550 15400
F 0 "C37" H 38575 15500 50  0000 L CNN
F 1 "CH" H 38575 15300 50  0000 L CNN
F 2 "resistance-grospad:C_Rect_L7.0mm_W2.5mm_P5.00mm-grospad" H 38588 15250 50  0001 C CNN
F 3 "" H 38550 15400 50  0000 C CNN
	1    38550 15400
	1    0    0    1   
$EndComp
$Comp
L Device:C C35
U 1 1 5AAEA599
P 38050 14450
F 0 "C35" H 38075 14550 50  0000 L CNN
F 1 "CH" H 38075 14350 50  0000 L CNN
F 2 "resistance-grospad:C_Rect_L7.0mm_W2.5mm_P5.00mm-grospad" H 38088 14300 50  0001 C CNN
F 3 "" H 38050 14450 50  0000 C CNN
	1    38050 14450
	0    -1   1    0   
$EndComp
$Comp
L Device:C C34
U 1 1 5AAEA59F
P 38050 14250
F 0 "C34" H 38075 14350 50  0000 L CNN
F 1 "CH" H 38075 14150 50  0000 L CNN
F 2 "resistance-grospad:C_Rect_L7.0mm_W2.5mm_P5.00mm-grospad" H 38088 14100 50  0001 C CNN
F 3 "" H 38050 14250 50  0000 C CNN
	1    38050 14250
	0    -1   1    0   
$EndComp
$Comp
L power:GND #PWR?
U 1 1 5AAEA5A7
P 38550 15550
F 0 "#PWR?" H 38550 15300 50  0001 C CNN
F 1 "GND" H 38550 15400 50  0000 C CNN
F 2 "" H 38550 15550 50  0000 C CNN
F 3 "" H 38550 15550 50  0000 C CNN
	1    38550 15550
	-1   0    0    -1  
$EndComp
$Comp
L Device:R R32
U 1 1 5AAEA5B3
P 37050 15100
F 0 "R32" V 37130 15100 50  0000 C CNN
F 1 "RH" V 37050 15100 50  0000 C CNN
F 2 "resistance-grospad:Resistor_Horizontal_RM7mm-pad2mm" V 36980 15100 50  0001 C CNN
F 3 "" H 37050 15100 50  0000 C CNN
	1    37050 15100
	0    -1   1    0   
$EndComp
$Comp
L Device:R R31
U 1 1 5AAEA5B9
P 36500 15100
F 0 "R31" V 36580 15100 50  0000 C CNN
F 1 "RH" V 36500 15100 50  0000 C CNN
F 2 "resistance-grospad:Resistor_Horizontal_RM7mm-pad2mm" V 36430 15100 50  0001 C CNN
F 3 "" H 36500 15100 50  0000 C CNN
	1    36500 15100
	0    -1   1    0   
$EndComp
$Comp
L Device:C C31
U 1 1 5AAEA5BF
P 36300 15500
F 0 "C31" H 36325 15600 50  0000 L CNN
F 1 "CH" H 36325 15400 50  0000 L CNN
F 2 "resistance-grospad:C_Rect_L7.0mm_W2.5mm_P5.00mm-grospad" H 36338 15350 50  0001 C CNN
F 3 "" H 36300 15500 50  0000 C CNN
	1    36300 15500
	1    0    0    1   
$EndComp
$Comp
L Device:C C30
U 1 1 5AAEA5C5
P 35800 14550
F 0 "C30" H 35825 14650 50  0000 L CNN
F 1 "CH" H 35825 14450 50  0000 L CNN
F 2 "resistance-grospad:C_Rect_L9.0mm_W2.7mm_P7.50mm_MKT-grospad-padcarre2mm" H 35838 14400 50  0001 C CNN
F 3 "" H 35800 14550 50  0000 C CNN
	1    35800 14550
	0    -1   1    0   
$EndComp
$Comp
L Device:C C29
U 1 1 5AAEA5CB
P 35800 14350
F 0 "C29" H 35825 14450 50  0000 L CNN
F 1 "CH" H 35825 14250 50  0000 L CNN
F 2 "resistance-grospad:C_Rect_L9.0mm_W2.7mm_P7.50mm_MKT-grospad-padcarre2mm" H 35838 14200 50  0001 C CNN
F 3 "" H 35800 14350 50  0000 C CNN
	1    35800 14350
	0    -1   1    0   
$EndComp
$Comp
L power:GND #PWR?
U 1 1 5AAEA5D1
P 36300 15700
F 0 "#PWR?" H 36300 15450 50  0001 C CNN
F 1 "GND" H 36300 15550 50  0000 C CNN
F 2 "" H 36300 15700 50  0000 C CNN
F 3 "" H 36300 15700 50  0000 C CNN
	1    36300 15700
	-1   0    0    -1  
$EndComp
$Comp
L Device:CP C18
U 1 1 5AAEA5DD
P 34700 12300
F 0 "C18" H 34725 12400 50  0000 L CNN
F 1 "10u" H 34725 12200 50  0000 L CNN
F 2 "resistance-grospad:C_Radial_D6.3_L11.2_P2.5-GROSPAD" H 34738 12150 50  0001 C CNN
F 3 "" H 34700 12300 50  0000 C CNN
	1    34700 12300
	0    1    -1   0   
$EndComp
Text Notes 37250 11450 2    60   ~ 0
coupe Bas -24 dB
Text Notes 37400 14050 2    60   ~ 0
pass bas -24 dB
$Comp
L Filtre2Voies-rescue:CONN_01X02-Filtre4voies-Sommateur-rescue-Filtre4voies-Sommateur-rescue-Filtre2Voies-rescue P4
U 1 1 5AAEA709
P 39950 12250
F 0 "P4" H 39950 12400 50  0000 C CNN
F 1 "IN" V 40050 12250 50  0000 C CNN
F 2 "resistance-grospad:grospad-connector-2-ecarte" H 39950 12250 50  0001 C CNN
F 3 "" H 39950 12250 50  0000 C CNN
	1    39950 12250
	1    0    0    1   
$EndComp
$Comp
L Device:R R38
U 1 1 5AAEA70F
P 39600 12700
F 0 "R38" V 39680 12700 50  0000 C CNN
F 1 "20" V 39600 12700 50  0000 C CNN
F 2 "resistance-grospad:Resistor_Horizontal_RM7mm-pad2mm" V 39530 12700 50  0001 C CNN
F 3 "" H 39600 12700 50  0000 C CNN
	1    39600 12700
	-1   0    0    -1  
$EndComp
$Comp
L power:GND #PWR?
U 1 1 5AAEA715
P 39600 12850
F 0 "#PWR?" H 39600 12600 50  0001 C CNN
F 1 "GND" H 39600 12700 50  0000 C CNN
F 2 "" H 39600 12850 50  0000 C CNN
F 3 "" H 39600 12850 50  0000 C CNN
	1    39600 12850
	-1   0    0    -1  
$EndComp
Wire Wire Line
	36300 15700 36300 15650
Connection ~ 35350 14350
Wire Wire Line
	35350 14550 35650 14550
Wire Wire Line
	35350 14350 35350 14550
Connection ~ 34950 15200
Wire Wire Line
	34950 14350 35350 14350
Wire Wire Line
	34950 14350 34950 15200
Wire Wire Line
	34950 15750 36100 15750
Wire Wire Line
	36100 15750 36100 15300
Wire Wire Line
	36100 15300 35800 15300
Connection ~ 36300 15100
Wire Wire Line
	36300 15350 36300 15100
Wire Wire Line
	35800 15100 36300 15100
Connection ~ 36100 14350
Wire Wire Line
	36100 14550 36100 14350
Wire Wire Line
	35950 14550 36100 14550
Connection ~ 36700 15100
Wire Wire Line
	36650 15100 36700 15100
Wire Wire Line
	36700 14350 36700 15100
Wire Wire Line
	35950 14350 36100 14350
Connection ~ 37600 14250
Wire Wire Line
	37600 14450 37900 14450
Wire Wire Line
	37600 14250 37600 14450
Connection ~ 37350 15100
Wire Wire Line
	37350 14250 37600 14250
Wire Wire Line
	37200 15100 37350 15100
Wire Wire Line
	37350 14250 37350 15100
Wire Wire Line
	38350 15650 38350 15200
Wire Wire Line
	38550 15250 38550 15000
Connection ~ 38350 14250
Wire Wire Line
	38350 14450 38350 14250
Wire Wire Line
	38200 14450 38350 14450
Connection ~ 38950 15000
Wire Wire Line
	38900 15000 38950 15000
Wire Wire Line
	38950 14250 38950 15000
Wire Wire Line
	38200 14250 38350 14250
Connection ~ 37000 12200
Wire Wire Line
	35000 12850 36050 12850
Wire Wire Line
	36050 12850 36050 12400
Wire Wire Line
	36050 12400 35750 12400
Connection ~ 36250 12200
Wire Wire Line
	36250 12600 36250 12200
Connection ~ 35000 12300
Wire Wire Line
	35000 11800 36100 11800
Wire Wire Line
	34850 12300 35000 12300
Wire Wire Line
	35000 11800 35000 12300
Wire Wire Line
	36250 12900 36250 12950
Wire Wire Line
	35750 12200 36250 12200
Connection ~ 36650 12200
Wire Wire Line
	36650 11800 36400 11800
Wire Wire Line
	36650 12200 36650 11800
Wire Wire Line
	36600 12200 36650 12200
Wire Wire Line
	37000 12850 38050 12850
Wire Wire Line
	38050 12850 38050 12400
Wire Wire Line
	38050 12400 37750 12400
Wire Wire Line
	38000 10600 38000 10700
Wire Wire Line
	38050 10600 38000 10600
Wire Wire Line
	38000 11200 38050 11200
Connection ~ 38250 12200
Wire Wire Line
	38250 12600 38250 12200
Connection ~ 37000 12300
Wire Wire Line
	37000 11800 38100 11800
Wire Wire Line
	37000 12300 37150 12300
Wire Wire Line
	37000 11800 37000 12200
Wire Wire Line
	38250 12900 38250 12950
Wire Wire Line
	37750 12200 38250 12200
Connection ~ 38650 12200
Wire Wire Line
	38650 11800 38400 11800
Wire Wire Line
	38650 12200 38650 11800
Wire Wire Line
	38600 12200 38650 12200
Wire Wire Line
	39750 12300 39600 12300
Wire Wire Line
	39600 12300 39600 12550
Text Notes 11600 6500 0    394  ~ 79
RH :  7k5    CH:  3.3n\nRM : 5k6     CM: 100n\nRL  : 12k     CL : 100n\n	
Wire Wire Line
	35350 14350 35650 14350
Wire Wire Line
	34950 15200 34950 15750
Wire Wire Line
	34950 15200 35200 15200
Wire Wire Line
	36300 15100 36350 15100
Wire Wire Line
	36100 14350 36700 14350
Wire Wire Line
	36700 15100 36900 15100
Wire Wire Line
	37600 14250 37900 14250
Wire Wire Line
	37350 15100 37450 15100
Wire Wire Line
	37350 15100 37350 15650
Wire Wire Line
	38550 15000 38600 15000
Wire Wire Line
	38350 14250 38950 14250
Wire Wire Line
	38950 15000 39000 15000
Wire Wire Line
	37000 12200 37000 12300
Wire Wire Line
	36250 12200 36300 12200
Wire Wire Line
	35000 12300 35150 12300
Wire Wire Line
	35000 12300 35000 12850
Wire Wire Line
	36650 12200 36700 12200
Wire Wire Line
	38250 12200 38300 12200
Wire Wire Line
	37000 12300 37000 12850
Wire Wire Line
	38650 12200 38700 12200
Wire Wire Line
	36250 13250 36250 13350
Wire Wire Line
	38250 13250 38250 13350
Wire Wire Line
	39500 15000 39300 15000
Wire Wire Line
	39000 12200 39500 12200
Wire Wire Line
	39500 12200 39500 15000
Connection ~ 39500 12200
Wire Wire Line
	39500 12200 39750 12200
$Comp
L Amplifier_Operational:TL074 U6
U 2 1 5D625CDD
P 35450 12300
F 0 "U6" H 35450 12667 50  0000 C CNN
F 1 "TL074" H 35450 12576 50  0000 C CNN
F 2 "resistance-grospad:DIP-14_W7.62mm_LongPads-padcarre2mm" H 35400 12400 50  0001 C CNN
F 3 "http://www.ti.com/lit/ds/symlink/tl071.pdf" H 35500 12500 50  0001 C CNN
	2    35450 12300
	-1   0    0    -1  
$EndComp
$Comp
L Amplifier_Operational:TL074 U6
U 1 1 5D900E98
P 37450 12300
F 0 "U6" H 37450 12667 50  0000 C CNN
F 1 "TL074" H 37450 12576 50  0000 C CNN
F 2 "resistance-grospad:DIP-14_W7.62mm_LongPads-padcarre2mm" H 37400 12400 50  0001 C CNN
F 3 "http://www.ti.com/lit/ds/symlink/tl071.pdf" H 37500 12500 50  0001 C CNN
	1    37450 12300
	-1   0    0    -1  
$EndComp
$Comp
L Device:C C63
U 1 1 5DA229C8
P 38000 10850
F 0 "C63" H 38025 10950 50  0000 L CNN
F 1 "100n" H 38025 10750 50  0000 L CNN
F 2 "resistance-grospad:C_Rect_L7.0mm_W2.5mm_P5.00mm-grospad" H 38038 10700 50  0001 C CNN
F 3 "" H 38000 10850 50  0000 C CNN
	1    38000 10850
	1    0    0    -1  
$EndComp
$Comp
L Amplifier_Operational:TL074 U6
U 5 1 5DBCCFB1
P 37550 10900
F 0 "U6" H 37362 10946 50  0000 R CNN
F 1 "TL074" H 37362 10855 50  0000 R CNN
F 2 "resistance-grospad:DIP-14_W7.62mm_LongPads-padcarre2mm" H 37500 11000 50  0001 C CNN
F 3 "http://www.ti.com/lit/ds/symlink/tl071.pdf" H 37600 11100 50  0001 C CNN
	5    37550 10900
	-1   0    0    -1  
$EndComp
Wire Wire Line
	37650 11200 38000 11200
Connection ~ 38000 11200
Wire Wire Line
	37650 10600 38000 10600
Connection ~ 38000 10600
Wire Wire Line
	38000 11000 38000 11200
Connection ~ 38550 15000
Wire Wire Line
	38050 15000 38550 15000
Wire Wire Line
	38350 15200 38050 15200
Wire Wire Line
	37350 15650 38350 15650
$Comp
L Amplifier_Operational:TL074 U6
U 3 1 5E044CA3
P 35500 15200
F 0 "U6" H 35500 15567 50  0000 C CNN
F 1 "TL074" H 35500 15476 50  0000 C CNN
F 2 "resistance-grospad:DIP-14_W7.62mm_LongPads-padcarre2mm" H 35450 15300 50  0001 C CNN
F 3 "http://www.ti.com/lit/ds/symlink/tl071.pdf" H 35550 15400 50  0001 C CNN
	3    35500 15200
	-1   0    0    -1  
$EndComp
$Comp
L Amplifier_Operational:TL074 U6
U 4 1 5E0469B9
P 37750 15100
F 0 "U6" H 37750 15467 50  0000 C CNN
F 1 "TL074" H 37750 15376 50  0000 C CNN
F 2 "resistance-grospad:DIP-14_W7.62mm_LongPads-padcarre2mm" H 37700 15200 50  0001 C CNN
F 3 "http://www.ti.com/lit/ds/symlink/tl071.pdf" H 37800 15300 50  0001 C CNN
	4    37750 15100
	-1   0    0    -1  
$EndComp
Wire Wire Line
	34550 12300 34500 12300
$Comp
L Filtre2Voies-rescue:CONN_01X02-Filtre4voies-Sommateur-rescue-Filtre4voies-Sommateur-rescue-Filtre2Voies-rescue P3
U 1 1 5E6F6AE7
P 34300 12350
F 0 "P3" H 34300 12500 50  0000 C CNN
F 1 "HighOut" V 34400 12350 50  0000 C CNN
F 2 "resistance-grospad:grospad-connector-2-ecarte" H 34300 12350 50  0001 C CNN
F 3 "" H 34300 12350 50  0000 C CNN
	1    34300 12350
	-1   0    0    -1  
$EndComp
$Comp
L power:GND #PWR?
U 1 1 5E6F8339
P 34500 12400
F 0 "#PWR?" H 34500 12150 50  0001 C CNN
F 1 "GND" H 34500 12250 50  0000 C CNN
F 2 "" H 34500 12400 50  0000 C CNN
F 3 "" H 34500 12400 50  0000 C CNN
	1    34500 12400
	0    -1   1    0   
$EndComp
$Comp
L Device:CP C4
U 1 1 5E6FEC22
P 34650 15200
F 0 "C4" H 34675 15300 50  0000 L CNN
F 1 "10u" H 34675 15100 50  0000 L CNN
F 2 "resistance-grospad:C_Radial_D6.3_L11.2_P2.5-GROSPAD-ecarte+++" H 34688 15050 50  0001 C CNN
F 3 "" H 34650 15200 50  0000 C CNN
	1    34650 15200
	0    1    -1   0   
$EndComp
Wire Wire Line
	34800 15200 34950 15200
Wire Wire Line
	34500 15200 34450 15200
$Comp
L Filtre2Voies-rescue:CONN_01X02-Filtre4voies-Sommateur-rescue-Filtre4voies-Sommateur-rescue-Filtre2Voies-rescue P2
U 1 1 5E6FEC2E
P 34250 15250
F 0 "P2" H 34250 15400 50  0000 C CNN
F 1 "LowOut" V 34350 15250 50  0000 C CNN
F 2 "resistance-grospad:grospad-connector-2-ecarte" H 34250 15250 50  0001 C CNN
F 3 "" H 34250 15250 50  0000 C CNN
	1    34250 15250
	-1   0    0    -1  
$EndComp
$Comp
L power:GND #PWR?
U 1 1 5E6FEC38
P 34450 15300
F 0 "#PWR?" H 34450 15050 50  0001 C CNN
F 1 "GND" H 34450 15150 50  0000 C CNN
F 2 "" H 34450 15300 50  0000 C CNN
F 3 "" H 34450 15300 50  0000 C CNN
	1    34450 15300
	0    -1   1    0   
$EndComp
Wire Wire Line
	9350 9050 9350 9150
Wire Wire Line
	9350 8850 9450 8850
Wire Wire Line
	9950 8850 9950 8950
Wire Wire Line
	9900 9150 9950 9150
Wire Wire Line
	9950 9150 9950 9300
Wire Wire Line
	9900 8950 9950 8950
Wire Wire Line
	9350 8950 9600 8950
Wire Wire Line
	9350 9150 9600 9150
$Comp
L power:GND #PWR?
U 1 1 5AAADB83
P 9450 8850
F 0 "#PWR?" H 9450 8600 50  0001 C CNN
F 1 "GND" H 9450 8700 50  0000 C CNN
F 2 "" H 9450 8850 50  0000 C CNN
F 3 "" H 9450 8850 50  0000 C CNN
	1    9450 8850
	0    -1   -1   0   
$EndComp
Text GLabel 9950 9300 3    60   Input ~ 0
Vmoins
Text GLabel 9950 8850 1    60   Input ~ 0
Vplus
$Comp
L Device:R R2
U 1 1 5AAADAD8
P 9750 9150
F 0 "R2" V 9830 9150 50  0000 C CNN
F 1 "2R2" V 9750 9150 50  0000 C CNN
F 2 "resistance-grospad:Resistor_Horizontal_RM9mm-padcarre2mm" V 9680 9150 50  0001 C CNN
F 3 "" H 9750 9150 50  0000 C CNN
	1    9750 9150
	0    1    1    0   
$EndComp
$Comp
L Device:R R1
U 1 1 5AAADAD2
P 9750 8950
F 0 "R1" V 9830 8950 50  0000 C CNN
F 1 "2R2" V 9750 8950 50  0000 C CNN
F 2 "resistance-grospad:Resistor_Horizontal_RM9mm-padcarre2mm" V 9680 8950 50  0001 C CNN
F 3 "" H 9750 8950 50  0000 C CNN
	1    9750 8950
	0    1    1    0   
$EndComp
$Comp
L Filtre2Voies-rescue:CONN_01X03-Filtre4voies-Sommateur-rescue-Filtre4voies-Sommateur-rescue-Filtre2Voies-rescue P1
U 1 1 5AAADACC
P 9150 8950
F 0 "P1" H 9150 9150 50  0000 C CNN
F 1 "CONN_01X03" H 9250 8950 50  0000 C CNN
F 2 "resistance-grospad:Fan_Pin_Header_Straight_1x03-grospad" H 9150 8950 50  0001 C CNN
F 3 "" H 9150 8950 50  0000 C CNN
	1    9150 8950
	-1   0    0    1   
$EndComp
Text Notes 35200 11750 2    60   ~ 0
Sommateur inverseur (-6dB)\n\n
$EndSCHEMATC
