G04 #@! TF.GenerationSoftware,KiCad,Pcbnew,5.1.8+dfsg1-1~bpo10+1*
G04 #@! TF.CreationDate,2021-04-03T15:20:04+02:00*
G04 #@! TF.ProjectId,filtre-sallenkey,66696c74-7265-42d7-9361-6c6c656e6b65,rev?*
G04 #@! TF.SameCoordinates,Original*
G04 #@! TF.FileFunction,Soldermask,Top*
G04 #@! TF.FilePolarity,Negative*
%FSLAX46Y46*%
G04 Gerber Fmt 4.6, Leading zero omitted, Abs format (unit mm)*
G04 Created by KiCad (PCBNEW 5.1.8+dfsg1-1~bpo10+1) date 2021-04-03 15:20:04*
%MOMM*%
%LPD*%
G01*
G04 APERTURE LIST*
%ADD10R,2.000000X2.000000*%
%ADD11R,2.340000X2.340000*%
%ADD12R,1.400000X1.400000*%
%ADD13R,2.000000X2.500000*%
G04 APERTURE END LIST*
D10*
X236000000Y-108000000D03*
X236000000Y-103000000D03*
D11*
X205000000Y-130000000D03*
X200000000Y-130000000D03*
X195000000Y-130000000D03*
X235000000Y-130000000D03*
X230000000Y-130000000D03*
X225000000Y-130000000D03*
X235000000Y-125000000D03*
X230000000Y-125000000D03*
X225000000Y-125000000D03*
D12*
X214850000Y-97500000D03*
X217350000Y-97500000D03*
X223550000Y-100500000D03*
X223550000Y-103000000D03*
X222900000Y-115450000D03*
X222900000Y-112950000D03*
D10*
X196500000Y-103250000D03*
X196500000Y-110250000D03*
X191500000Y-102600000D03*
X191500000Y-111680000D03*
X189000000Y-96000000D03*
X194000000Y-96000000D03*
X211500000Y-91500000D03*
X211500000Y-96500000D03*
X229000000Y-108000000D03*
X229000000Y-103000000D03*
X201880000Y-99850000D03*
X209500000Y-99850000D03*
X228070000Y-96700000D03*
X220450000Y-96700000D03*
X237450000Y-119620000D03*
X237450000Y-112000000D03*
X227000000Y-112130000D03*
X227000000Y-119750000D03*
X233750000Y-119670000D03*
X233750000Y-112050000D03*
X198620000Y-100200000D03*
X191000000Y-100200000D03*
X209070000Y-111850000D03*
X201450000Y-111850000D03*
X209020000Y-108750000D03*
X201400000Y-108750000D03*
X201880000Y-103200000D03*
X209500000Y-103200000D03*
X206620000Y-95500000D03*
X199000000Y-95500000D03*
X201880000Y-117750000D03*
X209500000Y-117750000D03*
X228050000Y-93350000D03*
X220430000Y-93350000D03*
X230350000Y-112080000D03*
X230350000Y-119700000D03*
D13*
X238590000Y-96650000D03*
X233510000Y-96650000D03*
X236050000Y-96650000D03*
D10*
X201900000Y-120800000D03*
X213980000Y-120800000D03*
X195350000Y-114750000D03*
X209350000Y-114750000D03*
X196200000Y-91000000D03*
X193660000Y-91000000D03*
X201750000Y-91500000D03*
X204290000Y-91500000D03*
X219940000Y-100500000D03*
X219940000Y-103040000D03*
X219940000Y-105580000D03*
X219940000Y-108120000D03*
X219940000Y-110660000D03*
X219940000Y-113200000D03*
X219940000Y-115740000D03*
X212320000Y-115740000D03*
X212320000Y-113200000D03*
X212320000Y-110660000D03*
X212320000Y-108120000D03*
X212320000Y-105580000D03*
X212320000Y-103040000D03*
X212320000Y-100500000D03*
D13*
X236000000Y-91950000D03*
X233460000Y-91950000D03*
X238540000Y-91950000D03*
X194500000Y-120500000D03*
X191960000Y-120500000D03*
X197040000Y-120500000D03*
M02*
