(module Resistor_Horizontal_RM12mm (layer F.Cu) (tedit 5C2C8ABC)
  (descr "Resistor, Axial,  RM 10mm, 1/3W,")
  (tags "Resistor, Axial, RM 10mm, 1/3W,")
  (fp_text reference R8 (at 0.24892 -3.50012) (layer F.SilkS)
    (effects (font (size 1 1) (thickness 0.15)))
  )
  (fp_text value 10k (at -0.521973 -0.096908 90) (layer F.Fab)
    (effects (font (size 1 1) (thickness 0.15)))
  )
  (fp_line (start -2.94 -1.27) (end 2.14 -1.27) (layer F.SilkS) (width 0.15))
  (fp_line (start 2.14 -1.27) (end 2.14 1.27) (layer F.SilkS) (width 0.15))
  (fp_line (start 2.14 1.27) (end -2.94 1.27) (layer F.SilkS) (width 0.15))
  (fp_line (start -2.94 1.27) (end -2.94 -1.27) (layer F.SilkS) (width 0.15))
  (fp_line (start -2.54 0) (end -3.81 0) (layer F.SilkS) (width 0.15))
  (fp_line (start 2.54 0) (end 3.81 0) (layer F.SilkS) (width 0.15))
  (pad 1 thru_hole rect (at -6.08 0) (size 2.5 2.5) (drill 1.00076) (layers *.Cu *.SilkS *.Mask))
  (pad 2 thru_hole rect (at 6 0) (size 2.5 2.5) (drill 1.00076) (layers *.Cu *.SilkS *.Mask))
  (model Resistors_ThroughHole.3dshapes/Resistor_Horizontal_RM10mm.wrl
    (at (xyz 0 0 0))
    (scale (xyz 0.4 0.4 0.4))
    (rotate (xyz 0 0 0))
  )
)
