(module Resistor_Horizontal_RM18mm-padcarre2mm (layer F.Cu) (tedit 5D5D025D)
  (descr "Resistor, Axial,  RM 10mm, 1/3W,")
  (tags "Resistor, Axial, RM 10mm, 1/3W,")
  (fp_text reference R35 (at 0.24892 -3.50012) (layer F.SilkS)
    (effects (font (size 1 1) (thickness 0.15)))
  )
  (fp_text value 10k (at -0.521973 -0.096908 90) (layer F.Fab)
    (effects (font (size 1 1) (thickness 0.15)))
  )
  (fp_line (start -2.94 -1.27) (end 2.14 -1.27) (layer F.SilkS) (width 0.15))
  (fp_line (start 2.14 -1.27) (end 2.14 1.27) (layer F.SilkS) (width 0.15))
  (fp_line (start 2.14 1.27) (end -2.94 1.27) (layer F.SilkS) (width 0.15))
  (fp_line (start -2.94 1.27) (end -2.94 -1.27) (layer F.SilkS) (width 0.15))
  (fp_line (start -2.54 0) (end -3.81 0) (layer F.SilkS) (width 0.15))
  (fp_line (start 2.54 0) (end 3.81 0) (layer F.SilkS) (width 0.15))
  (pad 1 thru_hole rect (at -9 0) (size 2 2) (drill 1.00076) (layers *.Cu *.SilkS *.Mask))
  (pad 2 thru_hole rect (at 9 0) (size 2 2) (drill 1.00076) (layers *.Cu *.SilkS *.Mask))
  (model Resistors_ThroughHole.3dshapes/Resistor_Horizontal_RM10mm.wrl
    (at (xyz 0 0 0))
    (scale (xyz 0.4 0.4 0.4))
    (rotate (xyz 0 0 0))
  )
  (model ${KISYS3DMOD}/Resistor_THT.3dshapes/R_Axial_DIN0207_L6.3mm_D2.5mm_P15.24mm_Horizontal.step
    (offset (xyz -7.5 0 0))
    (scale (xyz 1 1 1))
    (rotate (xyz 0 0 0))
  )
)
